"관리기관명",소재지도로명주소,소재지지번주소,설치목적구분,카메라대수,카메라화소수,촬영방면정보,보관일수,설치년월,관리기관전화번호,위도,경도,데이터기준일자
"동래구청",부산광역시 동래구 여고로63번가길 12,부산광역시 동래구 사직동 126-1,다목적,1,200,360도,30,,051-550-6962,35.19790839,129.0689606,2020-03-14
"동래구청",부산광역시 동래구 충렬대로321번길 15-4,부산광역시 동래구 안락동 803-9,다목적,1,200,360도,30,,051-550-6962,35.19997791,129.0942947,2020-03-14
"동래구청",부산광역시 동래구 충렬대로376번길 16,부산광역시 동래구 안락동 433-11,다목적,1,200,360도,30,,051-550-6962,35.19673201,129.0991823,2020-03-14
"동래구청",부산광역시 동래구 온천천로319번길 20,부산광역시 동래구 수안동 40-1,다목적,1,200,360도,30,,051-550-6962,35.19565845,129.0885191,2020-03-14
"동래구청",부산광역시 동래구 안락로101번길 16,부산광역시 동래구 안락동 1229-2,다목적,1,200,360도,30,,051-550-6962,35.20007627,129.1085607,2020-03-14
"동래구청",부산광역시 동래구 충렬사로 53,부산광역시 동래구 명장동 25-14,다목적,1,200,360도,30,,051-550-6962,35.20376656,129.0986519,2020-03-14
"동래구청",부산광역시 동래구 차밭골로49번가길 5,부산광역시 동래구 온천동 344-2,다목적,1,200,360도,30,,051-550-6962,35.21662433,129.0756508,2020-03-14
"동래구청",부산광역시 동래구 금강로123번길 32,부산광역시 동래구 온천동 121-7,다목적,1,200,360도,30,,051-550-6962,35.22028894,129.0786652,2020-03-14
"동래구청",부산광역시 동래구 아시아드대로225번길 6,부산광역시 동래구 온천동 1246-20,다목적,1,200,360도,30,,051-550-6962,35.20464898,129.0662199,2020-03-14
"동래구청",부산광역시 동래구 아시아드대로208번길 48,부산광역시 동래구 온천동 1376-7,다목적,1,200,360도,30,,051-550-6962,35.20162794,129.0685631,2020-03-14
"동래구청",부산광역시 동래구 여고로63번가길 12,부산광역시 동래구 사직동 126-1,다목적,1,200,360도,30,,051-550-6962,35.19790839,129.0689606,2020-03-14
"동래구청",부산광역시 동래구 명륜로139번길 25-4,부산광역시 동래구 명륜동 557-7,다목적,1,200,360도,30,,051-550-6962,35.2061929,129.080604,2020-03-14
"동래구청",부산광역시 동래구 안락로101번길 16,부산광역시 동래구 안락동 1229-2,다목적,1,200,360도,30,,051-550-6962,35.20007627,129.1085607,2020-03-14
"동래구청",부산광역시 동래구 사직로70번길 76,부산광역시 동래구 사직동 43-1,다목적,1,200,360도,30,,051-550-6962,35.19861424,129.0573676,2020-03-14
"동래구청",부산광역시 동래구 사직로70번길 76,부산광역시 동래구 사직동 43-1,다목적,1,200,360도,30,,051-550-6962,35.19861424,129.0573676,2020-03-14
"동래구청",부산광역시 동래구 사직로70번길 76,부산광역시 동래구 사직동 43-1,다목적,1,200,360도,30,,051-550-6962,35.19861424,129.0573676,2020-03-14
"동래구청",부산광역시 동래구 사직로70번길 76,부산광역시 동래구 사직동 43-1,다목적,1,200,360도,30,,051-550-6962,35.19861424,129.0573676,2020-03-14
"동래구청",부산광역시 동래구 온천천로 461-1,부산광역시 동래구 안락동 221-30,다목적,1,200,360도,30,,051-550-6962,35.19142697,129.1034894,2020-03-14
"동래구청",부산광역시 동래구 온천천로381번길 19,부산광역시 동래구 낙민동 85-10,다목적,1,200,360도,30,,051-550-6962,35.19402822,129.0937907,2020-03-14
"동래구청",부산광역시 동래구 명안로53번길 22,부산광역시 동래구 명장동 104-5,다목적,1,130,360도,30,,051-550-6962,35.20200633,129.1030816,2020-03-14
"동래구청",부산광역시 동래구 명장로99번길 25,부산광역시 동래구 명장동 산12,다목적,1,130,360도,30,,051-550-6962,35.202261,129.1132942,2020-03-14
"동래구청",부산광역시 동래구 쇠미로81번길 7,부산광역시 동래구 사직동 592,다목적,1,130,360도,30,,051-550-6962,35.20088177,129.0541707,2020-03-14
"동래구청",부산광역시 동래구 안남로 63,부산광역시 동래구 안락동 1252,다목적,1,130,360도,30,,051-550-6962,35.1947457,129.0991926,2020-03-14
"동래구청",부산광역시 동래구 쇠미로 131,부산광역시 동래구 온천동 1608-2,다목적,1,130,360도,30,,051-550-6962,35.20357275,129.059996,2020-03-14
"동래구청",부산광역시 동래구 충렬사로67번길 56,부산광역시 동래구 명장동 263-5,다목적,1,130,360도,30,,051-550-6962,35.20686177,129.0970539,2020-03-14
"동래구청",부산광역시 동래구 연안로 38,부산광역시 동래구 안락동 176-9,다목적,1,130,360도,30,,051-550-6962,35.1911436,129.1079266,2020-03-14
"동래구청",부산광역시 동래구 금강공원로 50,부산광역시 동래구 온천동 240-1,다목적,1,130,360도,30,,051-550-6962,35.21882614,129.079256,2020-03-14
"동래구청",부산광역시 동래구 시실로211번길 64-12,부산광역시 동래구 명장동 305-11,다목적,1,130,360도,30,,051-550-6962,35.20939797,129.100255,2020-03-14
"동래구청",부산광역시 동래구 온천천로543번길 24,부산광역시 동래구 안락동 170-1,다목적,1,130,360도,30,,051-550-6962,35.19097861,129.1128833,2020-03-14
"동래구청",부산광역시 동래구 명안로46번길 38,부산광역시 동래구 안락동 1226-7,다목적,1,130,360도,30,,051-550-6962,35.20052041,129.1066531,2020-03-14
"동래구청",부산광역시 동래구 명안로46번길 17,부산광역시 동래구 명장동 610-40,다목적,1,130,360도,30,,051-550-6962,35.20077776,129.1055355,2020-03-14
"동래구청",부산광역시 동래구 아시아드대로181번길 12,부산광역시 동래구 사직동 56-14,다목적,1,200,360도,30,,051-550-6962,35.2008964,129.0641132,2020-03-14
"동래구청",부산광역시 동래구 명안로46번라길 20-8,부산광역시 동래구 안락동 1225-14,다목적,1,200,360도,30,,051-550-6962,35.19997525,129.1060813,2020-03-14
"동래구청",부산광역시 동래구 안남로31번길 51,부산광역시 동래구 낙민동 92-3,다목적,1,200,360도,30,,051-550-6962,35.19597788,129.0971473,2020-03-14
"동래구청",부산광역시 동래구 안남로 36,부산광역시 동래구 낙민동 90-6,다목적,1,200,360도,30,,051-550-6962,35.19422095,129.095776,2020-03-14
"동래구청",부산광역시 동래구 안락로 101번길 16,부산광역시 동래구 안락동 1229-2,다목적,1,200,360도,30,,051-550-6962,35.20007627,129.1085607,2020-03-14
"동래구청",부산광역시 동래구 온천천로519번길 78,부산광역시 동래구 안락동 160-1,다목적,1,200,360도,30,,051-550-6962,35.19368157,129.1116711,2020-03-14
"동래구청",부산광역시 동래구 사직로80,부산광역시 동래구 사직동 1018(사직동 161-7도),다목적,1,200,360도,30,,051-550-6962,35.19662933,129.0575064,2020-03-14
"동래구청",부산광역시 동래구 쇠미로121번길 106,부산광역시 동래구 온천동 1681-2(온천동 1801-35구),다목적,1,200,360도,30,,051-550-6962,35.20481313,129.0576426,2020-03-14
"동래구청",부산광역시 동래구 우장춘로63번길 30,부산광역시 동래구 온천동 1057-14,다목적,1,200,360도,30,,051-550-6962,35.21397297,129.0700842,2020-03-14
"동래구청",부산광역시 동래구 동래로159번길141,부산광역시 동래구 칠산동 35-10(칠산동 34-6도),다목적,1,200,360도,30,,051-550-6962,35.20720723,129.094173,2020-03-14
"동래구청",부산광역시 동래구 명안로63번길 36,부산광역시 동래구 명장동 65-12,다목적,1,200,360도,30,,051-550-6962,35.20268463,129.1024228,2020-03-14
"동래구청",부산광역시 동래구 아시아드대로108번길85,부산광역시 동래구 사직동 131-5(사직동 161-3도),다목적,1,200,360도,30,,051-550-6962,35.1951955,129.0708293,2020-03-14
"동래구청",부산광역시 동래구 쇠미로136번길24,부산광역시 동래구 온천동 1531-2,다목적,1,200,360도,30,,051-550-6962,35.20269131,129.061379,2020-03-14
"동래구청",부산광역시 동래구 명안로77번길35,부산광역시 동래구 명장동 64-4,다목적,1,200,360도,30,,051-550-6962,35.20377387,129.102385,2020-03-14
"동래구청",부산광역시 동래구 명장로 110,부산광역시 동래구 명장동 152-9,다목적,1,200,360도,30,,051-550-6962,35.20156422,129.1110847,2020-03-14
"동래구청",부산광역시 동래구 석사로33번길 80,부산광역시 동래구 사직동 663(사직동1동 도),다목적,1,200,360도,30,,051-550-6962,35.20179472,129.0600521,2020-03-14
"동래구청",부산광역시 동래구 옥봉로14번길25,부산광역시 동래구 명장동 477-3(명장동 477-4도),다목적,1,200,360도,30,,051-550-6962,35.20985723,129.1068065,2020-03-14
"동래구청",부산광역시 동래구 석사북로95번길72,부산광역시 동래구 온천동 1218-7(온천동 1479도),다목적,1,200,360도,30,,051-550-6962,35.20744115,129.0631329,2020-03-14
"동래구청",부산광역시 동래구 동래로152번 가길 21-9,부산광역시 동래구 칠산동 246,다목적,1,200,360도,30,,051-550-6962,35.20316697,129.088303,2020-03-14
"동래구청",부산광역시 동래구 중앙대로1367번길85,부산광역시 동래구 온천동 707-4,다목적,1,200,360도,30,,051-550-6962,35.21009032,129.0734816,2020-03-14
"동래구청",부산광역시 동래구 충렬대로202번가길24,부산광역시 동래구 수안동 2-3,다목적,1,200,360도,30,,051-550-6962,35.2012240943,129.0828113,2020-03-14
"동래구청",부산광역시 동래구 석사북로 93,부산광역시 동래구 온천동 1236-10,다목적,1,200,360도,30,,051-550-6962,35.20574484,129.0662169,2020-03-14
"동래구청",부산광역시 동래구 명륜로 63번길 7-10,부산광역시 동래구 수안동 9-42,다목적,1,200,360도,30,,051-550-6962,35.19939916,129.0839688,2020-03-14
"동래구청",부산광역시 동래구 안락로 101번길 16,부산광역시 동래구 명장동 612-5,다목적,1,200,360도,30,,051-550-6962,35.20007627,129.1085607,2020-03-14
"동래구청",부산광역시 동래구 충렬대로428번길 27,부산광역시 동래구 안락동 600-13,다목적,1,200,360도,30,,051-550-6962,35.19521901,129.1047333,2020-03-14
"동래구청",부산광역시 동래구 충렬사로 81,부산광역시 동래구 명장동 25-59,다목적,1,130,360도,30,,051-550-6962,35.20579745,129.1002281,2020-03-14
"동래구청",부산광역시 동래구 충렬대로 237번길 117,부산광역시 동래구 명륜동 577,다목적,1,130,360도,30,,051-550-6962,35.20613779,129.0828279,2020-03-14
"동래구청",부산광역시 동래구 미남로 102번길 14,부산광역시 동래구 온천동 1449-6,다목적,1,130,360도,30,,051-550-6962,35.2031076,129.0703573,2020-03-14
"동래구청",부산광역시 동래구 칠산로 39번가길 50,부산광역시 동래구 칠산동 1-94,다목적,1,130,360도,30,,051-550-6962,35.20535519,129.0949642,2020-03-14
"동래구청",부산광역시 동래구 중앙대로 1333번길 55,부산광역시 동래구 온천동 1470,다목적,1,130,360도,30,,051-550-6962,35.20654556,129.074406,2020-03-14
"동래구청",부산광역시 동래구 금정마을로 139번길 47,부산광역시 동래구 온천동 1056-54,다목적,1,130,360도,30,,051-550-6962,35.21387374,129.0682984,2020-03-14
"동래구청",부산광역시 동래구 여고북로 170,부산광역시 동래구 사직동 141-7,다목적,1,130,360도,30,,051-550-6962,35.20197901,129.0741669,2020-03-14
"동래구청",부산광역시 동래구 반송로 255번길 17,부산광역시 동래구 명장동 29-79,다목적,1,130,360도,30,,051-550-6962,35.20397452,129.0997552,2020-03-14
"동래구청",부산광역시 동래구 여고북로 38,부산광역시 동래구 사직동 334-14,다목적,1,130,360도,30,,051-550-6962,35.2008292,129.0672497,2020-03-14
"동래구청",부산광역시 동래구 명안로 26번길 96,부산광역시 동래구 안락동 464-45,다목적,1,130,360도,30,,051-550-6962,35.1983324,129.1095519,2020-03-14
"동래구청",부산광역시 동래구 아시아드대로 195번길 15,부산광역시 동래구 온천동 1266-19,다목적,1,130,360도,30,,051-550-6962,35.202001,129.0645844,2020-03-14
"동래구청",부산광역시 동래구 명안로 25,부산광역시 동래구 안락동 449-1,다목적,1,130,360도,30,,051-550-6962,35.19878024,129.1043246,2020-03-14
"동래구청",부산광역시 동래구 아시아드대로 184번길 37,부산광역시 동래구 사직동 348-16,다목적,1,130,360도,30,,051-550-6962,35.2000229,129.0667740855,2020-03-14
"동래구청",부산광역시 동래구 차밭골로 21번길 27,부산광역시 동래구 온천동 444-72,다목적,1,200,360도,30,,051-550-6962,35.2151983,129.0787198,2020-03-14
"동래구청",부산광역시 동래구 금강로 136,부산광역시 동래구 온천동 93-41,다목적,1,200,360도,30,,051-550-6962,35.2208515,129.0807484,2020-03-14
"동래구청",부산광역시 동래구 충렬대로 107번길 27,부산광역시 동래구 온천동 724,다목적,1,200,360도,30,,051-550-6962,35.208041,129.0725674,2020-03-14
"동래구청",부산광역시 동래구 명안로46번다길 13,부산광역시 동래구 명장동 610-7,다목적,1,200,360도,30,,051-550-6962,35.20131903,129.1052948,2020-03-14
"동래구청",부산광역시 동래구 명서로 155-8,부산광역시 동래구 명장동 321-22,다목적,1,200,360도,30,,051-550-6962,35.20890416,129.1029521,2020-03-14
"동래구청",부산광역시 동래구 아시아드대로247번가길 16,부산광역시 동래구 온천동 1312-1,다목적,1,200,360도,30,,051-550-6962,35.20763503,129.0667699,2020-03-14
"동래구청",부산광역시 동래구 동래로 159번길 58-4,부산광역시 동래구 칠산동 66-2,다목적,1,200,360도,30,,051-550-6962,35.20565627,129.0906856,2020-03-14
"동래구청",부산광역시 동래구 충렬대로 179번길 27-6,부산광역시 동래구 명륜동 533-55,다목적,1,200,360도,30,,051-550-6962,35.20513017,129.0793766,2020-03-14
"동래구청",부산광역시 동래구 동래로 79번길 52,부산광역시 동래구 명륜동 679,다목적,1,200,360도,30,,051-550-6962,35.21057977,129.081716,2020-03-14
"동래구청",부산광역시 동래구 온천천로 131,부산광역시 동래구 명륜동 661-5,다목적,1,200,360도,30,,051-550-6962,35.20796558,129.0796685,2020-03-14
"동래구청",부산광역시 동래구 온천천로 157,부산광역시 동래구 명륜동 533-158,다목적,1,200,360도,30,,051-550-6962,35.20553682,129.0789961,2020-03-14
"동래구청",부산광역시 동래구 충렬대로 197,부산광역시 동래구 명륜동 553-12,다목적,1,200,360도,30,,051-550-6962,35.20455203,129.0811361,2020-03-14
"동래구청",부산광역시 동래구 동래로 65,부산광역시 동래구 명륜동 680-16,다목적,1,200,360도,30,,051-550-6962,35.20952881,129.0809952,2020-03-14
"동래구청",부산광역시 동래구 칠산로39번가길 20-3,부산광역시 동래구 칠산동 1-49,다목적,1,200,360도,30,,051-550-6962,35.20604987,129.0954388,2020-03-14
"동래구청",부산광역시 동래구 아시아드대로 154번길 79,부산광역시 동래구 사직동 123-23,다목적,1,200,360도,30,,051-550-6962,35.19945365,129.0694477,2020-03-14
"동래구청",부산광역시 동래구 온천장로 91,부산광역시 동래구 온천동 169-22,다목적,1,200,360도,30,,051-550-6962,35.21942005,129.0828686,2020-03-14
"동래구청",부산광역시 동래구 중앙대로 1493번길 6,부산광역시 동래구 온천동 160-12,다목적,1,200,360도,30,,051-550-6962,35.21892892,129.0845955,2020-03-14
"동래구청",부산광역시 동래구 온천장로 30번길 12,부산광역시 동래구 온천동 456-24,다목적,1,200,360도,30,,051-550-6962,35.2146079,129.0799346,2020-03-14
"동래구청",부산광역시 동래구 동래로 19번길 16,부산광역시 동래구 온천동 480-34,다목적,1,200,360도,30,,051-550-6962,35.21344906,129.078359,2020-03-14
"동래구청",부산광역시 동래구 금강로 62번길 15-4,부산광역시 동래구 온천동 443-22,다목적,1,200,360도,30,,051-550-6962,35.21474588,129.0779879,2020-03-14
"동래구청",부산광역시 동래구 명륜로 129번길 1,부산광역시 동래구 명륜동 501-1,다목적,1,200,360도,30,,051-550-6962,35.20524927,129.0820937,2020-03-14
"동래구청",부산광역시 동래구 금강로 154,부산광역시 동래구 온천동 145-33,다목적,1,200,360도,30,,051-550-6962,35.22229836,129.0812949,2020-03-14
"동래구청",부산광역시 동래구 충렬대로 108번길 71,부산광역시 동래구 온천동 1459-1,다목적,1,200,360도,30,,051-550-6962,35.203612,129.0734349,2020-03-14
"동래구청",부산광역시 동래구 명서로 121,부산광역시 동래구 명장동 502-1,다목적,1,200,360도,30,,051-550-6962,35.2117828,129.1010614,2020-03-14
"동래구청",부산광역시 동래구 금강로151번가길 10,부산광역시 동래구 온천동 54-4,다목적,1,200,360도,30,,051-550-6962,35.22345653,129.0795542,2020-03-14
"동래구청",부산광역시 동래구 명장로 127번길 7,부산광역시 동래구 명장동 153-52,다목적,1,200,360도,30,,051-550-6962,35.20040479,129.1128728,2020-03-14
"동래구청",부산광역시 동래구 사직북로28번길 61,부산광역시 동래구 사직동 54-46,다목적,1,200,360도,30,,051-550-6962,35.20007061,129.0626566,2020-03-14
"동래구청",부산광역시 동래구 여고로 46,부산광역시 동래구 사직동 115-3,다목적,1,200,360도,30,,051-550-6962,35.1955303,129.0689516,2020-03-14
"동래구청",부산광역시 동래구 쇠미로 37,부산광역시 동래구 사직동 981-100,다목적,1,200,360도,30,,051-550-6962,35.19738094,129.0531515,2020-03-14
"동래구청",부산광역시 동래구 안락로 81,부산광역시 동래구 안락동 455-7,다목적,1,200,360도,30,,051-550-6962,35.19950163,129.1057485,2020-03-14
"동래구청",부산광역시 동래구 충렬대로 411,부산광역시 동래구 안락동 581-2,다목적,1,200,360도,30,,051-550-6962,35.19696113,129.1034258,2020-03-14
"동래구청",부산광역시 동래구 여고로 113번길 25,부산광역시 동래구 사직동 148-53,다목적,1,200,360도,30,,051-550-6962,35.19955144,129.0746848,2020-03-14
"동래구청",부산광역시 동래구 명장로 106번길 115,부산광역시 동래구 명장동 140-89,다목적,1,200,360도,30,,051-550-6962,35.20258401,129.1046863,2020-03-14
"동래구청",부산광역시 동래구 시실로 107번길 151,부산광역시 동래구 명장동 508-72,다목적,1,200,360도,30,,051-550-6962,35.21122586,129.0985716,2020-03-14
"동래구청",부산광역시 동래구 충렬대로 410번길 50,부산광역시 동래구 안락동 662-3,다목적,1,200,360도,30,,051-550-6962,35.19465272,129.1020577,2020-03-14
"동래구청",부산광역시 동래구 명안로 26번길 55,부산광역시 동래구 안락동 454-13,다목적,1,200,360도,30,,051-550-6962,35.19872265,129.1074278,2020-03-14
"동래구청",부산광역시 동래구 충렬대로459번길 60-17,부산광역시 동래구 안락동 472-25,다목적,1,200,360도,30,,051-550-6962,35.19729664,129.1112773,2020-03-14
"동래구청",부산광역시 동래구 충렬대로 100번길 112,부산광역시 동래구 온천동 1467-51,다목적,1,200,360도,30,,051-550-6962,35.20217813,129.0726437,2020-03-14
"동래구청",부산광역시 동래구 동래로 160,부산광역시 동래구 칠산동 246,다목적,1,200,360도,30,,051-550-6962,35.20358453,129.0879185,2020-03-14
"동래구청",부산광역시 동래구 명륜로 138번길 32-14,부산광역시 동래구 명륜동 264-1,다목적,1,200,360도,30,,051-550-6962,35.2066888,129.084322,2020-03-14
"동래구청",부산광역시 동래구 명안로 72번길 64,부산광역시 동래구 명장동 142-3,다목적,1,200,360도,30,,051-550-6962,35.20258764,129.1075848,2020-03-14
"동래구청",부산광역시 동래구 중앙대로 1324,부산광역시 동래구 명륜동 533-101,다목적,1,200,360도,30,,051-550-6962,35.2039068,129.0784015,2020-03-14
"동래구청",부산광역시 동래구 금정마을로 105,부산광역시 동래구 온천동 1123-1,다목적,1,200,360도,30,,051-550-6962,35.21221599,129.0657441,2020-03-14
"동래구청",부산광역시 동래구 명장로 162,부산광역시 동래구 안락동 470-79,다목적,1,200,360도,30,,051-550-6962,35.19755292,129.1118767,2020-03-14
"동래구청",부산광역시 동래구 명안로 78번길 9,부산광역시 동래구 명장동 136-13,다목적,1,200,360도,30,,051-550-6962,35.20371298,129.1048516,2020-03-14
"동래구청",부산광역시 동래구 사직북로 48번길 25,부산광역시 동래구 사직동 17-4,다목적,1,200,360도,30,,051-550-6962,35.20077632,129.0591041,2020-03-14
"동래구청",부산광역시 동래구 사직북로 28번길 77-4,부산광역시 동래구 사직동 54-40,다목적,1,200,360도,30,,051-550-6962,35.20065533,129.0634574,2020-03-14
"동래구청",부산광역시 동래구 명서로 111,부산광역시 동래구 명장동 506-3,다목적,1,200,360도,30,,051-550-6962,35.2122394,129.1002142,2020-03-14
"동래구청",부산광역시 동래구 금정마을로 123,부산광역시 동래구 온천동 1020-19,다목적,1,200,360도,30,,051-550-6962,35.21165566,129.0668938,2020-03-14
"동래구청",부산광역시 동래구 호현길 88,부산광역시 동래구 안락동 440-12,다목적,1,200,360도,30,,051-550-6962,35.19895547,129.1008775,2020-03-14
"동래구청",부산광역시 동래구 사직북로 48번길 149,부산광역시 동래구 온천동 1574-2,다목적,1,200,360도,30,,051-550-6962,35.20503268,129.0635902,2020-03-14
"동래구청",부산광역시 동래구 복천로 24,부산광역시 동래구 복천동 41-18,다목적,1,200,360도,30,,051-550-6962,35.2057112,129.0885894,2020-03-14
"동래구청",부산광역시 동래구 명안로 86번길 64,부산광역시 동래구 명장동 149-15,다목적,1,200,360도,30,,051-550-6962,35.20361519,129.1079847,2020-03-14
"동래구청",부산광역시 동래구 온천천로 441번길 8,부산광역시 동래구 안락동 631-48,다목적,1,200,360도,30,,051-550-6962,35.19197013,129.1014792,2020-03-14
"동래구청",부산광역시 동래구 명륜로 98번길 59,부산광역시 동래구 수안동 434-1,다목적,1,200,360도,30,,051-550-6962,35.20207835,129.0866327,2020-03-14
"동래구청",부산광역시 동래구 금강로 153번길 24,부산광역시 동래구 온천동 50-36,다목적,1,200,360도,30,,051-550-6962,35.22307315,129.0806778,2020-03-14
"동래구청",부산광역시 동래구 충렬대로 237번가길 28,부산광역시 동래구 수안동 385-1,다목적,1,200,360도,30,,051-550-6962,35.20227694,129.0868222,2020-03-14
"동래구청",부산광역시 동래구 명안로10번길 51,부산광역시 동래구 안락동 452-23,다목적,1,200,360도,30,,051-550-6962,35.19729072,129.1070659,2020-03-14
"동래구청",부산광역시 동래구 중앙대로1333번길 60,부산광역시 동래구 온천동 1432-18,다목적,1,200,360도,30,,051-550-6962,35.2068477,129.0742336,2020-03-14
"동래구청",부산광역시 동래구 충렬대로100번길 73,부산광역시 동래구 온천동 1451-33,다목적,1,200,360도,30,,051-550-6962,35.20385791,129.0722208,2020-03-14
"동래구청",부산광역시 동래구 석사로18번길 31,부산광역시 동래구 사직동 74-17,다목적,1,200,360도,30,,051-550-6962,35.19779575,129.0630996,2020-03-14
"동래구청",부산광역시 동래구 명서로110번길 4,부산광역시 동래구 명장동 543-24,다목적,1,200,360도,30,,051-550-6962,35.21236224,129.0997648,2020-03-14
"동래구청",부산광역시 동래구 우장춘로 74,부산광역시 동래구 온천동 360-16,다목적,1,200,360도,30,,051-550-6962,35.21411961,129.0722577,2020-03-14
"동래구청",부산광역시 동래구 사직북로 49,부산광역시 동래구 사직동 27-21,다목적,1,200,360도,30,,051-550-6962,35.19961243,129.0588683,2020-03-14
"동래구청",부산광역시 동래구 복천로 121,부산광역시 동래구 명장동 273-1,다목적,1,200,360도,30,,051-550-6962,35.20818959,129.0965611,2020-03-14
"동래구청",부산광역시 동래구 명서로 11,부산광역시 동래구 명륜동 108-1,다목적,1,200,360도,30,,051-550-6962,35.2144651,129.0924005,2020-03-14
"동래구청",부산광역시 동래구 명서로 160-9,부산광역시 동래구 명장동 326-2,다목적,1,200,360도,30,,051-550-6962,35.20837767,129.1021348,2020-03-14
"동래구청",부산광역시 동래구 동래로57번길 61,부산광역시 동래구 명륜동 700-85,다목적,1,200,360도,30,,051-550-6962,35.2134956,129.0816465,2020-03-14
"동래구청",부산광역시 동래구 아시아드대로255번길 87-2,부산광역시 동래구 온천동 1214-16,다목적,1,200,360도,30,,051-550-6962,35.20838816,129.0648829,2020-03-14
"동래구청",부산광역시 동래구 아시아드대로164번길 8,부산광역시 동래구 사직동 64-17,다목적,1,200,360도,30,,051-550-6962,35.19899944,129.0656508,2020-03-14
"동래구청",부산광역시 동래구 시실로211번길 51,부산광역시 동래구 명장동 302-1,다목적,1,200,360도,30,,051-550-6962,35.20850791,129.0998236,2020-03-14
"동래구청",부산광역시 동래구 시실로159번길 6,부산광역시 동래구 명장동 516-16,다목적,1,200,360도,30,,051-550-6962,35.20965947,129.097855,2020-03-14
"동래구청",부산광역시 동래구 명서로112번가길 25,부산광역시 동래구 명장동 506-70,다목적,1,200,360도,30,,051-550-6962,35.20971626,129.101023,2020-03-14
"동래구청",부산광역시 동래구 우장춘로17번길 61,부산광역시 동래구 온천동 997-1,다목적,1,200,360도,30,,051-550-6962,35.21059067,129.0676222,2020-03-14
"동래구청",부산광역시 동래구 반송로341번길 33,부산광역시 동래구 명장동 497-67,다목적,1,200,360도,30,,051-550-6962,35.21045939,129.1026497,2020-03-14
"동래구청",부산광역시 동래구 중앙대로1277번길 12,부산광역시 동래구 사직동 143-59,다목적,1,200,360도,30,,051-550-6962,35.20141733,129.0768622,2020-03-14
"동래구청",부산광역시 동래구 여고로91번길 77-10,부산광역시 동래구 사직동 138-80,다목적,1,200,360도,30,,051-550-6962,35.20052067,129.071552,2020-03-14
"동래구청",부산광역시 동래구 충렬사로 6,부산광역시 동래구 안락동 420-41,다목적,1,200,360도,30,,051-550-6962,35.19986225,129.0970188,2020-03-14
"동래구청",부산광역시 동래구 연안로52번길 66,부산광역시 동래구 안락동 178-6,다목적,1,200,360도,30,,051-550-6962,35.1909985,129.1109167,2020-03-14
"동래구청",부산광역시 동래구 명륜로 169,부산광역시 동래구 명륜동 638-13,다목적,1,200,360도,30,,051-550-6962,35.20845283,129.0819384,2020-03-14
"동래구청",부산광역시 동래구 명륜로 250번길 36-3,부산광역시 동래구 명륜동 32-127,다목적,1,200,360도,30,,051-550-6962,35.21508799,129.0859686,2020-03-14
"동래구청",부산광역시 동래구 복천로 123번길 24,부산광역시 동래구 명장동 279-21,다목적,1,200,360도,30,,051-550-6962,35.20868004,129.0975882,2020-03-14
"동래구청",부산광역시 동래구 명장로63번다길 6,부산광역시 동래구 명장동 461-1,다목적,1,200,360도,30,,051-550-6962,35.20807174,129.1062553,2020-03-14
"동래구청",부산광역시 동래구 명장로 22번길 98,부산광역시 동래구 안락동 427-21,다목적,1,200,360도,30,,051-550-6962,35.20116416,129.1015536,2020-03-14
"동래구청",부산광역시 동래구 온천천로457번길 4,부산광역시 동래구 안락동 221-32,다목적,1,200,360도,30,,051-550-6962,35.19148298,129.1031703,2020-03-14
"동래구청",부산광역시 동래구 연안로 46,부산광역시 동래구 안락동 175-16,다목적,1,200,360도,30,,051-550-6962,35.1916564,129.1077063,2020-03-14
"동래구청",부산광역시 동래구 안남로 9,부산광역시 동래구 낙민동 83-1,다목적,1,200,360도,30,,051-550-6962,35.1951794,129.0936131,2020-03-14
"동래구청",부산광역시 동래구 충렬대로 238번 가길 85,부산광역시 동래구 낙민동 117-21,다목적,1,200,360도,30,,051-550-6962,35.19826847,129.0885025,2020-03-14
"동래구청",부산광역시 동래구 충렬대로256번길 21-11,부산광역시 동래구 낙민동 291-17,다목적,1,200,360도,30,,051-550-6962,35.20023812,129.0875781,2020-03-14
"동래구청",부산광역시 동래구 안남로 47,부산광역시 동래구 낙민동 92-9,다목적,1,200,360도,30,,051-550-6962,35.19529224,129.0971912,2020-03-14
"동래구청",부산광역시 동래구 동래시장길 15-8,부산광역시 동래구 복천동 292-10,다목적,1,200,360도,30,,051-550-6962,35.20392511,129.0850989,2020-03-14
"동래구청",부산광역시 동래구 동래로 179번길 34,부산광역시 동래구 칠산동 94-10,다목적,1,200,360도,30,,051-550-6962,35.20498122,129.090743,2020-03-14
"동래구청",부산광역시 동래구 동래로 138,부산광역시 동래구 복천동 254-1,다목적,1,200,360도,30,,051-550-6962,35.20503591,129.0861111,2020-03-14
"동래구청",부산광역시 동래구 여고북로 123번길 67,부산광역시 동래구 온천동 1449-8,다목적,1,200,360도,30,,051-550-6962,35.20410834,129.0706462,2020-03-14
"동래구청",부산광역시 동래구 쇠미로 129번길 35,부산광역시 동래구 온천동 1629-2,다목적,1,200,360도,30,,051-550-6962,35.20367585,129.0585976,2020-03-14
"동래구청",부산광역시 동래구 금강로 15,부산광역시 동래구 온천동 395-13,다목적,1,200,360도,30,,051-550-6962,35.21279968,129.072716,2020-03-14
"동래구청",부산광역시 동래구 쇠미로 71번길 11,부산광역시 동래구 사직동 595,다목적,1,200,360도,30,,051-550-6962,35.20017502,129.0539728,2020-03-14
"동래구청",부산광역시 동래구 사직북로 5번길 50,부산광역시 동래구 사직동 90-13,다목적,1,200,360도,30,,051-550-6962,35.19599533,129.0581183,2020-03-14
"동래구청",부산광역시 동래구 여고로 63번길 9,부산광역시 동래구 사직동 129-4,다목적,1,200,360도,30,,051-550-6962,35.19667742,129.070541,2020-03-14
"동래구청",부산광역시 동래구 명륜로 242번길 32,부산광역시 동래구 명륜동 61-4,다목적,1,200,360도,30,,051-550-6962,35.21486667,129.0839601,2020-03-14
"동래구청",부산광역시 동래구 충렬대로 57번길 21,부산광역시 동래구 온천동 1777-52,다목적,1,200,360도,30,,051-550-6962,35.2095743,129.067966,2020-03-14
"동래구청",부산광역시 동래구 안남로 31번길21,부산광역시 동래구 낙민동 324,다목적,1,200,360도,30,,051-550-6962,35.19563647,129.094798,2020-03-14
"동래구청",부산광역시 동래구 시실로 211번길 59-18,부산광역시 동래구 명장동 303-7,다목적,1,200,360도,30,,051-550-6962,35.20828087,129.099405,2020-03-14
"동래구청",부산광역시 동래구 금정마을로 76,부산광역시 동래구 온천동 1119-8,다목적,1,200,360도,30,,051-550-6962,35.21218846,129.0641886,2020-03-14
"동래구청",부산광역시 동래구 금강공원로 60번길 4,부산광역시 동래구 온천동 241-44,다목적,1,200,360도,30,,051-550-6962,35.21876182,129.0781738,2020-03-14
"동래구청",부산광역시 동래구 칠산로 50번길 3,부산광역시 동래구 칠산동 76-2,다목적,1,200,360도,30,,051-550-6962,35.20600911,129.0936284,2020-03-14
"동래구청",부산광역시 동래구 우장춘로 17번길 19,부산광역시 동래구 온천동 954-14,다목적,1,200,360도,30,,051-550-6962,35.21013055,129.0694464,2020-03-14
"동래구청",부산광역시 동래구 시실로 211번길 64-2,부산광역시 동래구 명장동 305-14,다목적,1,200,360도,30,,051-550-6962,35.20904072,129.1000701,2020-03-14
"동래구청",부산광역시 동래구 명서로 105번길 23-1,부산광역시 동래구 명장동503-120,다목적,1,200,360도,30,,051-550-6962,35.21243797,129.1012162,2020-03-14
"동래구청",부산광역시 동래구 여고북로 96,부산광역시 동래구 사직동 137-44,다목적,1,200,360도,30,,051-550-6962,35.20080615,129.0704569,2020-03-14
"동래구청",부산광역시 동래구 여고로 75번길 46,부산광역시 동래구 사직동 155-42,다목적,1,200,360도,30,,051-550-6962,35.1985723,129.0715205,2020-03-14
"동래구청",부산광역시 동래구 명안로 72번길 34,부산광역시 동래구 명장동 139-2,다목적,1,200,360도,30,,051-550-6962,35.20245705,129.1055613,2020-03-14
"동래구청",부산광역시 동래구 사직로 58번길 23,부산광역시 동래구 사직동 90-21,다목적,1,200,360도,30,,051-550-6962,35.19659563,129.0590644,2020-03-14
"동래구청",부산광역시 동래구 연안로 71,부산광역시 동래구 안락동 1240,다목적,1,200,360도,30,,051-550-6962,35.19476538,129.1076022,2020-03-14
"동래구청",부산광역시 동래구 안락로125번길 15-4,부산광역시 동래구 안락동 466-10,다목적,1,200,360도,30,,051-550-6962,35.19977163,129.1107353,2020-03-14
"동래구청",부산광역시 동래구 명장로 18,부산광역시 동래구 명장동 59-1,다목적,1,200,360도,30,,051-550-6962,35.20550189,129.1029258,2020-03-14
"동래구청",부산광역시 동래구 안남로31번길 39,부산광역시 동래구 낙민동 91-1,다목적,1,200,360도,30,,051-550-6962,35.19597157,129.0964709,2020-03-14
"동래구청",부산광역시 동래구 동래로176번길 3,부산광역시 동래구 칠산동 190-1,다목적,1,200,360도,30,,051-550-6962,35.20342524,129.0898379,2020-03-14
"동래구청",부산광역시 동래구 여고로91번길 37,부산광역시 동래구 사직동 155-16,다목적,1,200,360도,30,,051-550-6962,35.1988377,129.0725924,2020-03-14
"동래구청",부산광역시 동래구 충렬대로272번길 31,부산광역시 동래구 낙민동 194-15,다목적,1,200,360도,30,,051-550-6962,35.19937348,129.0894311,2020-03-14
"동래구청",부산광역시 동래구 여고로52번길 9,부산광역시 동래구 사직동 130-1,다목적,1,200,360도,30,,051-550-6962,35.19584241,129.0702563,2020-03-14
"동래구청",부산광역시 동래구 쇠미로27번길 10,부산광역시 동래구 사직동 981-7,다목적,1,200,360도,30,,051-550-6962,35.19672521,129.0533458,2020-03-14
"동래구청",부산광역시 동래구 석사로34번길 17,부산광역시 동래구 사직동 70-35,다목적,1,200,360도,30,,051-550-6962,35.1990733,129.0637687,2020-03-14
"동래구청",부산광역시 동래구 연안로59번길 37,부산광역시 동래구 안락동 151-1,다목적,1,200,360도,30,,051-550-6962,35.19369796,129.1059719,2020-03-14
"동래구청",부산광역시 동래구 명안로78번길 24,부산광역시 동래구 명장동 138-2,다목적,1,200,360도,30,,051-550-6962,35.20332252,129.1055397,2020-03-14
"동래구청",부산광역시 동래구 충렬대로 375번길 23-8,부산광역시 동래구 안락동 431-44,다목적,1,200,360도,30,,051-550-6962,35.19869206,129.1000627,2020-03-14
"동래구청",부산광역시 동래구 시실로163번길 21,부산광역시 동래구 명장동 515-1,다목적,1,200,360도,30,,051-550-6962,35.21001683,129.0982419,2020-03-14
"동래구청",부산광역시 동래구 온천천로 215,부산광역시 동래구 수안동 7-1,다목적,1,200,360도,30,,051-550-6962,35.20048021,129.0804261,2020-03-14
"동래구청",부산광역시 동래구 동래로159번가길 10,부산광역시 동래구 칠산동 64-1,다목적,1,200,360도,30,,051-550-6962,35.20608286,129.0918648,2020-03-14
"동래구청",부산광역시 동래구 충렬대로107번길 124,부산광역시 동래구 온천동 397-4,다목적,1,200,360도,30,,051-550-6962,35.21255614,129.0736761,2020-03-14
"동래구청",부산광역시 동래구 사직북로28번길 125,부산광역시 동래구 온천동 1263,다목적,1,200,360도,30,,051-550-6962,35.20313494,129.0641131,2020-03-14
"동래구청",부산광역시 동래구 온천천로 273,부산광역시 동래구 수안동 32-3,다목적,1,200,360도,30,,051-550-6962,35.19678853,129.0840207,2020-03-14
"동래구청",부산광역시 동래구 복천로5번길 34,부산광역시 동래구 복천동 500-1,다목적,1,200,360도,30,,051-550-6962,35.20583112,129.0872382,2020-03-14
"동래구청",부산광역시 동래구 연안로 71,부산광역시 동래구 안락동 1240,다목적,1,200,360도,30,,051-550-6962,35.19476538,129.1076022,2020-03-14
"동래구청",부산광역시 동래구 중앙대로 1495-18,부산광역시 동래구 온천동 156-21,다목적,1,200,360도,30,,051-550-6962,35.2197365,129.085399,2020-03-14
"동래구청",부산광역시 동래구 명장로64번길 6,부산광역시 동래구 명장동 145-7,다목적,1,200,360도,30,,051-550-6962,35.20449178,129.1077394,2020-03-14
"동래구청",부산광역시 동래구 금강로151번길 27-2,부산광역시 동래구 온천동 77-7,다목적,1,200,360도,30,,051-550-6962,35.22273636,129.0797204,2020-03-14
"동래구청",부산광역시 동래구 명안로45번길 25,부산광역시 동래구 안락동 444-49,다목적,1,200,360도,30,,051-550-6962,35.20084756,129.1031791,2020-03-14
"동래구청",부산광역시 동래구 명안로18번길 25,부산광역시 동래구 안락동 449-72,다목적,1,200,360도,30,,051-550-6962,35.19807478,129.105716,2020-03-14
"동래구청",부산광역시 동래구 충렬대로108번길 37,부산광역시 동래구 온천동 1452-1,다목적,1,200,360도,30,,051-550-6962,35.20502107,129.0729179,2020-03-14
"동래구청",부산광역시 동래구 시실로 73-13,부산광역시 동래구 명륜동 105-1,다목적,1,200,360도,30,,051-550-6962,35.21545665,129.0921756,2020-03-14
"동래구청",부산광역시 동래구 동래로 96,부산광역시 동래구 명륜동 600,다목적,1,200,360도,30,,051-550-6962,35.20725974,129.0829839,2020-03-14
"동래구청",부산광역시 동래구 석사북로 69,부산광역시 동래구 온천동 1257-8,다목적,1,200,360도,30,,051-550-6962,35.20413593,129.0643887,2020-03-14
"동래구청",부산광역시 동래구 명장로63번길 60-5,부산광역시 동래구 명장동 466-10,다목적,1,200,360도,30,,051-550-6962,35.20759292,129.106221,2020-03-14
"동래구청",부산광역시 동래구 명안로25번길 48,부산광역시 동래구 안락동 441-50,다목적,1,200,360도,30,,051-550-6962,35.19946583,129.1020017,2020-03-14
"동래구청",부산광역시 동래구 충렬대로200번길 25,부산광역시 동래구 수안동 666-1,다목적,1,200,360도,30,,051-550-6962,35.2018074,129.0802341,2020-03-14
"동래구청",부산광역시 동래구 아시아드대로164번길 73,부산광역시 동래구 사직동 122-5,다목적,1,200,360도,30,,051-550-6962,35.1999744,129.0690142,2020-03-14
"동래구청",부산광역시 동래구 우장춘로74번길 17,부산광역시 동래구 온천동 358-7,다목적,1,200,360도,30,,051-550-6962,35.2146466,129.0730573,2020-03-14
"동래구청",부산광역시 동래구 사직북로28번길 26,부산광역시 동래구 사직동 47-1,다목적,1,200,360도,30,,051-550-6962,35.19887393,129.0613835,2020-03-14
"동래구청",부산광역시 동래구 쇠미로 3-9,부산광역시 동래구 사직동 978,다목적,1,200,360도,30,,051-550-6962,35.19357406,129.0542369,2020-03-14
"동래구청",부산광역시 동래구 여고북로 111-25,부산광역시 동래구 온천동 1466-44,다목적,1,200,360도,30,,051-550-6962,35.2017942,129.0708553,2020-03-14
"동래구청",부산광역시 동래구 여고북로33번가길 8,부산광역시 동래구 온천동 1370-44,다목적,1,200,360도,30,,051-550-6962,35.201097,129.0677811,2020-03-14
"동래구청",부산광역시 동래구 쇠미로 93,부산광역시 동래구 사직동 588-6,다목적,1,200,360도,30,,051-550-6962,35.20237351,129.0559034,2020-03-14
"동래구청",부산광역시 동래구 아시아드대로164번나길 29,부산광역시 동래구 사직동 402-6,다목적,1,200,360도,30,,051-550-6962,35.19905458,129.067277,2020-03-14
"동래구청",부산광역시 동래구 중앙대로1335번길 38,부산광역시 동래구 온천동 700-1,다목적,1,200,360도,30,,051-550-6962,35.20735801,129.0766358,2020-03-14
"동래구청",부산광역시 동래구 중앙대로1381번길 60,부산광역시 동래구 온천동 772-10,다목적,1,200,360도,30,,051-550-6962,35.21155753,129.0747356,2020-03-14
"동래구청",부산광역시 동래구 아시아드대로247번길 96,부산광역시 동래구 온천동 1214-2,다목적,1,200,360도,30,,051-550-6962,35.20843053,129.0638782,2020-03-14
"동래구청",부산광역시 동래구 쇠미로 152-1,부산광역시 동래구 온천동 1582-2,다목적,1,200,360도,30,,051-550-6962,35.20409571,129.0618844,2020-03-14
"동래구청",부산광역시 동래구 여고북로123번길 31,부산광역시 동래구 온천동 1462-20,다목적,1,200,360도,30,,051-550-6962,35.20251196,129.0712512,2020-03-14
"동래구청",부산광역시 동래구 충렬대로100번길 48,부산광역시 동래구 온천동 1446-73,다목적,1,200,360도,30,,051-550-6962,35.2050022,129.0715808,2020-03-14
"동래구청",부산광역시 동래구 사직북로48번길 85-5,부산광역시 동래구 온천동 1530-13,다목적,1,200,360도,30,,051-550-6962,35.20260208,129.0617500469,2020-03-14
"동래구청",부산광역시 동래구 명안로71번길 21,부산광역시 동래구 명장동 105-1,다목적,1,200,360도,30,,051-550-6962,35.2031439,129.1029534,2020-03-14
"동래구청",부산광역시 동래구 복천로 69-1,부산광역시 동래구 칠산동 48-7,다목적,1,200,360도,30,,051-550-6962,35.20805799,129.0922931,2020-03-14
"동래구청",부산광역시 동래구 충렬대로272번길 8,부산광역시 동래구 낙민동 222-7,다목적,1,200,360도,30,,051-550-6962,35.20036695,129.0888856,2020-03-14
"동래구청",부산광역시 동래구 동래로 102번길 22,부산광역시 동래구 명륜동 594-1,다목적,1,200,360도,30,,051-550-6962,35.20701251,129.0826877,2020-03-14
"동래구청",부산광역시 동래구 안남로 103-1,부산광역시 동래구 안락동 629-113,다목적,1,200,360도,30,,051-550-6962,35.19312426,129.1033093,2020-03-14
"동래구청",부산광역시 동래구 동래로159번길 156,부산광역시 동래구 칠산동 20-3,다목적,1,200,360도,30,,051-550-6962,35.20684653,129.0950201,2020-03-14
"동래구청",부산광역시 동래구 연안로59번길 21-2,부산광역시 동래구 안락동 151-54,다목적,1,200,360도,30,,051-550-6962,35.19346818,129.1067476,2020-03-14
"동래구청",부산광역시 동래구 명서로130번길 19,부산광역시 동래구 명장동 506-101,다목적,1,200,360도,30,,051-550-6962,35.21081803,129.099848,2020-03-14
"동래구청",부산광역시 동래구 명서로 152,부산광역시 동래구 명장동 300-72,다목적,1,200,360도,30,,051-550-6962,35.20940385,129.1024072,2020-03-14
"동래구청",부산광역시 동래구 시실로178번길 2,부산광역시 동래구 명장동 281-5,다목적,1,200,360도,30,,051-550-6962,35.20819687,129.098845,2020-03-14
"동래구청",부산광역시 동래구 쇠미로119번길 50,부산광역시 동래구 사직동 585-18,다목적,1,200,360도,30,,051-550-6962,35.20339187,129.0577033,2020-03-14
"동래구청",부산광역시 동래구 반송로 130-5,부산광역시 동래구 낙민동 82-10,다목적,1,200,360도,30,,051-550-6962,35.1940583,129.092085,2020-03-14
"동래구청",부산광역시 동래구 충렬대로107번길 124,부산광역시 동래구 온천동 397-4,다목적,1,200,360도,30,,051-550-6962,35.21255614,129.0736761,2020-03-14
"동래구청",부산광역시 동래구 금강로 77,부산광역시 동래구 온천동 439-2,다목적,1,200,360도,30,,051-550-6962,35.21608833,129.0776884,2020-03-14
"동래구청",부산광역시 동래구 명안로46번나길 36-2,부산광역시 동래구 안락동 1224-14,다목적,1,200,360도,30,,051-550-6962,35.19981642,129.1060948,2020-03-14
"동래구청",부산광역시 동래구 반송로 291,부산광역시 동래구 명장동 23-2,다목적,1,200,360도,30,,051-550-6962,35.20635339,129.1018411,2020-03-14
"동래구청",부산광역시 동래구 사직북로 34,부산광역시 동래구 사직동 48-20,다목적,1,200,360도,30,,051-550-6962,35.19877821,129.0602306,2020-03-14
"동래구청",부산광역시 동래구 온천천로319번나길 21,부산광역시 동래구 수안동 38-9,다목적,1,200,360도,30,,051-550-6962,35.1973788,129.0876942,2020-03-14
"동래구청",부산광역시 동래구 동래로 218,부산광역시 동래구 안락동 998-10,다목적,1,200,360도,30,,051-550-6962,35.20131343,129.0931477,2020-03-14
"동래구청",부산광역시 동래구 칠산로 39번길 21,부산광역시 동래구 칠산동 29-2,다목적,1,200,360도,30,,051-550-6962,35.2068517,129.0946679,2020-03-14
"동래구청",부산광역시 동래구 칠산로 47번길 13,부산광역시 동래구 칠산동 6-13,다목적,1,200,360도,30,,051-550-6962,35.20634831,129.0944408,2020-03-14
"동래구청",부산광역시 동래구 금정마을로 139번길 3,부산광역시 동래구 온천동 1028-21,다목적,1,200,360도,30,,051-550-6962,35.21206388,129.0683184,2020-03-14
"동래구청",부산광역시 동래구 충렬대로 273번길 13,부산광역시 동래구 칠산동 314-4,다목적,1,200,360도,30,,051-550-6962,35.2011205,129.0895944,2020-03-14
"동래구청",부산광역시 동래구 충렬대로 285번길 17,부산광역시 동래구 칠산동 317-3,다목적,1,200,360도,30,,051-550-6962,35.20124702,129.0905243,2020-03-14
"동래구청",부산광역시 동래구 동래로 190번길 42,부산광역시 동래구 칠산동 293,다목적,1,200,360도,30,,051-550-6962,35.20162215,129.0898839,2020-03-14
"동래구청",부산광역시 동래구 동래로 190번길 29,부산광역시 동래구 칠산동 148-5,다목적,1,200,360도,30,,051-550-6962,35.2020695,129.0904154,2020-03-14
"동래구청",부산광역시 동래구 충렬대로 238번가길 59,부산광역시 동래구 낙민동 294-62,다목적,1,200,360도,30,,051-550-6962,35.19880594,129.087436,2020-03-14
"동래구청",부산광역시 동래구 동래로 159번길 23,부산광역시 동래구 복천동 95-3,다목적,1,200,360도,30,,051-550-6962,35.20495404,129.0889768,2020-03-14
"동래구청",부산광역시 동래구 금강로 62번길 20,부산광역시 동래구 온천동 478-3,다목적,1,200,360도,30,,051-550-6962,35.21438315,129.0783301,2020-03-14
"동래구청",부산광역시 동래구 중앙대로1325번길24,부산광역시 동래구 온천동1438-2,다목적,1,200,360도,30,,051-550-6962,35.20572261,129.0765722,2020-03-14
"동래구청",부산광역시 동래구 우장춘로 56번길 20,부산광역시 동래구 온천동 395-5,다목적,1,200,360도,30,,051-550-6962,35.21293915,129.0725703,2020-03-14
"동래구청",부산광역시 동래구 중앙대로 1325번길 24,부산광역시 동래구 온천동 1437-39,다목적,1,200,360도,30,,051-550-6962,35.20572261,129.0765722,2020-03-14
"동래구청",부산광역시 동래구 충렬대로 137번길 12,부산광역시 동래구 온천동 1437-1,다목적,1,200,360도,30,,051-550-6962,35.20600046,129.0759249,2020-03-14
"동래구청",부산광역시 동래구 여고로 103번길 64-3,부산광역시 동래구 사직동 140-16,다목적,1,200,360도,30,,051-550-6962,35.20094135,129.0737189,2020-03-14
"동래구청",부산광역시 동래구 석사북로 95번길 48-27,부산광역시 동래구 온천동 1219-16,다목적,1,200,360도,30,,051-550-6962,35.20775341,129.0646911,2020-03-14
"동래구청",부산광역시 동래구 석사북로 76,부산광역시 동래구 온천동 1245-2,다목적,1,200,360도,30,,051-550-6962,35.204625,129.0650906,2020-03-14
"동래구청",부산광역시 동래구 명륜로112번길118,부산광역시 동래구 칠산동 211-4,다목적,1,200,360도,30,,051-550-6962,35.20234558,129.089112,2020-03-14
"동래구청",부산광역시 동래구 충렬대로 428번길 45,부산광역시 동래구 안락동 599-40,다목적,1,200,360도,30,,051-550-6962,35.19446879,129.1043451,2020-03-14
"동래구청",부산광역시 동래구 안남로 84,부산광역시 동래구 안락동 632-5,다목적,1,200,360도,30,,051-550-6962,35.19349095,129.1012900357,2020-03-14
"동래구청",부산광역시 동래구 명안로 39번길 20,부산광역시 동래구 안락동 445-8,다목적,1,200,360도,30,,051-550-6962,35.20036043,129.1036232,2020-03-14
"동래구청",부산광역시 동래구 명안로 60,부산광역시 동래구 명장동 140-6,다목적,1,200,360도,30,,051-550-6962,35.20185941,129.1044831,2020-03-14
"동래구청",부산광역시 동래구 아시아드대로 181,부산광역시 동래구 사직동 56-13,다목적,1,200,360도,30,,051-550-6962,35.2007992,129.0645326,2020-03-14
"동래구청",부산광역시 동래구 아시아드대로 184번길 53,부산광역시 동래구 사직동 350-14,다목적,1,200,360도,30,,051-550-6962,35.1993884,129.0672891,2020-03-14
"동래구청",부산광역시 동래구 여고로 75번길 72,부산광역시 동래구 사직동 150-54,다목적,1,200,360도,30,,051-550-6962,35.19967035,129.0711088,2020-03-14
"동래구청",부산광역시 동래구 연안로 51번길 16,부산광역시 동래구 안락동 151-85,다목적,1,130,360도,30,,051-550-6962,35.19275495,129.1067204,2020-03-14
"동래구청",부산광역시 동래구 반송로 341번길 62,부산광역시 동래구 명장동 497-23,다목적,1,130,360도,30,,051-550-6962,35.2113535,129.1013946,2020-03-14
"동래구청",부산광역시 동래구 명안로 85번길 29,부산광역시 동래구 명장동 61-10,다목적,1,130,360도,30,,051-550-6962,35.20427266,129.1029293,2020-03-14
"동래구청",부산광역시 동래구 쇠미로 154번길 15,부산광역시 동래구 온천동 1582-9,다목적,1,130,360도,30,,051-550-6962,35.20378085,129.0623815,2020-03-14
"동래구청",부산광역시 동래구 명안로 46번마길 21,부산광역시 동래구 명장동 610,다목적,1,130,360도,30,,051-550-6962,35.20169687,129.1063673,2020-03-14
"동래구청",부산광역시 동래구 여고북로 200,부산광역시 동래구 사직동 142-1,다목적,1,130,360도,30,,051-550-6962,35.2024738,129.0755449,2020-03-14
"동래구청",부산광역시 동래구 명륜로45번길 19,부산광역시 동래구 수안동 9-21,다목적,1,130,360도,30,,051-550-6962,35.19864711,129.0832645,2020-03-14
"동래구청",부산광역시 동래구 명장로 63번다길 21-4,부산광역시 동래구 명장동 474-5,다목적,1,130,360도,30,,051-550-6962,35.20864733,129.1056992,2020-03-14
"동래구청",부산광역시 동래구 미남로 116번길 88,부산광역시 동래구 온천동 1452-14,다목적,1,130,360도,30,,051-550-6962,35.20468002,129.0740994,2020-03-14
"동래구청",부산광역시 동래구 명서로 105번길 60,부산광역시 동래구 명장동 503-76,다목적,1,130,360도,30,,051-550-6962,35.21170722,129.101575,2020-03-14
"동래구청",부산광역시 동래구 명장로63번길 139,부산광역시 동래구 명장동 334-2,다목적,1,130,360도,30,,051-550-6962,35.20975157,129.1041774,2020-03-14
"동래구청",부산광역시 동래구 여고로103번길 24,부산광역시 동래구 사직동 157-1,다목적,1,200,360도,30,,051-550-6962,35.19917082,129.0739681,2020-03-14
"동래구청",부산광역시 동래구 연안로 52번길 117-13,부산광역시 동래구 안락동 170-47,다목적,1,200,360도,30,,051-550-6962,35.19057225,129.1138607,2020-03-14
"동래구청",부산광역시 동래구 연안로 52번길 92,부산광역시 동래구 안락동 171-7,다목적,1,200,360도,30,,051-550-6962,35.19045985,129.1122464,2020-03-14
"동래구청",부산광역시 동래구 사직북로 50번길 33,부산광역시 동래구 사직동 13-1,다목적,1,200,360도,30,,051-550-6962,35.20121677,129.0588517,2020-03-14
"동래구청",부산광역시 동래구 충렬대로 202번가길1,부산광역시 동래구 수안동1-23,다목적,1,200,360도,30,,051-550-6962,35.2018815,129.0819462,2020-03-14
"동래구청",부산광역시 동래구 중앙대로 1307번길 14,부산광역시 동래구 온천동 1441-16,다목적,1,200,360도,30,,051-550-6962,35.20410452,129.0769701,2020-03-14
"동래구청",부산광역시 동래구 차밭골로 41번길 34,부산광역시 동래구 온천동 306-40,다목적,1,200,360도,30,,051-550-6962,35.21660907,129.0761204,2020-03-14
"동래구청",부산광역시 동래구 서동중심로7번길 11,부산광역시 동래구 명장동 491-21,다목적,1,200,360도,30,,051-550-6962,35.21070898,129.1034291,2020-03-14
"동래구청",부산광역시 동래구 복천로41번길 18-1,부산광역시 동래구 복천동 26-19,다목적,1,200,360도,30,,051-550-6962,35.2078247,129.0897311,2020-03-14
"동래구청",부산광역시 동래구 명안로 9번길 60,부산광역시 동래구 안락동 510-11,다목적,1,200,360도,30,,051-550-6962,35.19799857,129.1011822,2020-03-14
"동래구청",부산광역시 동래구 우장춘로 104,부산광역시 동래구 온천동 337-11,다목적,1,200,360도,30,,051-550-6962,35.21660921,129.0731687,2020-03-14
"동래구청",부산광역시 동래구 충렬대로 256번길 29,부산광역시 동래구 낙민동 293-5,다목적,1,200,360도,30,,051-550-6962,35.19978962,129.0870396,2020-03-14
"동래구청",부산광역시 동래구 시실로 215번길 20,부산광역시 동래구 명장동 315-21,다목적,1,200,360도,30,,051-550-6962,35.20746678,129.1010353,2020-03-14
"동래구청",부산광역시 동래구 화현길 23,부산광역시 동래구 안락동 459-43,다목적,1,200,360도,30,,051-550-6962,35.19637448,129.1083464,2020-03-14
"동래구청",부산광역시 동래구 아시아드대로 181번길 52,부산광역시 동래구 사직동 161-1,다목적,1,200,360도,30,,051-550-6962,35.2017698,129.0621506,2020-03-14
"동래구청",부산광역시 동래구 쇠미로 121번길 75,부산광역시 동래구 온천동 1637-1,다목적,1,200,360도,30,,051-550-6962,35.20420121,129.0569552,2020-03-14
"동래구청",부산광역시 동래구 시실로 19-9,부산광역시 동래구 명륜동 8-8,다목적,1,200,고정형(한방향),30,,051-550-6962,35.21724995,129.0870606,2020-03-14
"동래구청",부산광역시 동래구 시실로 19-9,부산광역시 동래구 명륜동 8-8,다목적,1,200,고정형(한방향),30,,051-550-6962,35.21724995,129.0870606,2020-03-14
"동래구청",부산광역시 동래구 시실로 19-9,부산광역시 동래구 명륜동 8-8,다목적,1,200,고정형(한방향),30,,051-550-6962,35.21724995,129.0870606,2020-03-14
"동래구청",부산광역시 동래구 시실로 19-9,부산광역시 동래구 명륜동 8-8,다목적,1,200,고정형(한방향),30,,051-550-6962,35.21724995,129.0870606,2020-03-14
"동래구청",부산광역시 동래구 사직북로 48번길 194,부산광역시 동래구 온천동 1222-11,다목적,1,200,360도,30,,051-550-6962,35.20656877,129.0650388,2020-03-14
"동래구청",부산광역시 동래구 동래로 116번길 33,부산광역시 동래구 복천동 317,다목적,1,200,고정형(한방향),30,,051-550-6962,35.2055399,129.0846829,2020-03-14
"동래구청",부산광역시 동래구 동래로 116번길 33,부산광역시 동래구 복천동 317,다목적,1,200,고정형(한방향),30,,051-550-6962,35.2055399,129.0846829,2020-03-14
"동래구청",부산광역시 동래구 충렬대로 237번길 102-5,부산광역시 동래구 복천동 392,다목적,1,200,360도,30,,051-550-6962,35.20573967,129.0839683,2020-03-14
"동래구청",부산광역시 동래구 동래로 134번길 48,부산광역시 동래구 명륜동 345,다목적,1,200,고정형(한방향),30,,051-550-6962,35.20594905,129.0837409,2020-03-14
"동래구청",부산광역시 동래구 동래로 134번길 38,부산광역시 동래구 명륜동 272-1,다목적,1,200,360도,30,,051-550-6962,35.20605429,129.0843277,2020-03-14
"동래구청",부산광역시 동래구 동래로 134번길 40-6,부산광역시 동래구 명륜동 268,다목적,1,200,고정형(한방향),30,,051-550-6962,35.20641873,129.0843063,2020-03-14
"동래구청",부산광역시 동래구 동래로 134번 가길 18-4,부산광역시 동래구 복천동 315-1,다목적,1,200,고정형(한방향),30,,051-550-6962,35.20543666,129.0850278,2020-03-14
"동래구청",부산광역시 동래구 동래로 134번길 32,부산광역시 동래구 복천동 404,다목적,1,200,고정형(한방향),30,,051-550-6962,35.20596014,129.0845625,2020-03-14
"동래구청",부산광역시 동래구 동래로 134번길 24,부산광역시 동래구 복천동 410-4,다목적,1,200,360도,30,,051-550-6962,35.20610992,129.084865,2020-03-14
"동래구청",부산광역시 동래구 동래로 116번길 8,부산광역시 동래구 명륜동 255-1,다목적,1,200,360도,30,,051-550-6962,35.20652919,129.0845902,2020-03-14
"동래구청",부산광역시 동래구 동래로 116번길 15,부산광역시 동래구 복천동 408,다목적,1,200,고정형(한방향),30,,051-550-6962,35.2062139,129.0846063,2020-03-14
"동래구청",부산광역시 동래구 동래로 134번 가길 11,부산광역시 동래구 복천동 313,다목적,1,200,고정형(한방향),30,,051-550-6962,35.20560348,129.0853878,2020-03-14
"동래구청",부산광역시 동래구 시실로 178번길 16,부산광역시 동래구 명장동 279-46,다목적,1,200,360도,30,,051-550-6962,35.20812196,129.0981755,2020-03-14
"동래구청",부산광역시 동래구 석사로 33번길 32,부산광역시 동래구 사직동 23-9,다목적,3,200,360도,30,,051-550-6962,35.20070441,129.0620578,2020-03-14
"동래구청",부산광역시 동래구 아시아드대로 231번길 91,부산광역시 동래구 온천동 1242-1,다목적,3,200,360도,30,,051-550-6962,35.20639986,129.0628957,2020-03-14
"동래구청",부산광역시 동래구 쇠미로 129번길 91,부산광역시 동래구 온천동 1654,다목적,1,200,360도,30,,051-550-6962,35.20638629,129.0573397,2020-03-14
"동래구청",부산광역시 동래구 여고로 63번길 97,부산광역시 동래구 사직동 122-18,다목적,1,200,360도,30,,051-550-6962,35.2004851,129.0691615,2020-03-14
"동래구청",부산광역시 동래구 명장로 48번길 21,부산광역시 동래구 명장동 144-1,다목적,1,200,360도,30,,051-550-6962,35.20384332,129.106269,2020-03-14
"동래구청",부산광역시 동래구 복천로 51번길 21,부산광역시 동래구 복천동 21-1,다목적,1,200,360도,30,,051-550-6962,35.20853981,129.0902764,2020-03-14
"동래구청",부산광역시 동래구 충렬대로 200번길 39,부산광역시 동래구 명륜동 515-62,다목적,1,200,360도,30,,051-550-6962,35.20224961,129.0794041,2020-03-14
"동래구청",부산광역시 동래구 금정마을로 120,부산광역시 동래구 온천동 1129-4,다목적,1,200,360도,30,,051-550-6962,35.2109987,129.0667366,2020-03-14
"동래구청",부산광역시 동래구 아시아드대로 114번길 1,부산광역시 동래구 사직동 112-7,다목적,1,200,360도,30,,051-550-6962,35.19500609,129.0673061,2020-03-14
"동래구청",부산광역시 동래구 여고로 135번길 61,부산광역시 동래구 사직동 142-22,다목적,1,200,360도,30,,051-550-6962,35.20194306,129.0771039,2020-03-14
"동래구청",부산광역시 동래구 연안로 58번길 7,부산광역시 동래구 안락동 167-12,다목적,1,200,360도,30,,051-550-6962,35.19204014,129.1109217,2020-03-14
"동래구청",부산광역시 동래구 동래로 176번길 16,부산광역시 동래구 칠산동 214-6,다목적,2,200,고정형(한방향),30,,051-550-6962,35.2028359,129.0895242,2020-03-14
"동래구청",부산광역시 동래구 명장로 79,부산광역시 동래구 명장동 147-50,다목적,1,200,360도,30,,051-550-6962,35.2037468,129.1092849,2020-03-14
"동래구청",부산광역시 동래구 온천장로 14,부산광역시 동래구 온천동 1750-33,다목적,1,200,360도,30,,051-550-6962,35.21345184,129.0792463,2020-03-14
"동래구청",부산광역시 동래구 온천천로 431번길 13,부산광역시 동래구 안락동 633-80,다목적,1,200,360도,30,,051-550-6962,35.19253064,129.0999216,2020-03-14
"동래구청",부산광역시 동래구 동래로 152번길 18,부산광역시 동래구 수안동 399-1,다목적,1,200,360도,30,,051-550-6962,35.20341216,129.0870445,2020-03-14
"동래구청",부산광역시 동래구 금강로 132-1,부산광역시 동래구 온천동 97-11,다목적,1,200,360도,30,,051-550-6962,35.22051853,129.0806169,2020-03-14
"동래구청",부산광역시 동래구 여고로 91번길 17,부산광역시 동래구 사직동 155-61,다목적,1,200,360도,30,,051-550-6962,35.1979433,129.0729233,2020-03-14
"동래구청",부산광역시 동래구 아시아드대로 195번길 61,부산광역시 동래구 온천동 1521-3,다목적,1,200,360도,30,,051-550-6962,35.20302038,129.0623755,2020-03-14
"동래구청",부산광역시 동래구 충렬대로 331번길 17,부산광역시 동래구 안락동 788-3,다목적,2,200,고정형(한방향),30,,051-550-6962,35.19954977,129.0952894,2020-03-14
"동래구청",부산광역시 동래구 아시아드대로 145번길 14,부산광역시 동래구 사직동 900-4,다목적,2,200,고정형(한방향),30,,051-550-6962,35.19745759,129.064751,2020-03-14
"동래구청",부산광역시 동래구 복천로 103-4,부산광역시 동래구 명장동 272-3,다목적,1,200,360도,30,,051-550-6962,35.20748837,129.0958403,2020-03-14
"동래구청",부산광역시 동래구 문화로 80,부산광역시 동래구 명륜동 137,다목적,1,200,360도,30,,051-550-6962,35.21195234,129.090544,2020-03-14
"동래구청",부산광역시 동래구 명륜로 207번길 41,부산광역시 동래구 명륜동 700-149,다목적,1,200,360도,30,,051-550-6962,35.2123536,129.0806319,2020-03-14
"동래구청",부산광역시 동래구 시실로 24번길 65,부산광역시 동래구 명륜동 16-16,다목적,1,200,360도,30,,051-550-6962,35.2150564,129.0881232,2020-03-14
"동래구청",부산광역시 동래구 시실로 24번길 20,부산광역시 동래구 명륜동 28-1,다목적,1,200,360도,30,,051-550-6962,35.21593321,129.0858673,2020-03-14
"동래구청",부산광역시 동래구 시실로 135번길 30,부산광역시 동래구 명장동 516-2,다목적,1,200,360도,30,,051-550-6962,35.21050757,129.0973805,2020-03-14
"동래구청",부산광역시 동래구 연안로 58번가길 10,부산광역시 동래구 안락동 169-1,다목적,1,200,360도,30,,051-550-6962,35.19128149,129.1130843,2020-03-14
"동래구청",부산광역시 동래구 명서로 112번길 48,부산광역시 동래구 명장동 506-121,다목적,1,200,360도,30,,051-550-6962,35.21000036,129.0996073,2020-03-14
"동래구청",부산광역시 동래구 우장춘로 155,부산광역시 동래구 온천동 291-1,다목적,1,200,360도,30,,051-550-6962,35.21962513,129.075758,2020-03-14
"동래구청",부산광역시 동래구 여고로 127번길 23,부산광역시 동래구 사직동 147-79,다목적,1,200,360도,30,,051-550-6962,35.19988954,129.0759889,2020-03-14
"동래구청",부산광역시 동래구 여고북로 23번길 46,부산광역시 동래구 온천동 1380-1,다목적,1,200,360도,30,,051-550-6962,35.20292368,129.0680426,2020-03-14
"동래구청",부산광역시 동래구 칠산로 60번길 15,부산광역시 동래구 칠산동 81-4,다목적,1,200,360도,30,,051-550-6962,35.20544603,129.0930474,2020-03-14
"동래구청",부산광역시 동래구 온천천로 471번 가길 65,부산광역시 동래구 안락동 631-1,다목적,1,200,360도,30,,051-550-6962,35.19264678,129.1013298,2020-03-14
"동래구청",부산광역시 동래구 쇠미로 129번길 66,부산광역시 동래구 온천동 1649,다목적,1,200,360도,30,,051-550-6962,35.20537577,129.0588953,2020-03-14
"동래구청",부산광역시 동래구 시실로 135,부산광역시 동래구 명장동 533,다목적,1,200,360도,30,,051-550-6962,35.21211019,129.0962139,2020-03-14
"동래구청",부산광역시 동래구 쇠미로 221번길 36-10,부산광역시 동래구 온천동 1130-1,다목적,2,200,고정형(한방향),30,,051-550-6962,35.21125396,129.0636071,2020-03-14
"동래구청",부산광역시 동래구 금정마을로 112번길 18,부산광역시 동래구 온천동 1119-71,다목적,1,200,360도,30,,051-550-6962,35.21169111,129.0648172,2020-03-14
"동래구청",부산광역시 동래구 삼어로 9,부산광역시 동래구 안락동 15-26,다목적,1,200,360도,30,,051-550-6962,35.20057681,129.1137555,2020-03-14
"동래구청",부산광역시 동래구 명륜로 187번길 56,부산광역시 동래구 명륜동 691-6,다목적,1,200,360도,30,,051-550-6962,35.21141202,129.079853,2020-03-14
"동래구청",부산광역시 동래구 명안로 53번길 63,부산광역시 동래구 명장동 67-8,다목적,2,200,고정형(한방향),30,,051-550-6962,35.20188294,129.1010539,2020-03-14
"동래구청",부산광역시 동래구 여고로 51번길28,부산광역시 동래구 사직동 127-11,다목적,1,200,360도,30,,051-550-6962,35.1972404,129.0692378,2020-03-14
"동래구청",부산광역시 동래구 아시아드대로 181번 가길 54,부산광역시 동래구 온천동 1260-1,다목적,1,200,360도,30,,051-550-6962,35.20373986,129.0637287,2020-03-14
"동래구청",부산광역시 동래구 충렬대로 350번길 10,부산광역시 동래구 안락동 751-5,다목적,1,200,360도,30,,051-550-6962,35.19720677,129.0969549,2020-03-14
"동래구청",부산광역시 동래구 명안로17번길74,부산광역시 동래구 안락동 440-71,다목적,1,200,360도,30,,051-550-6962,35.19897359,129.1004564,2020-03-14
"동래구청",부산광역시 동래구 충렬대로459번길27,부산광역시 동래구 안락동 462-46,다목적,1,200,360도,30,,051-550-6962,35.19609542,129.1096741,2020-03-14
"동래구청",부산광역시 동래구 온천천로269번길 34,부산광역시 동래구 수안동 35-4,다목적,1,200,360도,30,,051-550-6962,35.1975242,129.0848387,2020-03-14
"동래구청",부산광역시 동래구 온천천로269번길 34,부산광역시 동래구 수안동 35-4,다목적,1,200,360도,30,,051-550-6962,35.1975242,129.0848387,2020-03-14
"동래구청",부산광역시 동래구 수안로48번길 14,부산광역시 동래구 수안동 36-88,다목적,1,200,360도,30,,051-550-6962,35.19806482,129.0865168,2020-03-14
"동래구청",부산광역시 동래구 수안로48번길 14,부산광역시 동래구 수안동 36-88,다목적,1,200,360도,30,,051-550-6962,35.19806482,129.0865168,2020-03-14
"동래구청",부산광역시 동래구 온천천로319번길 81,부산광역시 동래구 수안동 38-1,다목적,1,200,360도,30,,051-550-6962,35.1979358,129.0877016,2020-03-14
"동래구청",부산광역시 동래구 온천천로319번길 81,부산광역시 동래구 수안동 38-1,다목적,1,200,360도,30,,051-550-6962,35.1979358,129.0877016,2020-03-14
"동래구청",부산광역시 동래구 반송로171번길 23-5,부산광역시 동래구 낙민동 20-41,다목적,1,200,360도,30,,051-550-6962,35.1969327,129.0938389,2020-03-14
"동래구청",부산광역시 동래구 반송로171번길 23-5,부산광역시 동래구 낙민동 20-41,다목적,1,200,360도,30,,051-550-6962,35.1969327,129.0938389,2020-03-14
"동래구청",부산광역시 동래구 연안로81번길 83,부산광역시 동래구 안락동 603-28,다목적,1,200,360도,30,,051-550-6962,35.19573591,129.1046501,2020-03-14
"동래구청",부산광역시 동래구 연안로81번길 83,부산광역시 동래구 안락동 603-28,다목적,1,200,360도,30,,051-550-6962,35.19573591,129.1046501,2020-03-14
"동래구청",부산광역시 동래구 연안로81번길 83,부산광역시 동래구 안락동 603-28,다목적,1,200,360도,30,,051-550-6962,35.19573591,129.1046501,2020-03-14
"동래구청",부산광역시 동래구 연안로81번길 83,부산광역시 동래구 안락동 603-28,다목적,1,200,360도,30,,051-550-6962,35.19573591,129.1046501,2020-03-14
"동래구청",부산광역시 동래구 연안로81번길 83,부산광역시 동래구 안락동 603-28,다목적,1,200,360도,30,,051-550-6962,35.19573591,129.1046501,2020-03-14
"동래구청",부산광역시 동래구 연안로81번길 83,부산광역시 동래구 안락동 603-28,다목적,1,200,360도,30,,051-550-6962,35.19573591,129.1046501,2020-03-14
"동래구청",부산광역시 동래구 연안로81번길 83,부산광역시 동래구 안락동 603-28,다목적,1,200,360도,30,,051-550-6962,35.19573591,129.1046501,2020-03-14
"동래구청",부산광역시 동래구 명장로 63번 라길 15-6,부산광역시 동래구 명장동 478-19,다목적,2,200,360도,30,,051-550-6962,35.20928098,129.1055355,2020-03-14
"동래구청",부산광역시 동래구 옥봉로 14번길 5-11,부산광역시 동래구 명장동 477-42,다목적,3,200,360도,30,,051-550-6962,35.21025589,129.1075107,2020-03-14
"동래구청",부산광역시 동래구 온천천로563번길 77,부산광역시 동래구 안락동 162-10,다목적,4,200,"360도, 고정",30,,051-550-6962,35.19301114,129.1133224,2020-03-14
"동래구청",부산광역시 동래구 사직북로 5번길 9,부산광역시 동래구 사직동 92-5,다목적,1,200,360도,30,,051-550-6962,35.1961729,129.0604432,2020-03-14
"동래구청",부산광역시 동래구 복천로 5번 다길 15,부산광역시 동래구 복천동 28-12,다목적,2,200,"360도, 고정",30,,051-550-6962,35.20862406,129.0891543,2020-03-14
"동래구청",부산광역시 동래구 쇠미로 81번길 33,부산광역시 동래구 사직동 597,다목적,1,200,360도,30,,051-550-6962,35.2015837,129.0535911,2020-03-14
"동래구청",부산광역시 동래구 충렬대로 179번길 13,부산광역시 동래구 명륜동 533-74,다목적,3,200,"360도, 고정",30,,051-550-6962,35.2044106,129.0795075,2020-03-14
"동래구청",부산광역시 동래구 충렬대로 249번길 61,부산광역시 동래구 복천동 216-2,다목적,1,200,360도,30,,051-550-6962,35.20405512,129.0867579,2020-03-14
"동래구청",부산광역시 동래구 차밭골로 50번가길 11,부산광역시 동래구 온천동 204-36,다목적,3,200,"306도, 고정",30,,051-550-6962,35.218079,129.078208,2020-03-14
