"관리기관명",소재지도로명주소,소재지지번주소,설치목적구분,카메라대수,카메라화소수,촬영방면정보,보관일수,설치년월,관리기관전화번호,위도,경도,데이터기준일자
"부산광역시 사하구청",,부산광역시 사하구 장림동 1139,생활방범,1,200,360도전방면,30,2009-05,051-220-4341,35.08312681,128.9672847,2020-03-17
"부산광역시 사하구청",부산광역시 사하구 낙동대로356번길 56,부산광역시 사하구 당리동 439-2,생활방범,1,200,360도전방면,30,2009-05,051-220-4341,35.10224104,128.9813092,2020-03-17
"부산광역시 사하구청",부산광역시 사하구 낙동대로264번길 14,부산광역시 사하구 괴정동 779-4,생활방범,1,200,360도전방면,30,2009-05,051-220-4341,35.10003014,128.9882584,2020-03-17
"부산광역시 사하구청",부산광역시 사하구 낙동대로200번길 19,부산광역시 사하구 괴정동 260-257,생활방범,1,200,360도전방면,30,2009-05,051-220-4341,35.10164774,128.9943654,2020-03-17
"부산광역시 사하구청",부산광역시 사하구 장평로449번길 102,부산광역시 사하구 괴정동 579-5,생활방범,1,200,360도전방면,30,2009-05,051-220-4341,35.09950297,128.981035,2020-03-17
"부산광역시 사하구청",부산광역시 사하구 장림시장5길 48,부산광역시 사하구 장림동 641-300,생활방범,1,200,360도전방면,30,2009-05,051-220-4341,35.08070924,128.9663789,2020-03-17
"부산광역시 사하구청",,부산광역시 사하구 다대동 1641,생활방범,1,200,360도전방면,30,2009-05,051-220-4341,35.053063,128.9663596,2020-03-17
"부산광역시 사하구청",부산광역시 사하구 낙동대로216번길 16,부산광역시 사하구 괴정동 1025-8,생활방범,1,200,360도전방면,30,2009-05,051-220-4341,35.10120869,128.9929451,2020-03-17
"부산광역시 사하구청",부산광역시 사하구 괴정로260번길 34,부산광역시 사하구 괴정동 536-23,생활방범,1,200,360도전방면,30,2010-02,051-220-4341,35.09542714,128.9889705,2020-03-17
"부산광역시 사하구청",부산광역시 사하구 장평로 433,부산광역시 사하구 괴정동 563-56,생활방범,1,200,360도전방면,30,2010-02,051-220-4341,35.09681354,128.9858724,2020-03-17
"부산광역시 사하구청",부산광역시 사하구 낙동대로135번길 55,부산광역시 사하구 괴정동 354-111,생활방범,1,200,360도전방면,30,2010-02,051-220-4341,35.102142,129.0032887,2020-03-17
"부산광역시 사하구청",부산광역시 사하구 다대로385번길 32,부산광역시 사하구 다대동 81-17,생활방범,1,200,360도전방면,30,2010-02,051-220-4341,35.0678729,128.9798664,2020-03-17
"부산광역시 사하구청",부산광역시 사하구 승학로131번길 1,부산광역시 사하구 당리동 353-10,생활방범,1,200,360도전방면,30,2010-02,051-220-4341,35.10390501,128.9817569,2020-03-17
"부산광역시 사하구청",부산광역시 사하구 다대로116번길 54,부산광역시 사하구 신평동 128-6,생활방범,1,200,360도전방면,30,2010-02,051-220-4341,35.0933255,128.9769249,2020-03-17
"부산광역시 사하구청",부산광역시 사하구 감천로157번길 3,부산광역시 사하구 감천동 49-14,생활방범,1,200,360도전방면,30,2010-02,051-220-4341,35.08551553,129.0081731,2020-03-17
"부산광역시 사하구청",부산광역시 사하구 감내1로 175,부산광역시 사하구 감천동 6-1604,생활방범,1,200,360도전방면,30,2010-02,051-220-4341,35.09555926,129.0090098,2020-03-17
"부산광역시 사하구청",부산광역시 사하구 낙동대로 264,부산광역시 사하구 괴정동 747-4,생활방범,1,200,360도전방면,30,2010-02,051-220-4341,35.09942626,128.9882511,2020-03-17
"부산광역시 사하구청",부산광역시 사하구 두송로26번길 10,부산광역시 사하구 장림동 81-4,생활방범,1,200,360도전방면,30,2010-02,051-220-4341,35.0784347,128.9790937,2020-03-17
"부산광역시 사하구청",부산광역시 사하구 다대로135번길 30-8,부산광역시 사하구 신평동 43-7,생활방범,1,200,360도전방면,30,2010-02,051-220-4341,35.09093367,128.9795394,2020-03-17
"부산광역시 사하구청",부산광역시 사하구 감내2로 137,부산광역시 사하구 감천동 6-994,생활방범,1,200,360도전방면,30,2010-12,051-220-4341,35.09816771,129.0086033,2020-03-17
"부산광역시 사하구청",부산광역시 사하구 옥천로76번길 41,부산광역시 사하구 감천동 13-745,생활방범,1,200,360도전방면,30,2010-12,051-220-4341,35.09313949,129.0105702,2020-03-17
"부산광역시 사하구청",부산광역시 사하구 감내1로225번길 2,부산광역시 사하구 감천동 7-64,생활방범,1,200,360도전방면,30,2010-12,051-220-4341,35.09759266,129.0094627,2020-03-17
"부산광역시 사하구청",부산광역시 사하구 감내1로175번안길 25,부산광역시 사하구 감천동 6-1654,생활방범,1,200,360도전방면,30,2010-12,051-220-4341,35.09610663,129.0082269,2020-03-17
"부산광역시 사하구청",부산광역시 사하구 감내2로 8,부산광역시 사하구 감천동 12-278,생활방범,1,200,360도전방면,30,2010-12,051-220-4341,35.09381939,129.0079465,2020-03-17
"부산광역시 사하구청",부산광역시 사하구 사리로 68,부산광역시 사하구 괴정동 213-13,생활방범,1,200,360도전방면,30,2010-12,051-220-4341,35.10583979,128.9986833,2020-03-17
"부산광역시 사하구청",부산광역시 사하구 옥천로60번길 35,부산광역시 사하구 감천동 13-1067,생활방범,1,200,360도전방면,30,2010-12,051-220-4341,35.09181579,129.0093256,2020-03-17
"부산광역시 사하구청",부산광역시 사하구 사리로94번길 11,부산광역시 사하구 괴정동 218-40,생활방범,1,200,360도전방면,30,2010-12,051-220-4341,35.1076656754,128.9987604,2020-03-17
"부산광역시 사하구청",부산광역시 사하구 옥천로101번길 10,부산광역시 사하구 감천동 12-276,생활방범,2,200,360도전방면,30,2010-12,051-220-4341,35.09531541,129.0101474,2020-03-17
"부산광역시 사하구청",부산광역시 사하구 낙동대로189번길 36,부산광역시 사하구 괴정동 434-140,생활방범,1,200,360도전방면,30,2010-12,051-220-4341,35.09961814,128.9967318,2020-03-17
"부산광역시 사하구청",부산광역시 사하구 옥천로76번길 28-1,부산광역시 사하구 감천동 13-19,생활방범,1,200,360도전방면,30,2010-12,051-220-4341,35.09280285,129.0098642,2020-03-17
"부산광역시 사하구청",부산광역시 사하구 옥천로76번길 28-1,부산광역시 사하구 감천동 13-19,생활방범,1,200,360도전방면,30,2010-12,051-220-4341,35.09280285,129.0098642,2020-03-17
"부산광역시 사하구청",부산광역시 사하구 괴정로232번길 36,부산광역시 사하구 괴정동 540-11,생활방범,1,200,360도전방면,30,2011-04,051-220-4341,35.09525157,128.9861826,2020-03-17
"부산광역시 사하구청",부산광역시 사하구 대티로1번길 21,부산광역시 사하구 괴정동 233-4,생활방범,1,200,360도전방면,30,2011-04,051-220-4341,35.10423056,128.999256,2020-03-17
"부산광역시 사하구청",부산광역시 사하구 오작로 61,부산광역시 사하구 괴정동 393-9,생활방범,1,200,360도전방면,30,2011-04,051-220-4341,35.09996345,128.9996754,2020-03-17
"부산광역시 사하구청",부산광역시 사하구 오작로8번길 65,부산광역시 사하구 괴정동 457-11,생활방범,1,200,360도전방면,30,2011-04,051-220-4341,35.09497177,128.9961377,2020-03-17
"부산광역시 사하구청",부산광역시 사하구 낙동대로171번길 19,부산광역시 사하구 괴정동 292-9,생활방범,1,200,360도전방면,30,2011-04,051-220-4341,35.10107455,128.998296,2020-03-17
"부산광역시 사하구청",부산광역시 사하구 낙동대로436번길 20,부산광역시 사하구 당리동 313-7,생활방범,1,200,360도전방면,30,2011-04,051-220-4341,35.10529175,128.9718796,2020-03-17
"부산광역시 사하구청",부산광역시 사하구 승학로 31,부산광역시 사하구 당리동 309-10,생활방범,1,200,360도전방면,30,2011-04,051-220-4341,35.10684629,128.9724905,2020-03-17
"부산광역시 사하구청",부산광역시 사하구 하신번영로 209,부산광역시 사하구 하단동 1180-10,생활방범,1,200,360도전방면,30,2011-04,051-220-4341,35.09978517,128.9581808,2020-03-17
"부산광역시 사하구청",부산광역시 사하구 괴정로 10,부산광역시 사하구 하단동 608-17,생활방범,1,200,360도전방면,30,2011-04,051-220-4341,35.10380236,128.9653794,2020-03-17
"부산광역시 사하구청",부산광역시 사하구 낙동남로1406번길 5,부산광역시 사하구 하단동 589-32,생활방범,1,200,360도전방면,30,2011-04,051-220-4341,35.10563082,128.9655546,2020-03-17
"부산광역시 사하구청",부산광역시 사하구 낙동대로575번길 72,부산광역시 사하구 하단동 501-2,생활방범,1,200,360도전방면,30,2011-04,051-220-4341,35.11101996,128.9611865,2020-03-17
"부산광역시 사하구청",부산광역시 사하구 장평로 306,부산광역시 사하구 신평동 135-9,생활방범,1,200,360도전방면,30,2011-04,051-220-4341,35.09330429,128.9739635,2020-03-17
"부산광역시 사하구청",부산광역시 사하구 장평로299번길 13,부산광역시 사하구 신평동 286-18,생활방범,1,200,360도전방면,30,2011-04,051-220-4341,35.09287559,128.9723462,2020-03-17
"부산광역시 사하구청",부산광역시 사하구 하신번영로169번길 53,부산광역시 사하구 신평동 610-7,생활방범,1,200,360도전방면,30,2011-04,051-220-4341,35.09784681,128.9570832,2020-03-17
"부산광역시 사하구청",부산광역시 사하구 하신번영로179번길 20,부산광역시 사하구 신평동 589-7,생활방범,1,200,360도전방면,30,2011-04,051-220-4341,35.0986962,128.9591003,2020-03-17
"부산광역시 사하구청",부산광역시 사하구 비봉로 80,부산광역시 사하구 신평동 667,생활방범,1,200,360도전방면,30,2011-04,051-220-4341,35.09883585,128.9630833,2020-03-17
"부산광역시 사하구청",부산광역시 사하구 장림번영로 32,부산광역시 사하구 장림동 332-6,생활방범,1,200,360도전방면,30,2011-04,051-220-4341,35.08058154,128.9688227,2020-03-17
"부산광역시 사하구청",부산광역시 사하구 장평로 107,부산광역시 사하구 장림동 586,생활방범,1,200,360도전방면,30,2011-04,051-220-4341,35.07566479,128.9727009,2020-03-17
"부산광역시 사하구청",,부산광역시 사하구 장림동 341-12,생활방범,1,200,360도전방면,30,2011-04,051-220-4341,35.08056628,128.976334,2020-03-17
"부산광역시 사하구청",,부산광역시 사하구 다대동 1548-16,생활방범,1,200,360도전방면,30,2011-04,051-220-4341,35.04985055,128.964524,2020-03-17
"부산광역시 사하구청",부산광역시 사하구 다대로 504,부산광역시 사하구 다대동 156,생활방범,1,200,360도전방면,30,2011-04,051-220-4341,35.06037627,128.9738897,2020-03-17
"부산광역시 사하구청",부산광역시 사하구 다대로381번길 17,부산광역시 사하구 다대동 93,생활방범,1,200,360도전방면,30,2011-04,051-220-4341,35.06924079,128.9801459,2020-03-17
"부산광역시 사하구청",부산광역시 사하구 원양로398번길 57,부산광역시 사하구 감천동 194-5,생활방범,1,200,360도전방면,30,2011-04,051-220-4341,35.08370809,129.0076464,2020-03-17
"부산광역시 사하구청",부산광역시 사하구 옥천로 130,부산광역시 사하구 감천동 10-2,생활방범,1,200,360도전방면,30,2011-04,051-220-4341,35.09685798,129.0110878,2020-03-17
"부산광역시 사하구청",부산광역시 사하구 옥천로 86,부산광역시 사하구 감천동 13-636,생활방범,1,200,360도전방면,30,2011-04,051-220-4341,35.09395488,129.0100758,2020-03-17
"부산광역시 사하구청",부산광역시 사하구 대티로41번길 17,부산광역시 사하구 괴정동 203-39,생활방범,1,200,360도전방면,30,2011-04,051-220-4341,35.10640996,129.0038567,2020-03-17
"부산광역시 사하구청",부산광역시 사하구 제석로 50,부산광역시 사하구 당리동 316-2,생활방범,1,200,360도전방면,30,2011-04,051-220-4341,35.10502122,128.974136,2020-03-17
"부산광역시 사하구청",부산광역시 사하구 낙동대로450번길 11,부산광역시 사하구 당리동 302-6,생활방범,1,200,360도전방면,30,2011-04,051-220-4341,35.10583911,128.9699446,2020-03-17
"부산광역시 사하구청",부산광역시 사하구 낙동대로486번길 22,부산광역시 사하구 하단동 531-1,생활방범,1,200,360도전방면,30,2011-04,051-220-4341,35.10835418,128.9688008,2020-03-17
"부산광역시 사하구청",부산광역시 사하구 낙동대로171번길 30-5,부산광역시 사하구 괴정동 404-2,생활방범,1,200,360도전방면,30,2012-06,051-220-4341,35.10033709,128.9980896,2020-03-17
"부산광역시 사하구청",부산광역시 사하구 장평로359번길 60,부산광역시 사하구 괴정동 1208,생활방범,1,200,360도전방면,30,2012-06,051-220-4341,35.09730055,128.9814034,2020-03-17
"부산광역시 사하구청",부산광역시 사하구 장평로125번길 100,부산광역시 사하구 장림동 615-480,생활방범,1,200,360도전방면,30,2012-06,051-220-4341,35.0786915,128.9707083,2020-03-17
"부산광역시 사하구청",부산광역시 사하구 낙동남로1423번길 8,부산광역시 사하구 하단동 528-7,생활방범,1,200,360도전방면,30,2012-06,051-220-4341,35.10693301,128.9672921,2020-03-17
"부산광역시 사하구청",부산광역시 사하구 감천로139번다길 7,부산광역시 사하구 감천동 30-9,생활방범,1,200,360도전방면,30,2012-06,051-220-4341,35.08841106,129.006849,2020-03-17
"부산광역시 사하구청",부산광역시 사하구 낙동대로249번길 37,부산광역시 사하구 괴정동 846,생활방범,1,200,360도전방면,30,2012-06,051-220-4341,35.09776318,128.9910059,2020-03-17
"부산광역시 사하구청",부산광역시 사하구 두송로 144,부산광역시 사하구 구평동 435-257,생활방범,1,200,360도전방면,30,2012-06,051-220-4341,35.0723585,128.9836261,2020-03-17
"부산광역시 사하구청",,부산광역시 사하구 다대동 86-1,생활방범,1,200,360도전방면,30,2012-06,051-220-4341,35.06674251,128.982539,2020-03-17
"부산광역시 사하구청",,부산광역시 사하구 당리동 348-6,생활방범,1,200,360도전방면,30,2012-06,051-220-4341,35.10243737,128.9815528,2020-03-17
"부산광역시 사하구청",부산광역시 사하구 괴정로 245,부산광역시 사하구 괴정동 532-19,생활방범,4,200,360도전방면,30,2012-06,051-220-4341,35.09688373,128.9883191,2020-03-17
"부산광역시 사하구청",부산광역시 사하구 낙동남로1423번길 70,부산광역시 사하구 하단동 505-15,생활방범,1,200,360도전방면,30,2012-06,051-220-4341,35.1094247,128.9656872,2020-03-17
"부산광역시 사하구청",부산광역시 사하구 다대로119번길 12,부산광역시 사하구 신평동 33-40,생활방범,1,200,360도전방면,30,2012-06,051-220-4341,35.09161914,128.9783742,2020-03-17
"부산광역시 사하구청",부산광역시 사하구 하신중앙로22번길 27,부산광역시 사하구 장림동 1124,생활방범,1,200,360도전방면,30,2012-06,051-220-4341,35.08202211,128.9656487,2020-03-17
"부산광역시 사하구청",,부산광역시 사하구 다대동 1548-10,생활방범,1,200,360도전방면,30,2012-06,051-220-4341,35.05015889,128.9631574,2020-03-17
"부산광역시 사하구청",,부산광역시 사하구 다대동 1548-16,생활방범,1,200,360도전방면,30,2012-06,051-220-4341,35.04985055,128.964524,2020-03-17
"부산광역시 사하구청",,부산광역시 사하구 다대동 1552-3,생활방범,1,200,360도전방면,30,2012-06,051-220-4341,35.04871026,128.9673495,2020-03-17
"부산광역시 사하구청",,부산광역시 사하구 하단동 1184-4,생활방범,1,200,360도전방면,30,2012-06,051-220-4341,35.09927289,128.9579883,2020-03-17
"부산광역시 사하구청",,부산광역시 사하구 다대동 80-1,생활방범,1,200,360도전방면,30,2012-06,051-220-4341,35.06793147,128.9804263,2020-03-17
"부산광역시 사하구청",,부산광역시 사하구 다대동 953-1,생활방범,1,200,360도전방면,30,2012-06,051-220-4341,35.05537994,128.9674502,2020-03-17
"부산광역시 사하구청",부산광역시 사하구 하신번영로 365,부산광역시 사하구 하단동 1161-2,생활방범,1,200,360도전방면,30,2012-06,051-220-4341,35.11029282,128.9585343,2020-03-17
"부산광역시 사하구청",부산광역시 사하구 하신중앙로22번길 9,부산광역시 사하구 장림동 1124-11,생활방범,1,200,360도전방면,30,2012-06,051-220-4341,35.08135959,128.9650817,2020-03-17
"부산광역시 사하구청",부산광역시 사하구 승학로239번길 1,부산광역시 사하구 괴정동 1051-10,생활방범,4,200,360도전방면,30,2012-06,051-220-4341,35.10259061,128.9904063,2020-03-17
"부산광역시 사하구청",부산광역시 사하구 괴정로100번길 33,부산광역시 사하구 당리동 512,생활방범,1,200,360도전방면,30,2012-06,051-220-4341,35.10078466,128.9752482,2020-03-17
"부산광역시 사하구청",부산광역시 사하구 낙동남로1357번길 11,부산광역시 사하구 하단동 870-235,생활방범,1,200,360도전방면,30,2012-06,051-220-4341,35.10713676,128.9598136,2020-03-17
"부산광역시 사하구청",부산광역시 사하구 다대낙조2길 8,부산광역시 사하구 다대동 1550-4,생활방범,4,200,360도전방면,30,2012-06,051-220-4341,35.05112408,128.9664682,2020-03-17
"부산광역시 사하구청",부산광역시 사하구 낙동대로280번길 8,부산광역시 사하구 괴정동 764,생활방범,1,200,360도전방면,30,2012-06,051-220-4341,35.09974782,128.9864014,2020-03-17
"부산광역시 사하구청",부산광역시 사하구 오작로166번길 2,부산광역시 사하구 괴정동 3-1,생활방범,4,200,360도전방면,30,2012-06,051-220-4341,35.10460047,129.0079148,2020-03-17
"부산광역시 사하구청",부산광역시 사하구 감천항로 176,부산광역시 사하구 구평동 201,생활방범,1,200,360도전방면,30,2012-11,051-220-4341,35.07725325,128.990253,2020-03-17
"부산광역시 사하구청",부산광역시 사하구 사하로68번길 39-3,부산광역시 사하구 구평동 28-10,생활방범,1,200,360도전방면,30,2012-11,051-220-4341,35.08648161,128.9938082,2020-03-17
"부산광역시 사하구청",부산광역시 사하구 사하로70번길 33,부산광역시 사하구 구평동 33,생활방범,1,200,360도전방면,30,2012-11,051-220-4341,35.08675769,128.9953139,2020-03-17
"부산광역시 사하구청",부산광역시 사하구 신산로29번길 50,부산광역시 사하구 신평동 647-2,생활방범,1,200,360도전방면,30,2012-11,051-220-4341,35.09459672,128.9588548,2020-03-17
"부산광역시 사하구청",부산광역시 사하구 낙동대로 327-1,부산광역시 사하구 괴정동 1134-9,생활방범,1,200,360도전방면,30,2012-11,051-220-4341,35.10004261,128.9811841,2020-03-17
"부산광역시 사하구청",부산광역시 사하구 사하로186번길 35,부산광역시 사하구 괴정동 437-70,생활방범,1,200,360도전방면,30,2012-11,051-220-4341,35.0991665,128.9957501,2020-03-17
"부산광역시 사하구청",부산광역시 사하구 동매로 57,부산광역시 사하구 하단동 608-30,생활방범,1,200,360도전방면,30,2012-11,051-220-4341,35.10329507,128.9645618,2020-03-17
"부산광역시 사하구청",,부산광역시 사하구 당리동 산 26-11,생활방범,1,200,360도전방면,30,2012-11,051-220-4341,35.10939921,128.9811867,2020-03-17
"부산광역시 사하구청",부산광역시 사하구 낙동대로 265,부산광역시 사하구 괴정동 733,생활방범,1,200,360도전방면,30,2012-11,051-220-4341,35.09815175,128.9875776,2020-03-17
"부산광역시 사하구청",부산광역시 사하구 괴정로231번길 19,부산광역시 사하구 괴정동 554-1,생활방범,1,200,360도전방면,30,2012-11,051-220-4341,35.09792188,128.9870264,2020-03-17
"부산광역시 사하구청",부산광역시 사하구 다대동로8번길 8,부산광역시 사하구 다대동 681-39,생활방범,1,200,360도전방면,30,2012-11,051-220-4341,35.05375477,128.9711581,2020-03-17
"부산광역시 사하구청",부산광역시 사하구 낙동남로1389번길 9,부산광역시 사하구 하단동 517-35,생활방범,1,200,360도전방면,30,2012-11,051-220-4341,35.10704395,128.963553,2020-03-17
"부산광역시 사하구청",부산광역시 사하구 다대로142번길 4,부산광역시 사하구 신평동 82-109,생활방범,1,200,360도전방면,30,2012-11,051-220-4341,35.0900954,128.9773031,2020-03-17
"부산광역시 사하구청",부산광역시 사하구 다대로529번길 11,부산광역시 사하구 다대동 1140-1,생활방범,1,200,360도전방면,30,2012-11,051-220-4341,35.05920099,128.973196,2020-03-17
"부산광역시 사하구청",부산광역시 사하구 원양로356번길 1,부산광역시 사하구 감천동 387-6,생활방범,1,200,360도전방면,30,2012-11,051-220-4341,35.08248213,129.0065677,2020-03-17
"부산광역시 사하구청",부산광역시 사하구 장평로278번길 55,부산광역시 사하구 신평동 152,생활방범,1,200,360도전방면,30,2012-11,051-220-4341,35.09131555,128.9746637,2020-03-17
"부산광역시 사하구청",부산광역시 사하구 윤공단로14번길 130,부산광역시 사하구 다대동 932-1,생활방범,1,200,360도전방면,30,2012-11,051-220-4341,35.06033997,128.9716747,2020-03-17
"부산광역시 사하구청",부산광역시 사하구 하신번영로167번길 54,부산광역시 사하구 신평동 610-8,생활방범,1,200,360도전방면,30,2012-11,051-220-4341,35.09775676,128.9570712,2020-03-17
"부산광역시 사하구청",부산광역시 사하구 윤공단로 12,부산광역시 사하구 다대동 943-14,생활방범,1,200,360도전방면,30,2012-11,051-220-4341,35.05481524,128.9693071,2020-03-17
"부산광역시 사하구청",부산광역시 사하구 하신중앙로18번길 50-2,부산광역시 사하구 장림동 850-6,생활방범,1,200,360도전방면,30,2012-11,051-220-4341,35.07867609,128.9658724,2020-03-17
"부산광역시 사하구청",부산광역시 사하구 감천로109번길 29,부산광역시 사하구 감천동 538-2,생활방범,1,200,360도전방면,30,2012-11,051-220-4341,35.08926986,129.0043811,2020-03-17
"부산광역시 사하구청",부산광역시 사하구 다대로 702,부산광역시 사하구 다대동 1548-35,생활방범,1,200,360도전방면,30,2012-11,051-220-4341,35.04896271,128.9650835,2020-03-17
"부산광역시 사하구청",부산광역시 사하구 다대로 440,부산광역시 사하구 다대동 113-12,생활방범,1,200,360도전방면,30,2012-11,051-220-4341,35.06376729,128.9792691,2020-03-17
"부산광역시 사하구청",부산광역시 사하구 사하로142번길 20,부산광역시 사하구 괴정동 472-44,생활방범,1,200,360도전방면,30,2012-11,051-220-4341,35.09483477,128.9941619,2020-03-17
"부산광역시 사하구청",부산광역시 사하구 다대로130번안길 26,부산광역시 사하구 신평동 128-13,생활방범,1,200,360도전방면,30,2012-11,051-220-4341,35.09371634,128.9765238,2020-03-17
"부산광역시 사하구청",부산광역시 사하구 사하로141번길 134,부산광역시 사하구 괴정동 555-55,생활방범,1,200,360도전방면,30,2012-11,051-220-4341,35.09608266,128.9859623,2020-03-17
"부산광역시 사하구청",부산광역시 사하구 낙동대로356번길 9,부산광역시 사하구 당리동 341-22,생활방범,1,200,360도전방면,30,2012-11,051-220-4341,35.10191629,128.9791116,2020-03-17
"부산광역시 사하구청",부산광역시 사하구 장림시장5길 197,부산광역시 사하구 장림동 349-12,생활방범,1,200,360도전방면,30,2012-11,051-220-4341,35.07960606,128.9701928,2020-03-17
"부산광역시 사하구청",부산광역시 사하구 장평로 133,부산광역시 사하구 장림동 608-12,생활방범,1,200,360도전방면,30,2012-11,051-220-4341,35.07812586,128.9726754,2020-03-17
"부산광역시 사하구청",부산광역시 사하구 다대로 269,부산광역시 사하구 장림동 228-1,생활방범,1,200,360도전방면,30,2012-11,051-220-4341,35.07834733,128.9776343,2020-03-17
"부산광역시 사하구청",부산광역시 사하구 사하로141번나길 39,부산광역시 사하구 괴정동 498-4,생활방범,1,200,360도전방면,30,2012-11,051-220-4341,35.09440951,128.9899562,2020-03-17
"부산광역시 사하구청",부산광역시 사하구 장림시장9길 77,부산광역시 사하구 장림동 641-460,생활방범,1,200,360도전방면,30,2012-11,051-220-4341,35.08006658,128.9667113,2020-03-17
"부산광역시 사하구청",부산광역시 사하구 감내2로 177,부산광역시 사하구 감천동 2-188,생활방범,1,200,360도전방면,30,2012-11,051-220-4341,35.09854239,129.0101544,2020-03-17
"부산광역시 사하구청",부산광역시 사하구 하신번영로312번길 23,부산광역시 사하구 하단동 503-27,생활방범,1,200,360도전방면,30,2012-11,051-220-4341,35.10877248,128.9604251,2020-03-17
"부산광역시 사하구청",,부산광역시 사하구 구평동 63-19,생활방범,1,200,360도전방면,30,2012-11,051-220-4341,35.08579733,128.9904113,2020-03-17
"부산광역시 사하구청",부산광역시 사하구 승학로161번길 70,부산광역시 사하구 괴정동 1075-3,생활방범,1,200,360도전방면,30,2012-11,051-220-4341,35.10498806,128.984918,2020-03-17
"부산광역시 사하구청",부산광역시 사하구 다대로 499,부산광역시 사하구 다대동 270,생활방범,1,200,360도전방면,30,2013-12,051-220-4341,35.05967582,128.9757998,2020-03-17
"부산광역시 사하구청",부산광역시 사하구 동매로 143,부산광역시 사하구 당리동 327-31,생활방범,1,200,360도전방면,30,2013-12,051-220-4341,35.10133984,128.9734669,2020-03-17
"부산광역시 사하구청",부산광역시 사하구 다대로300번길 40,부산광역시 사하구 장림동 363-3,생활방범,1,200,360도전방면,30,2013-12,051-220-4341,35.07601917,128.9745911,2020-03-17
"부산광역시 사하구청",부산광역시 사하구 승학로281번길 60,부산광역시 사하구 괴정동 1026-19,생활방범,1,200,360도전방면,30,2013-12,051-220-4341,35.10323322,128.9922897,2020-03-17
"부산광역시 사하구청",부산광역시 사하구 다대로 616,부산광역시 사하구 다대동 1551-13,생활방범,1,200,360도전방면,30,2013-12,051-220-4341,35.05163272,128.9704972,2020-03-17
"부산광역시 사하구청",부산광역시 사하구 낙동대로390번길 14,부산광역시 사하구 당리동 320-58,생활방범,1,200,360도전방면,30,2013-12,051-220-4341,35.10368047,128.9760834,2020-03-17
"부산광역시 사하구청",부산광역시 사하구 승학로 247,부산광역시 사하구 괴정동 1040-31,생활방범,1,200,360도전방면,30,2013-12,051-220-4341,35.10333332,128.9910734,2020-03-17
"부산광역시 사하구청",부산광역시 사하구 감천로67번길 22,부산광역시 사하구 감천동 644-10,생활방범,1,200,360도전방면,30,2013-12,051-220-4341,35.09075407,128.9993106,2020-03-17
"부산광역시 사하구청",부산광역시 사하구 낙동대로295번길 53,부산광역시 사하구 괴정동 563-60,생활방범,1,200,360도전방면,30,2013-12,051-220-4341,35.09691928,128.9839543,2020-03-17
"부산광역시 사하구청",부산광역시 사하구 다대로144번길 73-8,부산광역시 사하구 신평동 111-556,생활방범,1,200,360도전방면,30,2013-12,051-220-4341,35.09106592,128.9754394,2020-03-17
"부산광역시 사하구청",부산광역시 사하구 을숙도대로724번길 24,부산광역시 사하구 구평동 119-13,생활방범,1,200,360도전방면,30,2013-12,051-220-4341,35.08427544,128.985809,2020-03-17
"부산광역시 사하구청",부산광역시 사하구 제석로 48,부산광역시 사하구 당리동 316-4,생활방범,1,200,360도전방면,30,2013-12,051-220-4341,35.1050138,128.9739385,2020-03-17
"부산광역시 사하구청",부산광역시 사하구 다대로297번길 26,부산광역시 사하구 장림동 293-2,생활방범,1,200,360도전방면,30,2013-12,051-220-4341,35.07644888,128.9783134,2020-03-17
"부산광역시 사하구청",부산광역시 사하구 감천로105번길 61,부산광역시 사하구 감천동 552-2,생활방범,1,200,360도전방면,30,2013-12,051-220-4341,35.09088905,129.0047848,2020-03-17
"부산광역시 사하구청",부산광역시 사하구 두송로26번길 36,부산광역시 사하구 장림동 45-5,생활방범,1,200,360도전방면,30,2013-12,051-220-4341,35.07741345,128.9794214,2020-03-17
"부산광역시 사하구청",부산광역시 사하구 낙동대로233번길 15,부산광역시 사하구 괴정동 944-14,생활방범,1,200,360도전방면,30,2013-12,051-220-4341,35.09868075,128.9923331,2020-03-17
"부산광역시 사하구청",부산광역시 사하구 감천로43번길 34,부산광역시 사하구 감천동 626-1,생활방범,1,200,360도전방면,30,2013-12,051-220-4341,35.09228463,128.998441,2020-03-17
"부산광역시 사하구청",부산광역시 사하구 감천로21번길 9,부산광역시 사하구 감천동 576-5,생활방범,1,200,360도전방면,30,2013-12,051-220-4341,35.09211117,128.9954229,2020-03-17
"부산광역시 사하구청",부산광역시 사하구 감천로89번길 16,부산광역시 사하구 감천동 502-41,생활방범,1,200,360도전방면,30,2013-12,051-220-4341,35.08924288,129.0021984,2020-03-17
"부산광역시 사하구청",,부산광역시 사하구 다대동 94-7,생활방범,1,200,360도전방면,30,2013-12,051-220-4341,35.06320498,128.9874629,2020-03-17
"부산광역시 사하구청",,부산광역시 사하구 당리동 산 76-4,생활방범,1,200,360도전방면,30,2013-12,051-220-4341,35.10549897,128.978606,2020-03-17
"부산광역시 사하구청",부산광역시 사하구 몰운대1길 53,부산광역시 사하구 다대동 468-38,생활방범,1,200,360도전방면,30,2013-12,051-220-4341,35.04533279,128.9692497,2020-03-17
"부산광역시 사하구청",부산광역시 사하구 하신번영로 434-6,부산광역시 사하구 하단동 845-12,생활방범,1,200,360도전방면,30,2013-12,051-220-4341,35.11972477,128.9626712,2020-03-17
"부산광역시 사하구청",부산광역시 사하구 다대로 400,부산광역시 사하구 다대동 113-6,생활방범,1,200,360도전방면,30,2013-12,051-220-4341,35.06777292,128.9777382,2020-03-17
"부산광역시 사하구청",부산광역시 사하구 장림로161번길 20,부산광역시 사하구 장림동 1137,생활방범,1,200,360도전방면,30,2013-12,051-220-4341,35.08414382,128.9674832,2020-03-17
"부산광역시 사하구청",,부산광역시 사하구 하단동 606,생활방범,1,200,360도전방면,30,2013-12,051-220-4341,35.10348128,128.9638181,2020-03-17
"부산광역시 사하구청",부산광역시 사하구 다대로130번길 114,부산광역시 사하구 신평동 146-29,생활방범,1,200,360도전방면,30,2013-12,051-220-4341,35.09292044,128.9757357,2020-03-17
"부산광역시 사하구청",부산광역시 사하구 두송로 187,부산광역시 사하구 구평동 435-140,생활방범,1,200,360도전방면,30,2013-12,051-220-4341,35.07021863,128.987383,2020-03-17
"부산광역시 사하구청",부산광역시 사하구 감천로42번길 17,부산광역시 사하구 감천동 783-1,생활방범,1,200,360도전방면,30,2013-12,051-220-4341,35.08987463,128.9966459,2020-03-17
"부산광역시 사하구청",부산광역시 사하구 승학로71번안길 32,부산광역시 사하구 당리동 88-1,생활방범,1,200,360도전방면,30,2013-12,051-220-4341,35.10612039,128.9764416,2020-03-17
"부산광역시 사하구청",부산광역시 사하구 두송로 202-2,부산광역시 사하구 구평동 435-313,생활방범,1,200,360도전방면,30,2013-12,051-220-4341,35.07017139,128.988753,2020-03-17
"부산광역시 사하구청",부산광역시 사하구 낙동대로504번길 10,부산광역시 사하구 하단동 509-1,생활방범,1,200,360도전방면,30,2013-12,051-220-4341,35.1095745,128.9672466,2020-03-17
"부산광역시 사하구청",부산광역시 사하구 낙동대로140번길 89,부산광역시 사하구 괴정동 191-7,생활방범,1,200,360도전방면,30,2013-12,051-220-4341,35.10557948,129.005086,2020-03-17
"부산광역시 사하구청",부산광역시 사하구 승학로161번길 32,부산광역시 사하구 괴정동 1076-7,생활방범,1,200,360도전방면,30,2013-12,051-220-4341,35.10325253,128.9844035,2020-03-17
"부산광역시 사하구청",,부산광역시 사하구 괴정동 193-119,생활방범,1,200,360도전방면,30,2013-12,051-220-4341,35.10718464,129.005007,2020-03-17
"부산광역시 사하구청",부산광역시 사하구 사하로125번길 16,부산광역시 사하구 감천동 830-12,생활방범,1,200,360도전방면,30,2014-11,051-220-4341,35.09227708,128.9927819,2020-03-17
"부산광역시 사하구청",부산광역시 사하구 낙동대로135번안길 15,부산광역시 사하구 괴정동 303-12,생활방범,1,200,360도전방면,30,2014-11,051-220-4341,35.1024451,129.0004297,2020-03-17
"부산광역시 사하구청",부산광역시 사하구 낙동대로135번길 39,부산광역시 사하구 괴정동 354-130,생활방범,1,200,360도전방면,30,2014-11,051-220-4341,35.10190446,129.0025839,2020-03-17
"부산광역시 사하구청",부산광역시 사하구 사하로166번길 20,부산광역시 사하구 괴정동 458-53,생활방범,1,200,360도전방면,30,2014-11,051-220-4341,35.09601793,128.9949769,2020-03-17
"부산광역시 사하구청",부산광역시 사하구 낙동대로295번길 11,부산광역시 사하구 괴정동 550-2,생활방범,1,200,360도전방면,30,2014-11,051-220-4341,35.09883375,128.9846355,2020-03-17
"부산광역시 사하구청",부산광역시 사하구 낙동대로309번길 27,부산광역시 사하구 괴정동 568-16,생활방범,1,200,360도전방면,30,2014-11,051-220-4341,35.09838851,128.9828533,2020-03-17
"부산광역시 사하구청",부산광역시 사하구 승학로131번길 43,부산광역시 사하구 당리동 354-2,생활방범,1,200,360도전방면,30,2014-11,051-220-4341,35.10553099,128.9835534,2020-03-17
"부산광역시 사하구청",부산광역시 사하구 괴정로 37,부산광역시 사하구 하단동 113-12,생활방범,1,200,360도전방면,30,2014-11,051-220-4341,35.10320955,128.9684985,2020-03-17
"부산광역시 사하구청",부산광역시 사하구 낙동대로457번길 32,부산광역시 사하구 하단동 616-15,생활방범,1,200,360도전방면,30,2014-11,051-220-4341,35.1049704,128.9669837,2020-03-17
"부산광역시 사하구청",부산광역시 사하구 낙동대로536번길 18,부산광역시 사하구 하단동 496-3,생활방범,1,200,360도전방면,30,2014-11,051-220-4341,35.11214451,128.9659935,2020-03-17
"부산광역시 사하구청",부산광역시 사하구 낙동남로1373번길 24,부산광역시 사하구 하단동 517-1,생활방범,1,200,360도전방면,30,2014-11,051-220-4341,35.10757876,128.9620455,2020-03-17
"부산광역시 사하구청",부산광역시 사하구 신산북로57번길 6,부산광역시 사하구 신평동 290-1,생활방범,1,200,360도전방면,30,2014-11,051-220-4341,35.09132845,128.9708144,2020-03-17
"부산광역시 사하구청",부산광역시 사하구 하신중앙로 180-6,부산광역시 사하구 신평동 408-8,생활방범,1,200,360도전방면,30,2014-11,051-220-4341,35.0951705,128.9626563,2020-03-17
"부산광역시 사하구청",부산광역시 사하구 다대로277번길 96,부산광역시 사하구 장림동 26-2,생활방범,1,200,360도전방면,30,2014-11,051-220-4341,35.07572341,128.9810788,2020-03-17
"부산광역시 사하구청",부산광역시 사하구 감천로178번길 34,부산광역시 사하구 감천동 264-5,생활방범,1,200,360도전방면,30,2014-11,051-220-4341,35.08234491,129.0078928,2020-03-17
"부산광역시 사하구청",부산광역시 사하구 원양로356번길 107,부산광역시 사하구 감천동 316-8,생활방범,1,200,360도전방면,30,2014-11,051-220-4341,35.08070344,129.0101644,2020-03-17
"부산광역시 사하구청",,부산광역시 사하구 괴정동 542-28,생활방범,1,200,360도전방면,30,2014-11,051-220-4341,35.09563736,128.9852989,2020-03-17
"부산광역시 사하구청",부산광역시 사하구 승학로 172,부산광역시 사하구 괴정동 1082-15,생활방범,1,200,360도전방면,30,2014-11,051-220-4341,35.10103609,128.9842781,2020-03-17
"부산광역시 사하구청",부산광역시 사하구 승학로31번길 1,부산광역시 사하구 당리동 309-5,생활방범,1,200,360도전방면,30,2014-11,051-220-4341,35.10697946,128.9727443,2020-03-17
"부산광역시 사하구청",부산광역시 사하구 낙동대로520번길 11,부산광역시 사하구 하단동 496-30,생활방범,1,200,360도전방면,30,2014-11,051-220-4341,35.11112251,128.9664202,2020-03-17
"부산광역시 사하구청",,부산광역시 사하구 다대동 1549-1,생활방범,1,200,360도전방면,30,2014-11,051-220-4341,35.05154468,128.9611896,2020-03-17
"부산광역시 사하구청",,부산광역시 사하구 다대동 1550-5,생활방범,1,200,360도전방면,30,2014-11,051-220-4341,35.05138967,128.9670743,2020-03-17
"부산광역시 사하구청",,부산광역시 사하구 다대동 94-3,생활방범,1,200,360도전방면,30,2014-11,051-220-4341,35.0662421,128.9853287,2020-03-17
"부산광역시 사하구청",,부산광역시 사하구 다대동 113-3,생활방범,1,200,360도전방면,30,2014-11,051-220-4341,35.06750279,128.9777021,2020-03-17
"부산광역시 사하구청",,부산광역시 사하구 다대동 113-16,생활방범,1,200,360도전방면,30,2014-11,051-220-4341,35.06166916,128.9745299,2020-03-17
"부산광역시 사하구청",,부산광역시 사하구 다대동 316-10,생활방범,1,200,360도전방면,30,2014-11,051-220-4341,35.05805931,128.9795188,2020-03-17
"부산광역시 사하구청",,부산광역시 사하구 다대동 85-14,생활방범,1,200,360도전방면,30,2014-11,051-220-4341,35.06622645,128.9805923,2020-03-17
"부산광역시 사하구청",부산광역시 사하구 옥천로24번길 43,부산광역시 사하구 감천동 산 99-31,생활방범,1,200,360도전방면,30,2014-11,051-220-4341,35.09034506,129.0073334,2020-03-17
"부산광역시 사하구청",부산광역시 사하구 사리로8번길 28,부산광역시 사하구 괴정동 380-1,생활방범,1,200,360도전방면,30,2014-11,051-220-4341,35.10070668,129.0013627,2020-03-17
"부산광역시 사하구청",부산광역시 사하구 회화나무길 113,부산광역시 사하구 괴정동 260-317,생활방범,1,200,360도전방면,30,2014-11,051-220-4341,35.10115255,128.9942936,2020-03-17
"부산광역시 사하구청",부산광역시 사하구 낙동대로563번길 9,부산광역시 사하구 하단동 478-3,생활방범,1,200,360도전방면,30,2014-11,051-220-4341,35.11353312,128.9625434,2020-03-17
"부산광역시 사하구청",부산광역시 사하구 장림시장5길 155,부산광역시 사하구 장림동 349-21,생활방범,1,200,360도전방면,30,2014-11,051-220-4341,35.08012816,128.9691573,2020-03-17
"부산광역시 사하구청",부산광역시 사하구 낙동대로 581,부산광역시 사하구 하단동 1217-2,생활방범,1,200,360도전방면,30,2014-11,051-220-4341,35.11556167,128.9613606,2020-03-17
"부산광역시 사하구청",부산광역시 사하구 낙동대로 353,부산광역시 사하구 당리동 340-1,생활방범,1,200,360도전방면,30,2014-11,051-220-4341,35.10081272,128.9784732,2020-03-17
"부산광역시 사하구청",부산광역시 사하구 대티로41번길 40,부산광역시 사하구 괴정동 194-5,생활방범,1,200,360도전방면,30,2014-11,051-220-4341,35.10737346,129.0039782,2020-03-17
"부산광역시 사하구청",부산광역시 사하구 사리로 20,부산광역시 사하구 괴정동 305-7,생활방범,1,200,360도전방면,30,2014-11,051-220-4341,35.10158781,128.999454,2020-03-17
"부산광역시 사하구청",부산광역시 사하구 낙동대로280번길 8,부산광역시 사하구 괴정동 764,생활방범,1,200,360도전방면,30,2014-11,051-220-4341,35.09974782,128.9864014,2020-03-17
"부산광역시 사하구청",부산광역시 사하구 제석로18번길 48,부산광역시 사하구 당리동 326-1,생활방범,1,200,360도전방면,30,2014-11,051-220-4341,35.10277321,128.9734511,2020-03-17
"부산광역시 사하구청",부산광역시 사하구 낙동대로451번길 21,부산광역시 사하구 하단동 619-10,생활방범,1,200,360도전방면,30,2014-11,051-220-4341,35.10422644,128.9698378,2020-03-17
"부산광역시 사하구청",부산광역시 사하구 낙동대로535번길 34,부산광역시 사하구 하단동 487-5,생활방범,1,200,360도전방면,30,2014-11,051-220-4341,35.1114039,128.9627816,2020-03-17
"부산광역시 사하구청",부산광역시 사하구 다대로83번길 50,부산광역시 사하구 신평동 100-15,생활방범,1,200,360도전방면,30,2014-11,051-220-4341,35.09353942,128.9805687,2020-03-17
"부산광역시 사하구청",부산광역시 사하구 다대로 393,부산광역시 사하구 다대동 82-5,생활방범,1,200,360도전방면,30,2014-11,051-220-4341,35.06793257,128.9791764,2020-03-17
"부산광역시 사하구청",부산광역시 사하구 감천로37번길 16,부산광역시 사하구 감천동 667-1,생활방범,1,200,360도전방면,30,2014-11,051-220-4341,35.09180254,128.9967791,2020-03-17
"부산광역시 사하구청",부산광역시 사하구 감천로73번길 40,부산광역시 사하구 감천동 633-2,생활방범,1,200,360도전방면,30,2014-11,051-220-4341,35.09130383,129.000414,2020-03-17
"부산광역시 사하구청",부산광역시 사하구 사하로141번나길 11,부산광역시 사하구 괴정동 494-18,생활방범,1,200,360도전방면,30,2015-12,051-220-4341,35.09412592,128.991565,2020-03-17
"부산광역시 사하구청",부산광역시 사하구 낙동대로244번길 9,부산광역시 사하구 괴정동 912-3,생활방범,1,200,360도전방면,30,2015-12,051-220-4341,35.09990594,128.9902202,2020-03-17
"부산광역시 사하구청",부산광역시 사하구 오작로78번길 2-2,부산광역시 사하구 괴정동 378-132,생활방범,1,200,360도전방면,30,2015-12,051-220-4341,35.09920978,129.0014321,2020-03-17
"부산광역시 사하구청",부산광역시 사하구 낙동대로164번길 28,부산광역시 사하구 괴정동 241-11,생활방범,1,200,360도전방면,30,2015-12,051-220-4341,35.10362907,128.9978666,2020-03-17
"부산광역시 사하구청",부산광역시 사하구 낙동대로 99,부산광역시 사하구 괴정동 349-14,생활방범,1,200,360도전방면,30,2015-12,051-220-4341,35.10425673,129.0048064,2020-03-17
"부산광역시 사하구청",부산광역시 사하구 감천로117번길 50,부산광역시 사하구 감천동 541-11,생활방범,1,200,360도전방면,30,2015-12,051-220-4341,35.08961382,129.0052955,2020-03-17
"부산광역시 사하구청",부산광역시 사하구 마하로 41,부산광역시 사하구 당리동 351-18,생활방범,1,200,360도전방면,30,2015-12,051-220-4341,35.10338799,128.9832644,2020-03-17
"부산광역시 사하구청",부산광역시 사하구 승학로161번안길 10,부산광역시 사하구 괴정동 1068-57,생활방범,1,200,360도전방면,30,2015-12,051-220-4341,35.10305781,128.9850702,2020-03-17
"부산광역시 사하구청",부산광역시 사하구 마하로12번길 22,부산광역시 사하구 괴정동 1091-4,생활방범,1,200,360도전방면,30,2015-12,051-220-4341,35.10107774,128.9824798,2020-03-17
"부산광역시 사하구청",부산광역시 사하구 제석로59번길 24,부산광역시 사하구 당리동 311-4,생활방범,1,200,360도전방면,30,2015-12,051-220-4341,35.10669158,128.9737939,2020-03-17
"부산광역시 사하구청",부산광역시 사하구 승학로71번안길 72,부산광역시 사하구 당리동 96-24,생활방범,1,200,360도전방면,30,2015-12,051-220-4341,35.10757195,128.977523,2020-03-17
"부산광역시 사하구청",,부산광역시 사하구 당리동 16-19,생활방범,1,200,360도전방면,30,2015-12,051-220-4341,35.11168808,128.9846038,2020-03-17
"부산광역시 사하구청",부산광역시 사하구 하신중앙로239번길 59,부산광역시 사하구 하단동 1180-5,생활방범,1,200,360도전방면,30,2015-12,051-220-4341,35.09985477,128.957359,2020-03-17
"부산광역시 사하구청",부산광역시 사하구 낙동대로549번길 5,부산광역시 사하구 하단동 490-30,생활방범,1,200,360도전방면,30,2015-12,051-220-4341,35.11247002,128.963606,2020-03-17
"부산광역시 사하구청",부산광역시 사하구 낙동남로1367번길 12,부산광역시 사하구 하단동 522-4,생활방범,1,200,360도전방면,30,2015-12,051-220-4341,35.10700732,128.9613587,2020-03-17
"부산광역시 사하구청",부산광역시 사하구 하신번영로300번길 81,부산광역시 사하구 하단동 588-36,생활방범,1,200,360도전방면,30,2015-12,051-220-4341,35.1077112,128.9635279,2020-03-17
"부산광역시 사하구청",부산광역시 사하구 다대로120번길 24,부산광역시 사하구 신평동 111-6,생활방범,1,200,360도전방면,30,2015-12,051-220-4341,35.0922933,128.9774939,2020-03-17
"부산광역시 사하구청",부산광역시 사하구 하신번영로161번길 36,부산광역시 사하구 신평동 617-7,생활방범,1,200,360도전방면,30,2015-12,051-220-4341,35.097191,128.957942,2020-03-17
"부산광역시 사하구청",부산광역시 사하구 비봉로 64,부산광역시 사하구 신평동 435-37,생활방범,1,200,360도전방면,30,2015-12,051-220-4341,35.09958319,128.9654503,2020-03-17
"부산광역시 사하구청",부산광역시 사하구 장림로196번길 21,부산광역시 사하구 장림동 321-30,생활방범,1,200,360도전방면,30,2015-12,051-220-4341,35.08161075,128.9708745,2020-03-17
"부산광역시 사하구청",부산광역시 사하구 장림번영로104번길 63,부산광역시 사하구 장림동 277-3,생활방범,1,200,360도전방면,30,2015-12,051-220-4341,35.07780858,128.9762572,2020-03-17
"부산광역시 사하구청",부산광역시 사하구 장평로41번길 19,부산광역시 사하구 장림동 532,생활방범,1,200,360도전방면,30,2015-12,051-220-4341,35.06899523,128.9725888,2020-03-17
"부산광역시 사하구청",부산광역시 사하구 을숙도대로709번길 31,부산광역시 사하구 구평동 17,생활방범,1,200,360도전방면,30,2015-12,051-220-4341,35.08739366,128.9847829,2020-03-17
"부산광역시 사하구청",부산광역시 사하구 다대동로 85,부산광역시 사하구 다대동 237-2,생활방범,1,200,360도전방면,30,2015-12,051-220-4341,35.05862275,128.9744827,2020-03-17
"부산광역시 사하구청",부산광역시 사하구 다송로72번길 33,부산광역시 사하구 다대동 1582-11,생활방범,1,200,360도전방면,30,2015-12,051-220-4341,35.06054388,128.9821577,2020-03-17
"부산광역시 사하구청",부산광역시 사하구 감천항로190번안길 9,부산광역시 사하구 구평동 293-7,생활방범,1,200,360도전방면,30,2015-12,051-220-4341,35.07669491,128.989084,2020-03-17
"부산광역시 사하구청",부산광역시 사하구 감천로105번길 29,부산광역시 사하구 감천동 522,생활방범,1,200,360도전방면,30,2015-12,051-220-4341,35.08946769,129.0033526,2020-03-17
"부산광역시 사하구청",부산광역시 사하구 옥천로 10-1,부산광역시 사하구 감천동 472-1,생활방범,1,200,360도전방면,30,2015-12,051-220-4341,35.0884991,129.0060166,2020-03-17
"부산광역시 사하구청",부산광역시 사하구 원양로356번길 71,부산광역시 사하구 감천동 326-26,생활방범,1,200,360도전방면,30,2015-12,051-220-4341,35.08066335,129.0084862,2020-03-17
"부산광역시 사하구청",부산광역시 사하구 옥천로50번길 17,부산광역시 사하구 감천동 16-936,생활방범,1,200,360도전방면,30,2015-12,051-220-4341,35.09059758,129.0084003,2020-03-17
"부산광역시 사하구청",부산광역시 사하구 승학로 161,부산광역시 사하구 괴정동 1080-6,생활방범,1,200,360도전방면,30,2015-12,051-220-4341,35.10186584,128.9842223,2020-03-17
"부산광역시 사하구청",부산광역시 사하구 다대로 131-4,부산광역시 사하구 신평동 33-114,생활방범,1,200,360도전방면,30,2015-12,051-220-4341,35.09059296,128.9781974,2020-03-17
"부산광역시 사하구청",부산광역시 사하구 사하로 164,부산광역시 사하구 괴정동 477-34,생활방범,1,200,360도전방면,30,2015-12,051-220-4341,35.09625146,128.9939817,2020-03-17
"부산광역시 사하구청",부산광역시 사하구 감내1로 83-1,부산광역시 사하구 감천동 17-42,생활방범,1,200,360도전방면,30,2015-12,051-220-4341,35.09178652,129.0074279,2020-03-17
"부산광역시 사하구청",부산광역시 사하구 다대로 617,부산광역시 사하구 다대동 382-3,생활방범,1,200,360도전방면,30,2016-11,051-220-4341,35.05161518,128.9715603,2020-03-17
"부산광역시 사하구청",부산광역시 사하구 장림로 179,부산광역시 사하구 장림동 668,생활방범,1,200,360도전방면,30,2016-11,051-220-4341,35.0827365,128.9687496,2020-03-17
"부산광역시 사하구청",부산광역시 사하구 하신중앙로 265,부산광역시 사하구 하단동 1176,생활방범,1,200,360도전방면,30,2016-11,051-220-4341,35.09992696,128.9584895,2020-03-17
"부산광역시 사하구청",부산광역시 사하구 다대낙조2길 100,부산광역시 사하구 다대동 1624,생활방범,1,200,360도전방면,30,2016-11,051-220-4341,35.05538281,128.9648303,2020-03-17
"부산광역시 사하구청",부산광역시 사하구 다대동로72번길 11,부산광역시 사하구 다대동 338,생활방범,1,200,360도전방면,30,2016-11,051-220-4341,35.05743248,128.9756525,2020-03-17
"부산광역시 사하구청",부산광역시 사하구 오작로 100,부산광역시 사하구 괴정동 377-75,생활방범,1,200,360도전방면,30,2016-11,051-220-4341,35.10072567,129.0034249,2020-03-17
"부산광역시 사하구청",부산광역시 사하구 감천로73번길 8,부산광역시 사하구 감천동 500-102,생활방범,1,200,360도전방면,30,2016-11,051-220-4341,35.08996023,129.0004744,2020-03-17
"부산광역시 사하구청",부산광역시 사하구 장평로 393,부산광역시 사하구 괴정동 1206-79,생활방범,1,200,360도전방면,30,2016-11,051-220-4341,35.09677191,128.982121,2020-03-17
"부산광역시 사하구청",부산광역시 사하구 다송로 40-1,부산광역시 사하구 다대동 87,생활방범,1,200,360도전방면,30,2016-11,051-220-4341,35.06588923,128.9810487,2020-03-17
"부산광역시 사하구청",부산광역시 사하구 사리로55번길 13,부산광역시 사하구 괴정동 240-1,생활방범,1,200,360도전방면,30,2016-11,051-220-4341,35.10513806,128.9974243,2020-03-17
"부산광역시 사하구청",부산광역시 사하구 다송로 57,부산광역시 사하구 다대동 3,생활방범,1,200,360도전방면,30,2016-11,051-220-4341,35.06300313,128.9856844,2020-03-17
"부산광역시 사하구청",부산광역시 사하구 다대로 52,부산광역시 사하구 당리동 540-3,생활방범,1,200,360도전방면,30,2016-11,051-220-4341,35.09783891,128.9772531,2020-03-17
"부산광역시 사하구청",부산광역시 사하구 다대낙조2길 110,부산광역시 사하구 다대동 1633,생활방범,1,200,360도전방면,30,2016-11,051-220-4341,35.05508252,128.9629193,2020-03-17
"부산광역시 사하구청",부산광역시 사하구 하신중앙로3번길 34,부산광역시 사하구 장림동 971-3,생활방범,1,200,360도전방면,30,2016-11,051-220-4341,35.07849389,128.9615828,2020-03-17
"부산광역시 사하구청",부산광역시 사하구 제석로95번길 99,부산광역시 사하구 당리동 39-9,생활방범,1,200,360도전방면,30,2016-11,051-220-4341,35.11089449,128.9757418,2020-03-17
"부산광역시 사하구청",부산광역시 사하구 다송로68번길 30,부산광역시 사하구 다대동 1577-1,생활방범,1,200,360도전방면,30,2016-11,051-220-4341,35.06140808,128.9822996,2020-03-17
"부산광역시 사하구청",부산광역시 사하구 장림시장9길 58,부산광역시 사하구 장림동 807-3,생활방범,1,200,360도전방면,30,2016-11,051-220-4341,35.08005267,128.9661957,2020-03-17
"부산광역시 사하구청",부산광역시 사하구 낙동대로 지하 141,부산광역시 사하구 괴정동 317-1,생활방범,1,200,360도전방면,30,2016-11,051-220-4341,35.10312525,128.9999335,2020-03-17
"부산광역시 사하구청",부산광역시 사하구 장평로133번길 34,부산광역시 사하구 장림동 605-28,생활방범,1,200,360도전방면,30,2016-11,051-220-4341,35.07778481,128.9713664,2020-03-17
"부산광역시 사하구청",부산광역시 사하구 사하로 87,부산광역시 사하구 감천동 828-11,생활방범,1,200,360도전방면,30,2016-11,051-220-4341,35.09017125,128.9934582,2020-03-17
"부산광역시 사하구청",,부산광역시 사하구 다대동 1595,생활방범,1,200,360도전방면,30,2016-11,051-220-4341,35.06038137,128.9821886,2020-03-17
"부산광역시 사하구청",부산광역시 사하구 윤공단로 119,부산광역시 사하구 다대동 1668,생활방범,1,200,360도전방면,30,2016-11,051-220-4341,35.06108878,128.9715959,2020-03-17
"부산광역시 사하구청",,부산광역시 사하구 다대동 산 113-7,생활방범,1,200,360도전방면,30,2016-11,051-220-4341,35.05891167,128.9649765,2020-03-17
"부산광역시 사하구청",부산광역시 사하구 몰운대1길 14,부산광역시 사하구 다대동 482-3,생활방범,1,200,360도전방면,30,2016-11,051-220-4341,35.04637931,128.9680126,2020-03-17
"부산광역시 사하구청",부산광역시 사하구 다산로106번길 6,부산광역시 사하구 다대동 1608,생활방범,1,200,360도전방면,30,2016-11,051-220-4341,35.06214701,128.9587049,2020-03-17
"부산광역시 사하구청",부산광역시 사하구 윤공단로14번길 68,부산광역시 사하구 다대동 933-16,생활방범,1,200,360도전방면,30,2016-11,051-220-4341,35.05770017,128.9703827,2020-03-17
"부산광역시 사하구청",부산광역시 사하구 장림시장9길 181,부산광역시 사하구 장림동 615-346,생활방범,1,200,360도전방면,30,2016-11,051-220-4341,35.07931459,128.9694437,2020-03-17
"부산광역시 사하구청",부산광역시 사하구 낙동대로485번길 10,부산광역시 사하구 하단동 512-16,생활방범,1,200,360도전방면,30,2016-11,051-220-4341,35.10762458,128.9664776,2020-03-17
"부산광역시 사하구청",,부산광역시 사하구 괴정동 619-58,생활방범,1,200,360도전방면,30,2016-11,051-220-4341,35.09413043,128.9877045,2020-03-17
"부산광역시 사하구청",부산광역시 사하구 신산북로 11,부산광역시 사하구 신평동 469-2,생활방범,1,200,360도전방면,30,2016-11,051-220-4341,35.09159281,128.9659372,2020-03-17
"부산광역시 사하구청",부산광역시 사하구 오작로 142,부산광역시 사하구 괴정동 350-57,생활방범,1,200,360도전방면,30,2016-11,051-220-4341,35.1035914,129.0056867,2020-03-17
"부산광역시 사하구청",부산광역시 사하구 몰운대1길 14,부산광역시 사하구 다대동 482-3,생활방범,1,200,360도전방면,30,2016-11,051-220-4341,35.04637931,128.9680126,2020-03-17
"부산광역시 사하구청",부산광역시 사하구 몰운대1길 14,부산광역시 사하구 다대동 482-3,생활방범,1,200,360도전방면,30,2016-11,051-220-4341,35.04637931,128.9680126,2020-03-17
"부산광역시 사하구청",부산광역시 사하구 몰운대1길 14,부산광역시 사하구 다대동 482-3,생활방범,1,200,360도전방면,30,2016-11,051-220-4341,35.04637931,128.9680126,2020-03-17
"부산광역시 사하구청",부산광역시 사하구 오작로166번길 30,부산광역시 사하구 괴정동 2-76,생활방범,1,200,360도전방면,30,2016-11,051-220-4341,35.10476949,129.0092661,2020-03-17
"부산광역시 사하구청",부산광역시 사하구 장평로83번길 19,부산광역시 사하구 장림동 578,생활방범,1,200,360도전방면,30,2016-11,051-220-4341,35.07325795,128.9715868,2020-03-17
"부산광역시 사하구청",부산광역시 사하구 하신중앙로 264,부산광역시 사하구 하단동 567-1,생활방범,1,200,360도전방면,30,2016-11,051-220-4341,35.10181725,128.9611002,2020-03-17
"부산광역시 사하구청",부산광역시 사하구 감천항로 191,부산광역시 사하구 구평동 223,생활방범,1,200,360도전방면,30,2017-08,051-220-4341,35.07598718,128.9907531,2020-03-17
"부산광역시 사하구청",,부산광역시 사하구 구평동 296,생활방범,1,200,360도전방면,30,2017-08,051-220-4341,35.07610914,128.989066,2020-03-17
"부산광역시 사하구청",부산광역시 사하구 감천항로 453,부산광역시 사하구 구평동 481,생활방범,1,200,360도전방면,30,2017-08,051-220-4341,35.05361186,128.9954262,2020-03-17
"부산광역시 사하구청",부산광역시 사하구 원양로 409,부산광역시 사하구 감천동 453-6,생활방범,1,200,360도전방면,30,2017-08,051-220-4341,35.08690459,129.0048126,2020-03-17
"부산광역시 사하구청",부산광역시 사하구 다대로 97,부산광역시 사하구 신평동 15-12,생활방범,1,200,360도전방면,30,2017-08,051-220-4341,35.09397461,128.9780294,2020-03-17
"부산광역시 사하구청",,부산광역시 사하구 신평동 23-60,생활방범,1,200,360도전방면,30,2017-08,051-220-4341,35.0934246,128.9813898,2020-03-17
"부산광역시 사하구청",부산광역시 사하구 장평로299번안길 36,부산광역시 사하구 신평동 174-12,생활방범,4,200,360도전방면,30,2018-06,051-220-4341,35.09444469,128.9722662,2020-03-17
"부산광역시 사하구청",부산광역시 사하구 신산북로43번길 62,부산광역시 사하구 신평동 219-4,생활방범,3,200,360도전방면,30,2018-06,051-220-4341,35.09300201,128.9711962,2020-03-17
"부산광역시 사하구청",부산광역시 사하구 장평로 339,부산광역시 사하구 신평동 11-6,생활방범,4,200,360도전방면,30,2018-10,051-220-4341,35.09484017,128.9757695,2020-03-17
"부산광역시 사하구청",부산광역시 사하구 하신중앙로313번길 40,부산광역시 사하구 하단동 595-15,생활방범,2,200,360도전방면,30,2018-10,051-220-4341,35.10529405,128.9625671,2020-03-17
"부산광역시 사하구청",부산광역시 사하구 하신번영로167번길 20,부산광역시 사하구 신평동 608-7,생활방범,4,200,360도전방면,30,2018-10,051-220-4341,35.09760664,128.9589559,2020-03-17
"부산광역시 사하구청",부산광역시 사하구 대티로63번다길 23,부산광역시 사하구 괴정동 193-155,생활방범,3,200,360도전방면,30,2018-10,051-220-4341,35.10797888,129.0037991,2020-03-17
"부산광역시 사하구청",부산광역시 사하구 감천항로405번길 14,부산광역시 사하구 구평동 473,생활방범,3,200,360도전방면,30,2018-10,051-220-4341,35.05749206,128.9960215,2020-03-17
"부산광역시 사하구청",,부산광역시 사하구 괴정동 산79-2,생활방범,3,200,360도전방면,30,2018-10,051-220-4341,35.09572301,128.9968598,2020-03-17
"부산광역시 사하구청",부산광역시 사하구 감천항로 433,부산광역시 사하구 구평동 476-7,생활방범,3,200,360도전방면,30,2018-10,051-220-4341,35.05510868,128.9953677,2020-03-17
"부산광역시 사하구청",,부산광역시 사하구 하단동 799-6,생활방범,4,200,360도전방면,30,2018-10,051-220-4341,35.11477974,128.9622071,2020-03-17
"부산광역시 사하구청",부산광역시 사하구 낙동대로 201,부산광역시 사하구 괴정동 429-4,생활방범,4,200,360도전방면,30,2018-10,051-220-4341,35.10046242,128.9949104,2020-03-17
"부산광역시 사하구청",부산광역시 사하구 제석로 111-1,부산광역시 사하구 당리동 33-64,생활방범,3,200,360도전방면,30,2018-10,051-220-4341,35.10896634,128.9778687,2020-03-17
"부산광역시 사하구청",부산광역시 사하구 낙동남로1233번길 92,부산광역시 사하구 하단동 1150-2,생활방범,5,200,을숙도대로,30,2018-08,051-220-4341,35.10825299,128.9474204,2020-03-17
"부산광역시 사하구청",부산광역시 사하구 장림시장6길 130,부산광역시 사하구 장림동 615-56,생활방범,2,200,360도전방면,30,2019-08,051-220-4341,35.07998063,128.9684428,2020-03-17
"부산광역시 사하구청",부산광역시 사하구 다대로524번길 8,부산광역시 사하구 다대동 1226-2,생활방범,1,200,360도전방면,30,2019-08,051-220-4341,35.05973186,128.9721937,2020-03-17
"부산광역시 사하구청",부산광역시 사하구 하신중앙로22번길 38,부산광역시 사하구 장림동 1121-1,생활방범,1,200,360도전방면,30,2019-08,051-220-4341,35.08225217,128.9661888,2020-03-17
"부산광역시 사하구청",부산광역시 사하구 다대로385번길 58,부산광역시 사하구 다대동 83-14,생활방범,1,200,360도전방면,30,2019-08,051-220-4341,35.0671193,128.9805372,2020-03-17
"부산광역시 사하구청",부산광역시 사하구 다대로277번길 124,부산광역시 사하구 장림동 2,생활방범,1,200,360도전방면,30,2019-08,051-220-4341,35.0752836,128.9830692,2020-03-17
"부산광역시 사하구청",부산광역시 사하구 감내1로197번길 24,부산광역시 사하구 감천동 6-1446,생활방범,1,200,360도전방면,30,2012-07,051-220-4341,35.09654471,129.0086636360,2020-03-17
"부산광역시 사하구청",부산광역시 사하구 감내1로175번길 43,부산광역시 사하구 감천동 6-493,생활방범,1,200,360도전방면,30,2012-07,051-220-4341,35.09644246,129.0090317,2020-03-17
"부산광역시 사하구청",부산광역시 사하구 감내2로 92,부산광역시 사하구 감천동 6-1773,생활방범,1,200,360도전방면,30,2012-07,051-220-4341,35.0965764,129.0081011,2020-03-17
"부산광역시 사하구청",부산광역시 사하구 감내1로175번길 89,부산광역시 사하구 감천동 6-1169,생활방범,1,200,360도전방면,30,2012-07,051-220-4341,35.09726676,129.0085483,2020-03-17
"부산광역시 사하구청",부산광역시 사하구 감내1로175번길 74,부산광역시 사하구 감천동 6-1294,생활방범,1,200,360도전방면,30,2012-07,051-220-4341,35.097065,129.0089626,2020-03-17
"부산광역시 사하구청",,부산광역시 사하구 감천동 11-105,생활방범,1,200,360도전방면,30,2012-07,051-220-4341,35.09550795,129.0075944,2020-03-17
"부산광역시 사하구청",부산광역시 사하구 옥천로104번안길 24-1,부산광역시 사하구 감천동 산 99-1,생활방범,1,200,360도전방면,30,2012-09,051-220-4341,35.09542242,129.0113662,2020-03-17
"부산광역시 사하구청",부산광역시 사하구 옥천로76번길 79,부산광역시 사하구 감천동 13-1523,생활방범,1,200,360도전방면,30,2012-09,051-220-4341,35.09294188,129.0115658,2020-03-17
"부산광역시 사하구청",,부산광역시 사하구 하단동 1203,생활방범,1,200,360도전방면,30,2012-09,051-220-4341,35.10694701,128.9564548,2020-03-17
"부산광역시 사하구청",,부산광역시 사하구 하단동 1203,생활방범,1,200,360도전방면,30,2012-09,051-220-4341,35.10694701,128.9564548,2020-03-17
"부산광역시 사하구청",부산광역시 사하구 다송로72번길 80,부산광역시 사하구 다대동 1573-1,생활방범,1,200,360도전방면,30,2012-09,051-220-4341,35.06003886,128.979959,2020-03-17
"부산광역시 사하구청",부산광역시 사하구 다대로554번길 43,부산광역시 사하구 다대동 946-19,생활방범,1,200,360도전방면,30,2012-09,051-220-4341,35.05794882,128.9685988,2020-03-17
"부산광역시 사하구청",부산광역시 사하구 다송로 76,부산광역시 사하구 다대동 1580,생활방범,1,200,360도전방면,30,2012-09,051-220-4341,35.06065465,128.9829483,2020-03-17
"부산광역시 사하구청",부산광역시 사하구 낙동대로309번길 31,부산광역시 사하구 괴정동 661,생활방범,1,200,360도전방면,30,2013-12,051-220-4341,35.0998109,128.9830788,2020-03-17
"부산광역시 사하구청",부산광역시 사하구 낙동대로244번길 48,부산광역시 사하구 괴정동 1045-4,생활방범,1,200,360도전방면,30,2013-12,051-220-4341,35.10144702,128.9902608,2020-03-17
"부산광역시 사하구청",부산광역시 사하구 승학로224번길 122,부산광역시 사하구 괴정동 260-23,생활방범,1,200,360도전방면,30,2013-12,051-220-4341,35.10210984,128.9962686,2020-03-17
"부산광역시 사하구청",부산광역시 사하구 괴정로15번길 47,부산광역시 사하구 하단동 157-3,생활방범,1,200,360도전방면,30,2013-12,051-220-4341,35.10400088,128.9687382,2020-03-17
"부산광역시 사하구청",부산광역시 사하구 낙동대로549번길 29,부산광역시 사하구 하단동 487-1,생활방범,1,200,360도전방면,30,2013-12,051-220-4341,35.11231842,128.9622659,2020-03-17
"부산광역시 사하구청",부산광역시 사하구 비봉로 21,부산광역시 사하구 신평동 414-3,생활방범,1,200,360도전방면,30,2013-12,051-220-4341,35.09710951,128.9636662,2020-03-17
"부산광역시 사하구청",부산광역시 사하구 하신중앙로17번길 11,부산광역시 사하구 장림동 824,생활방범,1,200,360도전방면,30,2013-12,051-220-4341,35.08028208,128.9634241,2020-03-17
"부산광역시 사하구청",부산광역시 사하구 윤공단로62번길 49,부산광역시 사하구 다대동 936-11,생활방범,1,200,360도전방면,30,2013-12,051-220-4341,35.0591102,128.9699061,2020-03-17
"부산광역시 사하구청",부산광역시 사하구 윤공단로18번길 30,부산광역시 사하구 다대동 956-1,생활방범,1,200,360도전방면,30,2013-12,051-220-4341,35.05622429,128.9689511,2020-03-17
"부산광역시 사하구청",,부산광역시 사하구 감천동 849-10,생활방범,1,200,360도전방면,30,2014-01,051-220-4341,35.0897123,128.9944616,2020-03-17
"부산광역시 사하구청",,부산광역시 사하구 감천동 849-10,생활방범,1,200,360도전방면,30,2014-01,051-220-4341,35.0897123,128.9944616,2020-03-17
"부산광역시 사하구청",부산광역시 사하구 낙동대로 지하 405,부산광역시 사하구 당리동 323,생활방범,1,200,360도전방면,30,2014-02,051-220-4341,35.10349109,128.9738545,2020-03-17
"부산광역시 사하구청",부산광역시 사하구 장평로189번길 15,부산광역시 사하구 장림동 727-71,생활방범,1,200,360도전방면,30,2014-04,051-220-4341,35.08293838,128.9716798,2020-03-17
"부산광역시 사하구청",부산광역시 사하구 장평로189번안길 47,부산광역시 사하구 장림동 727-61,생활방범,1,200,360도전방면,30,2014-04,051-220-4341,35.08396667,128.9693453,2020-03-17
"부산광역시 사하구청",부산광역시 사하구 옥천로70번길 53,부산광역시 사하구 감천동 13-1421,생활방범,1,200,360도전방면,30,2014-11,051-220-4341,35.09267364,129.0102245,2020-03-17
"부산광역시 사하구청",부산광역시 사하구 하신번영로 206,부산광역시 사하구 하단동 1181-2,생활방범,1,200,360도전방면,30,2015-05,051-220-4341,35.09963462,128.9589797,2020-03-17
"부산광역시 사하구청",부산광역시 사하구 하신번영로 186,부산광역시 사하구 하단동 1181-25,생활방범,1,200,360도전방면,30,2015-05,051-220-4341,35.09956362,128.9599769,2020-03-17
"부산광역시 사하구청",부산광역시 사하구 승학로31번길 33,부산광역시 사하구 당리동 182-11,생활방범,1,200,360도전방면,30,2015-09,051-220-4341,35.10725597,128.9742285,2020-03-17
"부산광역시 사하구청",부산광역시 사하구 장평로450번길 42,부산광역시 사하구 괴정동 532-27,생활방범,1,200,360도전방면,30,2015-09,051-220-4341,35.09750116,128.9888749,2020-03-17
"부산광역시 사하구청",부산광역시 사하구 제석로62번길 16,부산광역시 사하구 당리동 143-1,생활방범,1,200,360도전방면,30,2015-12,051-220-4341,35.10546217,128.9753478,2020-03-17
"부산광역시 사하구청",부산광역시 사하구 감천로117번길 16,부산광역시 사하구 감천동 479-1,생활방범,1,200,360도전방면,30,2015-12,051-220-4341,35.08823745,129.0049606,2020-03-17
"부산광역시 사하구청",부산광역시 사하구 사하로185번길 35-1,부산광역시 사하구 괴정동 872-1,생활방범,1,200,360도전방면,30,2015-12,051-220-4341,35.09748721,128.9916825,2020-03-17
"부산광역시 사하구청",,부산광역시 사하구 다대동 86-5,생활방범,1,200,360도전방면,30,2014-10,051-220-4341,35.06506124,128.9831109,2020-03-17
"부산광역시 사하구청",부산광역시 사하구 하신중앙로53번길 67-1,부산광역시 사하구 신평동 660,생활방범,1,200,360도전방면,30,2016-04,051-220-4341,35.08127153,128.9557269,2020-03-17
"부산광역시 사하구청",부산광역시 사하구 하신중앙로53번길 67-1,부산광역시 사하구 신평동 660,생활방범,1,200,360도전방면,30,2016-04,051-220-4341,35.08127153,128.9557269,2020-03-17
"부산광역시 사하구청",부산광역시 사하구 다대로429번길 22,부산광역시 사하구 다대동 120-7,생활방범,1,200,360도전방면,30,2016-08,051-220-4341,35.0617036,128.9792006,2020-03-17
"부산광역시 사하구청",부산광역시 사하구 다대로429번길 22,부산광역시 사하구 다대동 120-7,생활방범,1,200,360도전방면,30,2016-08,051-220-4341,35.0617036,128.9792006,2020-03-17
"부산광역시 사하구청",부산광역시 사하구 원양로 368-5,부산광역시 사하구 감천동 142-2,생활방범,1,200,360도전방면,30,2016-11,051-220-4341,35.08388517,129.0069468,2020-03-17
"부산광역시 사하구청",부산광역시 사하구 감천로42번길 26,부산광역시 사하구 감천동 791,생활방범,1,200,360도전방면,30,2016-11,051-220-4341,35.09005922,128.9961218,2020-03-17
"부산광역시 사하구청",부산광역시 사하구 감천로210번가길 19,부산광역시 사하구 감천동 300-2,생활방범,1,200,360도전방면,30,2016-11,051-220-4341,35.08156147,129.008881,2020-03-17
"부산광역시 사하구청",부산광역시 사하구 을숙도대로873번길 32,부산광역시 사하구 감천동 692,생활방범,1,200,360도전방면,30,2016-11,051-220-4341,35.08976213,128.997171,2020-03-17
"부산광역시 사하구청",부산광역시 사하구 사하로141번가길 3,부산광역시 사하구 괴정동 493-36,생활방범,1,200,360도전방면,30,2016-11,051-220-4341,35.09434505,128.9923244,2020-03-17
"부산광역시 사하구청",부산광역시 사하구 승학로281번길 78,부산광역시 사하구 괴정동 1040-36,생활방범,1,200,360도전방면,30,2016-11,051-220-4341,35.10385052,128.9917597,2020-03-17
"부산광역시 사하구청",부산광역시 사하구 낙동대로234번길 18,부산광역시 사하구 괴정동 922-4,생활방범,1,200,360도전방면,30,2016-11,051-220-4341,35.10063587,128.9913478,2020-03-17
"부산광역시 사하구청",부산광역시 사하구 괴정로232번길 10,부산광역시 사하구 괴정동 555-30,생활방범,1,200,360도전방면,30,2016-11,051-220-4341,35.09643864,128.986526,2020-03-17
"부산광역시 사하구청",부산광역시 사하구 괴정로244번길 33,부산광역시 사하구 괴정동 537-21,생활방범,1,200,360도전방면,30,2016-11,051-220-4341,35.09509476,128.9877271,2020-03-17
"부산광역시 사하구청",부산광역시 사하구 괴정로 283-1,부산광역시 사하구 괴정동 485-9,생활방범,1,200,360도전방면,30,2016-11,051-220-4341,35.09669776,128.9923403327,2020-03-17
"부산광역시 사하구청",부산광역시 사하구 오작로162번길 19,부산광역시 사하구 괴정동 4-17,생활방범,1,200,360도전방면,30,2016-11,051-220-4341,35.1039853,129.0081815,2020-03-17
"부산광역시 사하구청",부산광역시 사하구 낙동대로140번길 134,부산광역시 사하구 괴정동 149,생활방범,1,200,360도전방면,30,2016-11,051-220-4341,35.10621193,129.0070791,2020-03-17
"부산광역시 사하구청",부산광역시 사하구 대티로63번가길 2,부산광역시 사하구 괴정동 118,생활방범,1,200,360도전방면,30,2016-11,051-220-4341,35.10680271,129.0064941,2020-03-17
"부산광역시 사하구청",부산광역시 사하구 오작로76번길 19,부산광역시 사하구 괴정동 378-272,생활방범,1,200,360도전방면,30,2016-11,051-220-4341,35.09866717,129.0016448,2020-03-17
"부산광역시 사하구청",부산광역시 사하구 낙동대로194번길 3,부산광역시 사하구 괴정동 261,생활방범,1,200,360도전방면,30,2016-11,051-220-4341,35.10133534,128.9950855,2020-03-17
"부산광역시 사하구청",부산광역시 사하구 낙동대로199번길 39,부산광역시 사하구 괴정동 1238-2,생활방범,1,200,360도전방면,30,2016-11,051-220-4341,35.09930259,128.9967389,2020-03-17
"부산광역시 사하구청",부산광역시 사하구 낙동대로179번길 10-1,부산광역시 사하구 괴정동 268-7,생활방범,1,200,360도전방면,30,2016-11,051-220-4341,35.10109495,128.9969143,2020-03-17
"부산광역시 사하구청",부산광역시 사하구 사리로27번길 15,부산광역시 사하구 괴정동 1238-57,생활방범,1,200,360도전방면,30,2016-11,051-220-4341,35.10183967,128.998426,2020-03-17
"부산광역시 사하구청",부산광역시 사하구 괴정로164번길 16,부산광역시 사하구 괴정동 658-4,생활방범,1,200,360도전방면,30,2016-11,051-220-4341,35.09770623,128.9791709,2020-03-17
"부산광역시 사하구청",부산광역시 사하구 장평로 420,부산광역시 사하구 괴정동 557-2,생활방범,1,200,360도전방면,30,2016-11,051-220-4341,35.0964075,128.9848146,2020-03-17
"부산광역시 사하구청",부산광역시 사하구 마하로12번길 43,부산광역시 사하구 괴정동 1079-26,생활방범,1,200,360도전방면,30,2016-11,051-220-4341,35.10160061,128.9835829,2020-03-17
"부산광역시 사하구청",부산광역시 사하구 괴정로 203,부산광역시 사하구 괴정동 568-10,생활방범,1,200,360도전방면,30,2016-11,051-220-4341,35.09778455,128.9839648,2020-03-17
"부산광역시 사하구청",부산광역시 사하구 장평로443번길 112,부산광역시 사하구 괴정동 654-11,생활방범,1,200,360도전방면,30,2016-11,051-220-4341,35.09923396,128.9797485,2020-03-17
"부산광역시 사하구청",부산광역시 사하구 을숙도대로 747-1,부산광역시 사하구 구평동 101-9,생활방범,1,200,360도전방면,30,2016-11,051-220-4341,35.08622283,128.9868743,2020-03-17
"부산광역시 사하구청",부산광역시 사하구 승학로20번길 21,부산광역시 사하구 당리동 307-10,생활방범,1,200,360도전방면,30,2016-11,051-220-4341,35.10625617,128.9718911,2020-03-17
"부산광역시 사하구청",부산광역시 사하구 괴정로 101,부산광역시 사하구 당리동 324-2,생활방범,1,200,360도전방면,30,2016-11,051-220-4341,35.10237876,128.9754207,2020-03-17
"부산광역시 사하구청",부산광역시 사하구 낙동대로372번길 10,부산광역시 사하구 당리동 342-3,생활방범,1,200,360도전방면,30,2016-11,051-220-4341,35.10273723,128.9779149,2020-03-17
"부산광역시 사하구청",부산광역시 사하구 승학로71번안길 31,부산광역시 사하구 당리동 101-27,생활방범,1,200,360도전방면,30,2016-11,051-220-4341,35.10616741,128.9762009,2020-03-17
"부산광역시 사하구청",부산광역시 사하구 제석로 17,부산광역시 사하구 하단동 619-23,생활방범,1,200,360도전방면,30,2016-11,051-220-4341,35.10382955,128.9709957,2020-03-17
"부산광역시 사하구청",부산광역시 사하구 승학로71번길 70,부산광역시 사하구 당리동 60-4,생활방범,1,200,360도전방면,30,2016-11,051-220-4341,35.10715265,128.9780993,2020-03-17
"부산광역시 사하구청",부산광역시 사하구 다대로135번길 64,부산광역시 사하구 신평동 산 49,생활방범,1,200,360도전방면,30,2016-11,051-220-4341,35.09233933,128.9807188,2020-03-17
"부산광역시 사하구청",부산광역시 사하구 신산북로57번길 25,부산광역시 사하구 신평동 308-5,생활방범,1,200,360도전방면,30,2016-11,051-220-4341,35.09221148,128.9708578,2020-03-17
"부산광역시 사하구청",부산광역시 사하구 다대로144번길 133,부산광역시 사하구 신평동 161-202,생활방범,1,200,360도전방면,30,2016-11,051-220-4341,35.09213602,128.9746405,2020-03-17
"부산광역시 사하구청",부산광역시 사하구 하신번영로 179,부산광역시 사하구 신평동 591-6,생활방범,1,200,360도전방면,30,2016-11,051-220-4341,35.09849901,128.9600961,2020-03-17
"부산광역시 사하구청",부산광역시 사하구 하신중앙로18번길 5,부산광역시 사하구 장림동 815-1,생활방범,1,200,360도전방면,30,2016-11,051-220-4341,35.0803403,128.9651683,2020-03-17
"부산광역시 사하구청",부산광역시 사하구 하신중앙로17번길 31-7,부산광역시 사하구 장림동 989,생활방범,1,200,360도전방면,30,2016-11,051-220-4341,35.08036778,128.9617145,2020-03-17
"부산광역시 사하구청",,부산광역시 사하구 장림동 608-52,생활방범,1,200,360도전방면,30,2016-11,051-220-4341,35.07841745,128.9722841,2020-03-17
"부산광역시 사하구청",부산광역시 사하구 장평로71번길 50,부산광역시 사하구 장림동 559-5,생활방범,1,200,360도전방면,30,2016-11,051-220-4341,35.07102652,128.9710779,2020-03-17
"부산광역시 사하구청",부산광역시 사하구 장평로125번길 133,부산광역시 사하구 장림동 625-23,생활방범,1,200,360도전방면,30,2016-11,051-220-4341,35.0785803,128.9699614,2020-03-17
"부산광역시 사하구청",부산광역시 사하구 두송로 17,부산광역시 사하구 장림동 244-7,생활방범,1,200,360도전방면,30,2016-11,051-220-4341,35.07954793,128.9785368,2020-03-17
"부산광역시 사하구청",부산광역시 사하구 동매로66번길 6,부산광역시 사하구 하단동 609-42,생활방범,1,200,360도전방면,30,2016-11,051-220-4341,35.10250497,128.9652983,2020-03-17
"부산광역시 사하구청",부산광역시 사하구 괴정로 28,부산광역시 사하구 하단동 403-1,생활방범,1,200,360도전방면,30,2016-11,051-220-4341,35.10297523,128.967366,2020-03-17
"부산광역시 사하구청",부산광역시 사하구 낙동대로457번길 52,부산광역시 사하구 하단동 616-9,생활방범,1,200,360도전방면,30,2016-11,051-220-4341,35.10452797,128.9659474,2020-03-17
"부산광역시 사하구청",부산광역시 사하구 동매로92번길 21,부산광역시 사하구 하단동 320-2,생활방범,1,200,360도전방면,30,2016-11,051-220-4341,35.10130943,128.9682676,2020-03-17
"부산광역시 사하구청",부산광역시 사하구 낙동남로1423번길 98,부산광역시 사하구 하단동 498-21,생활방범,1,200,360도전방면,30,2016-11,051-220-4341,35.11042201,128.964964,2020-03-17
"부산광역시 사하구청",부산광역시 사하구 낙동남로1347번길 25,부산광역시 사하구 하단동 888-2,생활방범,1,200,360도전방면,30,2016-11,051-220-4341,35.10767385,128.9591508,2020-03-17
"부산광역시 사하구청",부산광역시 사하구 낙동남로 1356-3,부산광역시 사하구 하단동 870-98,생활방범,1,200,360도전방면,30,2016-11,051-220-4341,35.1056818,128.9602791,2020-03-17
"부산광역시 사하구청",부산광역시 사하구 하신번영로300번길 100-8,부산광역시 사하구 하단동 515-18,생활방범,1,200,360도전방면,30,2016-11,051-220-4341,35.10740616,128.9644786,2020-03-17
"부산광역시 사하구청",부산광역시 사하구 하신번영로380번길 22,부산광역시 사하구 하단동 480,생활방범,1,200,360도전방면,30,2016-11,051-220-4341,35.11364455,128.960998,2020-03-17
"부산광역시 사하구청",부산광역시 사하구 낙동대로474번길 9,부산광역시 사하구 하단동 530-29,생활방범,1,200,360도전방면,30,2016-11,051-220-4341,35.10736325,128.9687232,2020-03-17
"부산광역시 사하구청",부산광역시 사하구 승학로 256,부산광역시 사하구 괴정동 1026-81,생활방범,3,200,360도전방면,30,2016-11,051-220-4341,35.10225006,128.9923655,2020-03-17
"부산광역시 사하구청",,부산광역시 사하구 구평동 63-14,생활방범,1,200,360도전방면,30,2016-11,051-220-4341,35.08575334,128.9902792,2020-03-17
"부산광역시 사하구청",부산광역시 사하구 다대로130번안길 36-14,부산광역시 사하구 신평동 13-27,생활방범,1,200,360도전방면,30,2016-11,051-220-4341,35.09396128,128.977448,2020-03-17
"부산광역시 사하구청",부산광역시 사하구 다대로130번안길 36-14,부산광역시 사하구 신평동 13-27,생활방범,1,200,360도전방면,30,2016-11,051-220-4341,35.09396128,128.977448,2020-03-17
"부산광역시 사하구청",부산광역시 사하구 옥천로24번길 33,부산광역시 사하구 감천동 20-108,생활방범,1,200,360도전방면,30,2016-11,051-220-4341,35.08981839,129.0067127,2020-03-17
"부산광역시 사하구청",부산광역시 사하구 감천로139번길 84,부산광역시 사하구 감천동 20-63,생활방범,1,200,360도전방면,30,2016-11,051-220-4341,35.09010489,129.0069466,2020-03-17
"부산광역시 사하구청",부산광역시 사하구 감내1로10번길 11,부산광역시 사하구 감천동 26-8,생활방범,1,200,360도전방면,30,2016-11,051-220-4341,35.0903503,129.0088688,2020-03-17
"부산광역시 사하구청",부산광역시 사하구 옥천로54번길 39,부산광역시 사하구 감천동 26-9,생활방범,1,200,360도전방면,30,2016-11,051-220-4341,35.09025244,129.0087141,2020-03-17
"부산광역시 사하구청",부산광역시 사하구 옥천로70번길 92,부산광역시 사하구 감천동 13-1277,생활방범,1,200,360도전방면,30,2016-11,051-220-4341,35.09244955,129.0111539,2020-03-17
"부산광역시 사하구청",부산광역시 사하구 옥천로 31-8,부산광역시 사하구 감천동 551-9,생활방범,1,200,360도전방면,30,2016-11,051-220-4341,35.09072626,129.0059343,2020-03-17
"부산광역시 사하구청",부산광역시 사하구 옥천로70번길 23,부산광역시 사하구 감천동 13-1499,생활방범,1,200,360도전방면,30,2016-11,051-220-4341,35.09264335,129.0095332,2020-03-17
"부산광역시 사하구청",부산광역시 사하구 감내1로 144,부산광역시 사하구 감천동 12-303,생활방범,1,200,360도전방면,30,2016-11,051-220-4341,35.09429224,129.0085336,2020-03-17
"부산광역시 사하구청",부산광역시 사하구 감내2로 8,부산광역시 사하구 감천동 12-278,생활방범,1,200,360도전방면,30,2016-11,051-220-4341,35.09381939,129.0079465,2020-03-17
"부산광역시 사하구청",부산광역시 사하구 감내1로163번길 1,부산광역시 사하구 감천동 12-15,생활방범,1,200,360도전방면,30,2016-11,051-220-4341,35.09488757,129.0084861,2020-03-17
"부산광역시 사하구청",부산광역시 사하구 감내1로163번길 71,부산광역시 사하구 감천동 11-90,생활방범,1,200,360도전방면,30,2016-11,051-220-4341,35.09585437,129.007127,2020-03-17
"부산광역시 사하구청",부산광역시 사하구 감내1로175번길 102,부산광역시 사하구 감천동 6-1923,생활방범,1,200,360도전방면,30,2016-11,051-220-4341,35.09742163,129.0083528,2020-03-17
"부산광역시 사하구청",부산광역시 사하구 감내2로 187-2,부산광역시 사하구 감천동 2-7,생활방범,1,200,360도전방면,30,2016-11,051-220-4341,35.09833215,129.0105028,2020-03-17
"부산광역시 사하구청",부산광역시 사하구 감내2로 165,부산광역시 사하구 감천동 2-5,생활방범,1,200,360도전방면,30,2016-11,051-220-4341,35.09899698,129.0096884,2020-03-17
"부산광역시 사하구청",부산광역시 사하구 감내2로 150,부산광역시 사하구 감천동 2-190,생활방범,1,200,360도전방면,30,2016-11,051-220-4341,35.09842452,129.0091549,2020-03-17
"부산광역시 사하구청",,부산광역시 사하구 하단동 1151-8,생활방범,2,200,360도전방면,30,2016-11,051-220-4341,35.10833993,128.9455237,2020-03-17
"부산광역시 사하구청",,부산광역시 사하구 하단동 1149-13,생활방범,2,200,360도전방면,30,2016-11,051-220-4341,35.10788601,128.9459353,2020-03-17
"부산광역시 사하구청",부산광역시 사하구 장평로 320,부산광역시 사하구 신평동 10-91,생활방범,1,200,360도전방면,30,2016-06,051-220-4341,35.09384571,128.9750119,2020-03-17
"부산광역시 사하구청",부산광역시 사하구 장평로326번길 13,부산광역시 사하구 신평동 11-125,생활방범,1,200,360도전방면,30,2016-06,051-220-4341,35.09366748,128.9758762,2020-03-17
"부산광역시 사하구청",부산광역시 사하구 장평로326번길 5,부산광역시 사하구 신평동 11-89,생활방범,1,200,360도전방면,30,2016-06,051-220-4341,35.09405664,128.9756834,2020-03-17
"부산광역시 사하구청",부산광역시 사하구 원양로 384,부산광역시 사하구 감천동 90-12,생활방범,3,200,360도전방면,30,2016-09,051-220-4341,35.08479333,129.0061355,2020-03-17
"부산광역시 사하구청",,부산광역시 사하구 감천동 387-38,생활방범,3,200,360도전방면,30,2016-09,051-220-4341,35.08194708,129.0058702,2020-03-17
"부산광역시 사하구청",부산광역시 사하구 원양로 322,부산광역시 사하구 감천동 344-15,생활방범,3,200,360도전방면,30,2016-09,051-220-4341,35.07989317,129.0057134,2020-03-17
"부산광역시 사하구청",,부산광역시 사하구 다대동 1621,생활방범,1,200,360도전방면,30,2017-08,051-220-4341,35.06121798,128.961051,2020-03-17
"부산광역시 사하구청",부산광역시 사하구 홍티로74번길 6,부산광역시 사하구 다대동 1401,생활방범,1,200,360도전방면,30,2017-08,051-220-4341,35.06136329,128.9620504,2020-03-17
"부산광역시 사하구청",부산광역시 사하구 홍티로74번길 42,부산광역시 사하구 다대동 1021,생활방범,1,200,360도전방면,30,2017-08,051-220-4341,35.0613325,128.9625214,2020-03-17
"부산광역시 사하구청",부산광역시 사하구 홍티로74번길 14,부산광역시 사하구 다대동 1395,생활방범,1,200,360도전방면,30,2017-08,051-220-4341,35.06169417,128.9623832,2020-03-17
"부산광역시 사하구청",부산광역시 사하구 하신중앙로3번다길 7,부산광역시 사하구 장림동 975-65,생활방범,1,200,360도전방면,30,2017-12,051-220-4341,35.07735285,128.9611089,2020-03-17
"부산광역시 사하구청",부산광역시 사하구 다산로 217,부산광역시 사하구 다대동 1501-2,생활방범,1,200,360도전방면,30,2017-12,051-220-4341,35.07192591,128.954324,2020-03-17
"부산광역시 사하구청",부산광역시 사하구 장림번영로28번길 66,부산광역시 사하구 장림동 859,생활방범,1,200,360도전방면,30,2017-12,051-220-4341,35.07792571,128.9672781,2020-03-17
"부산광역시 사하구청",부산광역시 사하구 하신중앙로54번길 30,부산광역시 사하구 장림동 1033-14,생활방범,1,200,360도전방면,30,2017-12,051-220-4341,35.08431733,128.9683296,2020-03-17
"부산광역시 사하구청",부산광역시 사하구 하신중앙로27번길 17,부산광역시 사하구 장림동 1146,생활방범,1,200,360도전방면,30,2017-12,051-220-4341,35.08107399,128.9624575,2020-03-17
"부산광역시 사하구청",부산광역시 사하구 장림시장9길 108,부산광역시 사하구 장림동 640-110,생활방범,1,200,360도전방면,30,2017-12,051-220-4341,35.07974525,128.9674421,2020-03-17
"부산광역시 사하구청",부산광역시 사하구 장림시장4길 68,부산광역시 사하구 장림동 641-220,생활방범,1,200,360도전방면,30,2017-12,051-220-4341,35.08072254,128.9669712,2020-03-17
"부산광역시 사하구청",부산광역시 사하구 장림번영로37번길 9,부산광역시 사하구 장림동 325-36,생활방범,1,200,360도전방면,30,2017-12,051-220-4341,35.08120074,128.9691891398,2020-03-17
"부산광역시 사하구청",부산광역시 사하구 장림번영로103번길 36,부산광역시 사하구 장림동 163-27,생활방범,1,200,360도전방면,30,2017-12,051-220-4341,35.08217099,128.9751907,2020-03-17
"부산광역시 사하구청",부산광역시 사하구 장림로181번길 40,부산광역시 사하구 장림동 727-33,생활방범,1,200,360도전방면,30,2017-12,051-220-4341,35.08346976,128.9706115,2020-03-17
"부산광역시 사하구청",부산광역시 사하구 장평로146번길 15,부산광역시 사하구 장림동 338-10,생활방범,1,200,360도전방면,30,2017-12,051-220-4341,35.0786985,128.974327,2020-03-17
"부산광역시 사하구청",부산광역시 사하구 장평로145번길 9,부산광역시 사하구 장림동 348-35,생활방범,1,200,360도전방면,30,2017-12,051-220-4341,35.07923898,128.9721294,2020-03-17
"부산광역시 사하구청",부산광역시 사하구 장평로 125,부산광역시 사하구 장림동 604-203,생활방범,1,200,360도전방면,30,2017-12,051-220-4341,35.07733225,128.9727208,2020-03-17
"부산광역시 사하구청",부산광역시 사하구 장평로133번길 31,부산광역시 사하구 장림동 605-45,생활방범,1,200,360도전방면,30,2017-12,051-220-4341,35.0776588,128.971343,2020-03-17
"부산광역시 사하구청",부산광역시 사하구 장림시장8길 217,부산광역시 사하구 장림동 615-251,생활방범,1,200,360도전방면,30,2017-12,051-220-4341,35.07915188,128.9706261,2020-03-17
"부산광역시 사하구청",부산광역시 사하구 두송로26번길 46,부산광역시 사하구 장림동 44-11,생활방범,1,200,360도전방면,30,2017-12,051-220-4341,35.07710265,128.979955,2020-03-17
"부산광역시 사하구청",부산광역시 사하구 두송로26번길 62,부산광역시 사하구 장림동 24,생활방범,1,200,360도전방면,30,2017-12,051-220-4341,35.07657838,128.9801351,2020-03-17
"부산광역시 사하구청",부산광역시 사하구 다대로277번길 25,부산광역시 사하구 장림동 44,생활방범,1,200,360도전방면,30,2017-12,051-220-4341,35.07702978,128.9789344,2020-03-17
"부산광역시 사하구청",부산광역시 사하구 다대로271번길 26,부산광역시 사하구 장림동 269,생활방범,1,200,360도전방면,30,2017-12,051-220-4341,35.07764454,128.9787115,2020-03-17
"부산광역시 사하구청",,부산광역시 사하구 장림동 372-3,생활방범,1,200,360도전방면,30,2017-12,051-220-4341,35.07564751,128.9770867,2020-03-17
"부산광역시 사하구청",부산광역시 사하구 두송로 68,부산광역시 사하구 장림동 60-39,생활방범,1,200,360도전방면,30,2017-12,051-220-4341,35.07739045,128.9822611,2020-03-17
"부산광역시 사하구청",부산광역시 사하구 다대동로8번길 91,부산광역시 사하구 다대동 355-47,생활방범,1,200,360도전방면,30,2017-12,051-220-4341,35.05721181,128.9739507,2020-03-17
"부산광역시 사하구청",부산광역시 사하구 다대로530번길 15,부산광역시 사하구 다대동 934-20,생활방범,1,200,360도전방면,30,2017-12,051-220-4341,35.05938861,128.9711591,2020-03-17
"부산광역시 사하구청",부산광역시 사하구 윤공단로75번길 28,부산광역시 사하구 다대동 1030,생활방범,1,200,360도전방면,30,2017-12,051-220-4341,35.05878155,128.9670409,2020-03-17
"부산광역시 사하구청",부산광역시 사하구 윤공단로 132,부산광역시 사하구 다대동 927-5,생활방범,1,200,360도전방면,30,2017-12,051-220-4341,35.06133121,128.9728376,2020-03-17
"부산광역시 사하구청",부산광역시 사하구 다대동로 23,부산광역시 사하구 다대동 798,생활방범,1,200,360도전방면,30,2017-12,051-220-4341,35.05576271,128.9714341,2020-03-17
"부산광역시 사하구청",부산광역시 사하구 다대동로 49,부산광역시 사하구 다대동 854-7,생활방범,1,200,360도전방면,30,2017-12,051-220-4341,35.05750825,128.9729566,2020-03-17
"부산광역시 사하구청",부산광역시 사하구 윤공단로 23,부산광역시 사하구 다대동 958,생활방범,1,200,360도전방면,30,2017-12,051-220-4341,35.05463691,128.9679348,2020-03-17
"부산광역시 사하구청",부산광역시 사하구 윤공단로17번길 3-3,부산광역시 사하구 다대동 656-1,생활방범,1,200,360도전방면,30,2017-12,051-220-4341,35.05434139,128.9688192,2020-03-17
"부산광역시 사하구청",부산광역시 사하구 다대로 584,부산광역시 사하구 다대동 647-6,생활방범,1,200,360도전방면,30,2017-12,051-220-4341,35.05428421,128.9703313,2020-03-17
"부산광역시 사하구청",부산광역시 사하구 다대로568번길 2-2,부산광역시 사하구 다대동 766-3,생활방범,1,200,360도전방면,30,2017-12,051-220-4341,35.05617045,128.9700467,2020-03-17
"부산광역시 사하구청",부산광역시 사하구 윤공단로 103,부산광역시 사하구 다대동 930,생활방범,1,200,360도전방면,30,2017-12,051-220-4341,35.06035734,128.9706335,2020-03-17
"부산광역시 사하구청",부산광역시 사하구 다대로554번길 23,부산광역시 사하구 다대동 944-1,생활방범,1,200,360도전방면,30,2017-12,051-220-4341,35.05733738,128.9695343,2020-03-17
"부산광역시 사하구청",부산광역시 사하구 몰운대2길 2,부산광역시 사하구 다대동 468-39,생활방범,1,200,360도전방면,30,2017-12,051-220-4341,35.04608387,128.9688859,2020-03-17
"부산광역시 사하구청",,부산광역시 사하구 다대동 465-4,생활방범,1,200,360도전방면,30,2017-12,051-220-4341,35.04813994,128.9699077,2020-03-17
"부산광역시 사하구청",,부산광역시 사하구 다대동 120-8,생활방범,1,200,360도전방면,30,2017-12,051-220-4341,35.05933355,128.9791174,2020-03-17
"부산광역시 사하구청",부산광역시 사하구 다대로381번길 60,부산광역시 사하구 다대동 93-7,생활방범,1,200,360도전방면,30,2017-12,051-220-4341,35.06661964,128.9832392,2020-03-17
"부산광역시 사하구청",부산광역시 사하구 을숙도대로755번길 28,부산광역시 사하구 구평동 20-3,생활방범,1,200,360도전방면,30,2017-12,051-220-4341,35.08761406,128.9876039,2020-03-17
"부산광역시 사하구청",부산광역시 사하구 감천로42번길 21-14,부산광역시 사하구 감천동 789-3,생활방범,1,200,360도전방면,30,2017-12,051-220-4341,35.08913167,128.9960118,2020-03-17
"부산광역시 사하구청",부산광역시 사하구 감천로 40,부산광역시 사하구 감천동 662-5,생활방범,1,200,360도전방면,30,2017-12,051-220-4341,35.09085399,128.9970307,2020-03-17
"부산광역시 사하구청",부산광역시 사하구 다대낙조2길 13,부산광역시 사하구 다대동 1548-11,생활방범,1,200,360도전방면,30,2017-12,051-220-4341,35.05057499,128.962976,2020-03-17
"부산광역시 사하구청",부산광역시 사하구 서포로30번길 3,부산광역시 사하구 구평동 506-3,생활방범,1,200,360도전방면,30,2017-12,051-220-4341,35.0827207,128.9863386,2020-03-17
"부산광역시 사하구청",부산광역시 사하구 윤공단로 74,부산광역시 사하구 다대동 938-12,생활방범,1,200,360도전방면,30,2017-12,051-220-4341,35.05849084,128.9684517,2020-03-17
"부산광역시 사하구청",부산광역시 사하구 낙동대로233번길 21-15,부산광역시 사하구 괴정동 945-5,생활방범,1,200,360도전방면,30,2017-12,051-220-4341,35.0987389,128.9929371,2020-03-17
"부산광역시 사하구청",부산광역시 사하구 승학로233번길 80,부산광역시 사하구 괴정동 1063-136,생활방범,1,200,360도전방면,30,2017-12,051-220-4341,35.10548833,128.9898929,2020-03-17
"부산광역시 사하구청",부산광역시 사하구 대티로 44,부산광역시 사하구 괴정동 201-6,생활방범,1,200,360도전방면,30,2017-12,051-220-4341,35.10564084,129.0042092,2020-03-17
"부산광역시 사하구청",부산광역시 사하구 오작로122번길 5,부산광역시 사하구 괴정동 352-74,생활방범,1,200,360도전방면,30,2017-12,051-220-4341,35.10252011,129.0044341,2020-03-17
"부산광역시 사하구청",부산광역시 사하구 오작로 86-1,부산광역시 사하구 괴정동 378-7,생활방범,1,200,360도전방면,30,2017-12,051-220-4341,35.09988751,129.0023178,2020-03-17
"부산광역시 사하구청",부산광역시 사하구 오작로8번길 15-2,부산광역시 사하구 괴정동 448-31,생활방범,1,200,360도전방면,30,2017-12,051-220-4341,35.09700406,128.995636,2020-03-17
"부산광역시 사하구청",부산광역시 사하구 낙동대로164번길 9,부산광역시 사하구 괴정동 251-9,생활방범,1,200,360도전방면,30,2017-12,051-220-4341,35.10279112,128.9978234,2020-03-17
"부산광역시 사하구청",부산광역시 사하구 오작로8번길 2,부산광역시 사하구 괴정동 466-1,생활방범,1,200,360도전방면,30,2017-12,051-220-4341,35.09721704,128.9949477,2020-03-17
"부산광역시 사하구청",부산광역시 사하구 마하로 70-1,부산광역시 사하구 괴정동 1073-5,생활방범,1,200,360도전방면,30,2017-12,051-220-4341,35.10511764,128.9845027,2020-03-17
"부산광역시 사하구청",부산광역시 사하구 승학로 221,부산광역시 사하구 괴정동 795-14,생활방범,1,200,360도전방면,30,2017-12,051-220-4341,35.10115756,128.9892811,2020-03-17
"부산광역시 사하구청",부산광역시 사하구 승학로 179-1,부산광역시 사하구 괴정동 764-167,생활방범,1,200,360도전방면,30,2017-12,051-220-4341,35.10092044,128.985198,2020-03-17
"부산광역시 사하구청",부산광역시 사하구 제석로65번길 3,부산광역시 사하구 당리동 212,생활방범,1,200,360도전방면,30,2017-12,051-220-4341,35.10649577,128.9746033,2020-03-17
"부산광역시 사하구청",부산광역시 사하구 동매로 161,부산광역시 사하구 당리동 331-21,생활방범,1,200,360도전방면,30,2017-12,051-220-4341,35.10143043,128.9756507,2020-03-17
"부산광역시 사하구청",부산광역시 사하구 제석로 33,부산광역시 사하구 당리동 313-9,생활방범,1,200,360도전방면,30,2017-12,051-220-4341,35.10485489,128.9724009,2020-03-17
"부산광역시 사하구청",부산광역시 사하구 제석로 6,부산광역시 사하구 하단동 62-4,생활방범,1,200,360도전방면,30,2017-12,051-220-4341,35.1028158,128.9703914,2020-03-17
"부산광역시 사하구청",부산광역시 사하구 동매로66번길 34,부산광역시 사하구 하단동 381-31,생활방범,1,200,360도전방면,30,2017-12,051-220-4341,35.10193023,128.966158,2020-03-17
"부산광역시 사하구청",부산광역시 사하구 낙동남로1423번길 87-5,부산광역시 사하구 하단동 781,생활방범,1,200,360도전방면,30,2017-12,051-220-4341,35.10979415,128.9645726,2020-03-17
"부산광역시 사하구청",부산광역시 사하구 승학로17번길 74,부산광역시 사하구 하단동 508-11,생활방범,1,200,360도전방면,30,2017-12,051-220-4341,35.10940551,128.9680892,2020-03-17
"부산광역시 사하구청",부산광역시 사하구 낙동대로519번길 80,부산광역시 사하구 하단동 501,생활방범,1,200,360도전방면,30,2017-12,051-220-4341,35.11078605,128.9611289,2020-03-17
"부산광역시 사하구청",,부산광역시 사하구 괴정동207-62,생활방범,1,200,360도전방면,30,2017-12,051-220-4341,35.10555549,129.001455,2020-03-17
"부산광역시 사하구청",부산광역시 사하구 장림시장4길 133,부산광역시 사하구 장림동 349-2,생활방범,1,200,360도전방면,30,2017-11,051-220-4341,35.08029066,128.9691263,2020-03-17
"부산광역시 사하구청",부산광역시 사하구 옥천로75번길 14,부산광역시 사하구 감천동 12-121,생활방범,1,200,360도전방면,30,2013-12,051-220-4341,35.09402556,129.0091664,2020-03-17
"부산광역시 사하구청",부산광역시 사하구 다대로530번길 21,부산광역시 사하구 다대동 934-1,생활방범,1,200,360도전방면,30,2013-12,051-220-4341,35.05949791,128.9710179,2020-03-17
"부산광역시 사하구청",부산광역시 사하구 윤공단로 37-6,부산광역시 사하구 다대동 950-9,생활방범,1,200,360도전방면,30,2013-12,051-220-4341,35.05606609,128.9673158,2020-03-17
"부산광역시 사하구청",부산광역시 사하구 윤공단로 58,부산광역시 사하구 다대동 946-10,생활방범,1,200,360도전방면,30,2013-12,051-220-4341,35.05739788,128.9676056,2020-03-17
"부산광역시 사하구청",부산광역시 사하구 하신번영로 243,부산광역시 사하구 하단동 1172,생활방범,2,200,360도전방면,30,2013-04,051-220-4341,35.10326682,128.9567627,2020-03-17
"부산광역시 사하구청",부산광역시 사하구 낙동대로 282,부산광역시 사하구 괴정동 755-1,생활방범,1,200,360도전방면,30,2018-05,051-220-4341,35.09939782,128.9862107,2020-03-17
"부산광역시 사하구청",부산광역시 사하구 다대로 740,부산광역시 사하구 다대동 1548-5,생활방범,1,200,다대포해안,30,2018-05,051-220-4341,35.05027727,128.9607363,2020-03-17
"부산광역시 사하구청",부산광역시 사하구 낙동대로 449,부산광역시 사하구 하단동 619-1,생활방범,1,200,360도전방면,30,2018-12,051-220-4341,35.10500579,128.9693205,2020-03-17
"부산광역시 사하구청",부산광역시 사하구 괴정로 119,부산광역시 사하구 당리동 337-3,생활방범,1,200,360도전방면,30,2018-12,051-220-4341,35.10133066,128.9768451,2020-03-17
"부산광역시 사하구청",부산광역시 사하구 감천로21번길 41,부산광역시 사하구 감천동 589,생활방범,1,200,360도전방면,30,2018-12,051-220-4341,35.09298336,128.9967825,2020-03-17
"부산광역시 사하구청",부산광역시 사하구 서포로 61,부산광역시 사하구 구평동 173-2,생활방범,1,200,360도전방면,30,2018-12,051-220-4341,35.08181218,128.9894239008,2020-03-17
"부산광역시 사하구청",부산광역시 사하구 사하로 98,부산광역시 사하구 감천동 808-29,생활방범,1,200,360도전방면,30,2018-12,051-220-4341,35.09068789,128.9942102,2020-03-17
"부산광역시 사하구청",부산광역시 사하구 다대로586번길 14,부산광역시 사하구 다대동 583-2,생활방범,1,200,360도전방면,30,2018-12,051-220-4341,35.05398215,128.9697796,2020-03-17
"부산광역시 사하구청",부산광역시 사하구 장림시장11길 48,부산광역시 사하구 장림동 640-192,생활방범,1,200,360도전방면,30,2018-12,051-220-4341,35.07937457,128.9675803,2020-03-17
"부산광역시 사하구청",부산광역시 사하구 장림시장7길 115,부산광역시 사하구 장림동 638-11,생활방범,1,200,360도전방면,30,2018-12,051-220-4341,35.08007445,128.9679833,2020-03-17
"부산광역시 사하구청",부산광역시 사하구 오작로3번길 32,부산광역시 사하구 괴정동 441-40,생활방범,1,200,360도전방면,30,2018-12,051-220-4341,35.09858317,128.9954359,2020-03-17
"부산광역시 사하구청",부산광역시 사하구 사하로186번나길 4,부산광역시 사하구 괴정동 1014-1,생활방범,1,200,360도전방면,30,2018-12,051-220-4341,35.09921635,128.9951694,2020-03-17
"부산광역시 사하구청",부산광역시 사하구 사하로186번가길 22,부산광역시 사하구 괴정동 1014-11,생활방범,1,200,360도전방면,30,2018-12,051-220-4341,35.09892883,128.9950562,2020-03-17
"부산광역시 사하구청",부산광역시 사하구 장림시장7길 94,부산광역시 사하구 장림동 640-49,생활방범,1,200,360도전방면,30,2018-12,051-220-4341,35.0801155,128.9673588,2020-03-17
"부산광역시 사하구청",부산광역시 사하구 장림시장1길 30,부산광역시 사하구 장림동 641-25,생활방범,1,200,360도전방면,30,2018-12,051-220-4341,35.08127419,128.9667475,2020-03-17
"부산광역시 사하구청",부산광역시 사하구 장림시장1길 24,부산광역시 사하구 장림동 641-28,생활방범,1,200,360도전방면,30,2018-12,051-220-4341,35.08131147,128.9665944,2020-03-17
"부산광역시 사하구청",부산광역시 사하구 장림시장3길 8,부산광역시 사하구 장림동 808-9,생활방범,1,200,360도전방면,30,2018-12,051-220-4341,35.08117268,128.9659129,2020-03-17
"부산광역시 사하구청",부산광역시 사하구 비봉로54번길 49,부산광역시 사하구 신평동 산 107-5,생활방범,2,200,360도전방면,30,2018-12,051-220-4341,35.09931376,128.9664562,2020-03-17
"부산광역시 사하구청",부산광역시 사하구 비봉로54번길 5,부산광역시 사하구 신평동 430-11,생활방범,3,200,360도전방면,30,2018-12,051-220-4341,35.09903715,128.9661019,2020-03-17
"부산광역시 사하구청",부산광역시 사하구 비봉로54번길 12,부산광역시 사하구 신평동 430-3,생활방범,2,200,360도전방면,30,2018-12,051-220-4341,35.09832431,128.9661922,2020-03-17
"부산광역시 사하구청",부산광역시 사하구 비봉로 46,부산광역시 사하구 신평동 428,생활방범,2,200,360도전방면,30,2018-12,051-220-4341,35.09803178,128.9655745,2020-03-17
"부산광역시 사하구청",부산광역시 사하구 대티로 80,부산광역시 사하구 괴정동 88-1,생활방범,4,200,360도전방면,30,2018-12,051-220-4341,35.10676353,129.0079525,2020-03-17
"부산광역시 사하구청",부산광역시 사하구 다대로 165,부산광역시 사하구 신평동 566-2,생활방범,4,200,360도전방면,30,2019-11,051-220-4341,35.08767445,128.9779431,2020-03-17
"부산광역시 사하구청",부산광역시 사하구 신산로 177,부산광역시 사하구 신평동 79-18,생활방범,5,200,360도전방면,30,2019-11,051-220-4341,35.0902405,128.9749579,2020-03-17
"부산광역시 사하구청",부산광역시 사하구 다대로137번길 78,부산광역시 사하구 신평동 41-33,생활방범,4,200,360도전방면,30,2019-11,051-220-4341,35.09048283,128.979556,2020-03-17
"부산광역시 사하구청",부산광역시 사하구 다대로135번길 39,부산광역시 사하구 신평동 31-14,생활방범,4,200,360도전방면,30,2019-11,051-220-4341,35.09168238,128.9794716,2020-03-17
"부산광역시 사하구청",부산광역시 사하구 장평로301번길 15,부산광역시 사하구 신평동 166-4,생활방범,3,200,360도전방면,30,2019-11,051-220-4341,35.09373866,128.9726307,2020-03-17
"부산광역시 사하구청",부산광역시 사하구 신산북로49번길 5,부산광역시 사하구 신평동 334,생활방범,4,200,360도전방면,30,2019-11,051-220-4341,35.09140679,128.9700367,2020-03-17
"부산광역시 사하구청",부산광역시 사하구 신산북로67번길 12,부산광역시 사하구 신평동 272-3,생활방범,4,200,360도전방면,30,2019-11,051-220-4341,35.09147138,128.9720992,2020-03-17
"부산광역시 사하구청",부산광역시 사하구 다대로126번길 77,부산광역시 사하구 신평동 111-148,생활방범,5,200,360도전방면,30,2019-11,051-220-4341,35.09253684,128.9763562,2020-03-17
"부산광역시 사하구청",부산광역시 사하구 다대로135번길 34-2,부산광역시 사하구 신평동 39,생활방범,3,200,360도전방면,30,2019-11,051-220-4341,35.09121183,128.9796963,2020-03-17
"부산광역시 사하구청",부산광역시 사하구 다대로142번길 118,부산광역시 사하구 신평동 111-478,생활방범,3,200,360도전방면,30,2019-11,051-220-4341,35.09207682,128.9752759,2020-03-17
"부산광역시 사하구청",,부산광역시 사하구 신평동 452-5,생활방범,4,200,360도전방면,30,2019-11,051-220-4341,35.09577218,128.9618079,2020-03-17
"부산광역시 사하구청",,부산광역시 사하구 신평동 664,생활방범,5,200,360도전방면,30,2019-11,051-220-4341,35.09250505,128.9577664,2020-03-17
"부산광역시 사하구청",부산광역시 사하구 하신번영로173번길 35,부산광역시 사하구 신평동 601-6,생활방범,3,200,360도전방면,30,2019-11,051-220-4341,35.09821773,128.9580527,2020-03-17
"부산광역시 사하구청",부산광역시 사하구 하신번영로179번길 59,부산광역시 사하구 신평동 594-5,생활방범,3,200,360도전방면,30,2019-11,051-220-4341,35.09875871,128.9568964,2020-03-17
"부산광역시 사하구청",부산광역시 사하구 비봉로21번길 22,부산광역시 사하구 신평동 417-7,생활방범,4,200,360도전방면,30,2019-11,051-220-4341,35.0979467,128.9638077,2020-03-17
"부산광역시 사하구청",부산광역시 사하구 비봉로 37,부산광역시 사하구 신평동 437,생활방범,4,200,360도전방면,30,2019-11,051-220-4341,35.0976204,128.9651639,2020-03-17
"부산광역시 사하구청",,부산광역시 사하구 구평동 501,생활방범,5,200,360도전방면,30,2019-11,051-220-4341,35.08328908,128.9851721,2020-03-17
"부산광역시 사하구청",,부산광역시 사하구 구평동 508,생활방범,4,200,360도전방면,30,2019-11,051-220-4341,35.08163545,128.9867751,2020-03-17
"부산광역시 사하구청",부산광역시 사하구 을숙도대로755번길 48,부산광역시 사하구 구평동 20-8,생활방범,4,200,360도전방면,30,2019-11,051-220-4341,35.08815405,128.9877091,2020-03-17
"부산광역시 사하구청",,부산광역시 사하구 구평동 503,생활방범,4,200,360도전방면,30,2019-11,051-220-4341,35.08162195,128.9884308,2020-03-17
"부산광역시 사하구청",,부산광역시 사하구 구평동 117-15,생활방범,4,200,360도전방면,30,2019-11,051-220-4341,35.08415827,128.9847001,2020-03-17
"부산광역시 사하구청",부산광역시 사하구 감천항로 527,부산광역시 사하구 구평동 494-11,생활방범,4,200,360도전방면,30,2019-11,051-220-4341,35.04805847,128.9998857,2020-03-17
"부산광역시 사하구청",부산광역시 사하구 감천항로405번길 54,부산광역시 사하구 구평동 483-3,생활방범,4,200,360도전방면,30,2019-11,051-220-4341,35.05404521,128.9975362,2020-03-17
"부산광역시 사하구청",부산광역시 사하구 감천로157번길 41,부산광역시 사하구 감천동 52-5,생활방범,4,200,360도전방면,30,2019-11,051-220-4341,35.08470757,129.0099397,2020-03-17
"부산광역시 사하구청",부산광역시 사하구 사하로 106-1,부산광역시 사하구 감천동 826-26,생활방범,4,200,360도전방면,30,2019-11,051-220-4341,35.09151971,128.9939023,2020-03-17
"부산광역시 사하구청",부산광역시 사하구 감천로43번길 41,부산광역시 사하구 감천동 625-3,생활방범,4,200,360도전방면,30,2019-11,051-220-4341,35.09252916,128.9983014,2020-03-17
"부산광역시 사하구청",부산광역시 사하구 감천로37번길 35,부산광역시 사하구 감천동 614-4,생활방범,5,200,360도전방면,30,2019-11,051-220-4341,35.09218399,128.9964328,2020-03-17
"부산광역시 사하구청",부산광역시 사하구 감천로 140,부산광역시 사하구 감천동 38-3,생활방범,5,200,360도전방면,30,2019-11,051-220-4341,35.08618163,129.0061197,2020-03-17
"부산광역시 사하구청",부산광역시 사하구 감천로142번길 10,부산광역시 사하구 감천동 76-1,생활방범,4,200,360도전방면,30,2019-11,051-220-4341,35.08595411,129.0063801,2020-03-17
"부산광역시 사하구청",,부산광역시 사하구 감천동 산 130,생활방범,5,200,360도전방면,30,2019-11,051-220-4341,35.08808325,129.0094111,2020-03-17
"부산광역시 사하구청",부산광역시 사하구 옥천로24번길 12-3,부산광역시 사하구 감천동 24-3,생활방범,3,200,360도전방면,30,2019-11,051-220-4341,35.08886728,129.0061856,2020-03-17
"부산광역시 사하구청",부산광역시 사하구 감천로43번길 25-4,부산광역시 사하구 감천동 624-2,생활방범,3,200,360도전방면,30,2019-11,051-220-4341,35.09217089,128.9980229,2020-03-17
"부산광역시 사하구청",부산광역시 사하구 감천로73번길 24,부산광역시 사하구 감천동 634-34,생활방범,4,200,360도전방면,30,2019-11,051-220-4341,35.09051122,129.0003386,2020-03-17
"부산광역시 사하구청",부산광역시 사하구 감천로93번길 14,부산광역시 사하구 감천동 502-50,생활방범,3,200,360도전방면,30,2019-11,051-220-4341,35.08901555,129.0024368,2020-03-17
"부산광역시 사하구청",부산광역시 사하구 감천로93번길 14,부산광역시 사하구 감천동 502-50,생활방범,4,200,360도전방면,30,2019-11,051-220-4341,35.08901555,129.0024368,2020-03-17
"부산광역시 사하구청",부산광역시 사하구 옥천로 42,부산광역시 사하구 감천동 20-21,생활방범,5,200,360도전방면,30,2019-11,051-220-4341,35.09090661,129.0070113,2020-03-17
"부산광역시 사하구청",부산광역시 사하구 감천로105번길 74,부산광역시 사하구 감천동 523-35,생활방범,3,200,360도전방면,30,2019-11,051-220-4341,35.0905613,129.0051756,2020-03-17
"부산광역시 사하구청",부산광역시 사하구 옥천로24번길 9,부산광역시 사하구 감천동 545-11,생활방범,4,200,360도전방면,30,2019-11,051-220-4341,35.08926577,129.0059602,2020-03-17
"부산광역시 사하구청",부산광역시 사하구 감천로 140,부산광역시 사하구 감천동 38-3,생활방범,5,200,360도전방면,30,2019-11,051-220-4341,35.08618163,129.0061197,2020-03-17
"부산광역시 사하구청",부산광역시 사하구 감천로103번길 33,부산광역시 사하구 감천동 520-4,생활방범,4,200,360도전방면,30,2019-11,051-220-4341,35.08930972,129.0028352,2020-03-17
"부산광역시 사하구청",부산광역시 사하구 감내2로 117,부산광역시 사하구 감천동 6-1055,생활방범,5,200,360도전방면,30,2019-11,051-220-4341,35.09762339,129.0079385,2020-03-17
"부산광역시 사하구청",부산광역시 사하구 감내1로 200,부산광역시 사하구 감천동 10-13,생활방범,4,200,360도전방면,30,2019-11,051-220-4341,35.0962589,129.0094243,2020-03-17
"부산광역시 사하구청",부산광역시 사하구 감천로 169-4,부산광역시 사하구 감천동 53-5,생활방범,3,200,360도전방면,30,2019-11,051-220-4341,35.08468675,129.0091937,2020-03-17
"부산광역시 사하구청",부산광역시 사하구 사하로125번길 6-8,부산광역시 사하구 괴정동 612-5,생활방범,3,200,360도전방면,30,2019-12,051-220-4341,35.09259676,128.9922703,2020-03-17
"부산광역시 사하구청",부산광역시 사하구 낙동대로249번길 7,부산광역시 사하구 괴정동 894-4,생활방범,3,200,360도전방면,30,2019-12,051-220-4341,35.09887014,128.9901199,2020-03-17
"부산광역시 사하구청",부산광역시 사하구 괴정로270번길 29,부산광역시 사하구 괴정동 488-4,생활방범,4,200,360도전방면,30,2019-12,051-220-4341,35.09560301,128.9917145,2020-03-17
"부산광역시 사하구청",부산광역시 사하구 회화나무길 25,부산광역시 사하구 괴정동 810-3,생활방범,4,200,360도전방면,30,2019-12,051-220-4341,35.1006139,128.9896255,2020-03-17
"부산광역시 사하구청",부산광역시 사하구 괴정로284번길 24,부산광역시 사하구 괴정동 486-28,생활방범,3,200,360도전방면,30,2019-12,051-220-4341,35.09623609,128.991459,2020-03-17
"부산광역시 사하구청",부산광역시 사하구 승학로233번길 1,부산광역시 사하구 괴정동 1054-3,생활방범,3,200,360도전방면,30,2019-12,051-220-4341,35.10213462,128.989951,2020-03-17
"부산광역시 사하구청",부산광역시 사하구 낙동대로 271,부산광역시 사하구 괴정동 749-2,생활방범,3,200,360도전방면,30,2019-12,051-220-4341,35.09885916,128.9870487,2020-03-17
"부산광역시 사하구청",부산광역시 사하구 낙동대로 96,부산광역시 사하구 괴정동 172-2,생활방범,3,200,360도전방면,30,2019-12,051-220-4341,35.10465632,129.0044494,2020-03-17
"부산광역시 사하구청",부산광역시 사하구 대티로17번길 9,부산광역시 사하구 괴정동 207-118,생활방범,3,200,360도전방면,30,2019-12,051-220-4341,35.10441064,129.0014629,2020-03-17
"부산광역시 사하구청",부산광역시 사하구 사리로 7,부산광역시 사하구 괴정동 382-12,생활방범,2,200,360도전방면,30,2019-12,051-220-4341,35.10038797,128.9995709,2020-03-17
"부산광역시 사하구청",부산광역시 사하구 대티로80번길 26,부산광역시 사하구 괴정동 69-22,생활방범,2,200,360도전방면,30,2019-12,051-220-4341,35.10704455,129.0088444,2020-03-17
"부산광역시 사하구청",,부산광역시 사하구 괴정동 1279,생활방범,3,200,360도전방면,30,2019-12,051-220-4341,35.10484432,129.0002506,2020-03-17
"부산광역시 사하구청",부산광역시 사하구 까치고개로20번길 3-8,부산광역시 사하구 괴정동 354-75,생활방범,3,200,360도전방면,30,2019-12,051-220-4341,35.10339284,129.0046313,2020-03-17
"부산광역시 사하구청",부산광역시 사하구 대티로 64,부산광역시 사하구 괴정동 188-11,생활방범,4,200,360도전방면,30,2019-12,051-220-4341,35.10625528,129.0062021,2020-03-17
"부산광역시 사하구청",부산광역시 사하구 승학로 281,부산광역시 사하구 괴정동 260-526,생활방범,3,200,360도전방면,30,2019-12,051-220-4341,35.1026236,128.995178,2020-03-17
"부산광역시 사하구청",부산광역시 사하구 낙동대로199번길 23,부산광역시 사하구 괴정동 437-40,생활방범,3,200,360도전방면,30,2019-12,051-220-4341,35.09964393,128.9957888,2020-03-17
"부산광역시 사하구청",부산광역시 사하구 사하로 200,부산광역시 사하구 괴정동 966-1,생활방범,4,200,360도전방면,30,2019-12,051-220-4341,35.09957993,128.9937041,2020-03-17
"부산광역시 사하구청",부산광역시 사하구 승학로224번길 107,부산광역시 사하구 괴정동 260-130,생활방범,3,200,360도전방면,30,2019-12,051-220-4341,35.1020719,128.9954016,2020-03-17
"부산광역시 사하구청",부산광역시 사하구 낙동대로343번길 37,부산광역시 사하구 괴정동 656-39,생활방범,3,200,360도전방면,30,2019-12,051-220-4341,35.09931688,128.9784114,2020-03-17
"부산광역시 사하구청",부산광역시 사하구 낙동대로318번길 24,부산광역시 사하구 괴정동 577-36,생활방범,3,200,360도전방면,30,2019-12,051-220-4341,35.10015966,128.983423,2020-03-17
"부산광역시 사하구청",부산광역시 사하구 낙동대로280번길 32,부산광역시 사하구 괴정동 764-50,생활방범,3,200,360도전방면,30,2019-12,051-220-4341,35.10036269,128.9850597,2020-03-17
"부산광역시 사하구청",부산광역시 사하구 마하로48번길 21,부산광역시 사하구 괴정동 1075-7,생활방범,4,200,360도전방면,30,2019-12,051-220-4341,35.10407889,128.9847644,2020-03-17
"부산광역시 사하구청",부산광역시 사하구 승학로165번길 18,부산광역시 사하구 괴정동 1080-34,생활방범,2,200,360도전방면,30,2019-12,051-220-4341,35.10228643,128.9846003,2020-03-17
"부산광역시 사하구청",부산광역시 사하구 낙동대로302번길 64,부산광역시 사하구 괴정동 1079-1,생활방범,2,200,360도전방면,30,2019-12,051-220-4341,35.10242313,128.9833076,2020-03-17
"부산광역시 사하구청",부산광역시 사하구 동매로 75,부산광역시 사하구 하단동 611-14,생활방범,3,200,360도전방면,30,2019-12,051-220-4341,35.10287434,128.9664544,2020-03-17
"부산광역시 사하구청",부산광역시 사하구 하신번영로261번길 16,부산광역시 사하구 하단동 1165-6,생활방범,4,200,360도전방면,30,2019-12,051-220-4341,35.1045051,128.9574792,2020-03-17
"부산광역시 사하구청",부산광역시 사하구 낙동남로 1388,부산광역시 사하구 하단동 596-14,생활방범,4,200,360도전방면,30,2019-12,051-220-4341,35.10587267,128.9634843,2020-03-17
"부산광역시 사하구청",부산광역시 사하구 동매로 12,부산광역시 사하구 하단동 901-1,생활방범,3,200,360도전방면,30,2019-12,051-220-4341,35.10358667,128.9596293,2020-03-17
"부산광역시 사하구청",부산광역시 사하구 동매로23번길 22,부산광역시 사하구 하단동 604-1,생활방범,4,200,360도전방면,30,2019-12,051-220-4341,35.10468242,128.9612656,2020-03-17
"부산광역시 사하구청",부산광역시 사하구 하신번영로 187,부산광역시 사하구 신평동 590-5,생활방범,3,200,360도전방면,30,2019-12,051-220-4341,35.09866316,128.9598567,2020-03-17
"부산광역시 사하구청",부산광역시 사하구 하신번영로380번길 116,부산광역시 사하구 하단동 502-16,생활방범,4,200,360도전방면,30,2019-12,051-220-4341,35.10954988,128.9601491,2020-03-17
"부산광역시 사하구청",부산광역시 사하구 하신번영로 365,부산광역시 사하구 하단동 1161-2,생활방범,3,200,360도전방면,30,2019-12,051-220-4341,35.11029282,128.9585343,2020-03-17
"부산광역시 사하구청",부산광역시 사하구 하신번영로 376,부산광역시 사하구 하단동 870-13,생활방범,3,200,360도전방면,30,2019-12,051-220-4341,35.11431319,128.9607974,2020-03-17
"부산광역시 사하구청",부산광역시 사하구 낙동대로550번길 16-6,부산광역시 사하구 하단동 492-36,생활방범,2,200,360도전방면,30,2019-12,051-220-4341,35.1128366,128.9651132,2020-03-17
"부산광역시 사하구청",부산광역시 사하구 낙동대로519번길 54,부산광역시 사하구 하단동 500-39,생활방범,3,200,360도전방면,30,2019-12,051-220-4341,35.1106396,128.9625423,2020-03-17
"부산광역시 사하구청",부산광역시 사하구 하신번영로312번길 1,부산광역시 사하구 하단동 885-10,생활방범,3,200,360도전방면,30,2019-12,051-220-4341,35.10883647,128.9591754,2020-03-17
"부산광역시 사하구청",부산광역시 사하구 승학로 71,부산광역시 사하구 당리동 318-15,생활방범,3,200,360도전방면,30,2019-12,051-220-4341,35.10461068,128.9758642,2020-03-17
"부산광역시 사하구청",부산광역시 사하구 승학로 2,부산광역시 사하구 당리동 303-1,생활방범,4,200,360도전방면,30,2019-12,051-220-4341,35.10623335,128.9691157,2020-03-17
"부산광역시 사하구청",부산광역시 사하구 낙동대로356번길 33-1,부산광역시 사하구 당리동 343-21,생활방범,4,200,360도전방면,30,2019-12,051-220-4341,35.10268211,128.9802725,2020-03-17
"부산광역시 사하구청",부산광역시 사하구 제석로95번길 21,부산광역시 사하구 당리동 39-18,생활방범,4,200,360도전방면,30,2019-12,051-220-4341,35.10913001,128.9765763,2020-03-17
"부산광역시 사하구청",부산광역시 사하구 제석로 112,부산광역시 사하구 당리동 26-2,생활방범,4,200,360도전방면,30,2019-12,051-220-4341,35.10892222,128.9788664,2020-03-17
"부산광역시 사하구청",부산광역시 사하구 제석로 77,부산광역시 사하구 당리동 52-2,생활방범,3,200,360도전방면,30,2019-12,051-220-4341,35.10724405,128.9757091,2020-03-17
"부산광역시 사하구청",부산광역시 사하구 사하로 156-1,부산광역시 사하구 괴정동 477-28,생활방범,4,200,360도전방면,30,2019-12,051-220-4341,35.09562206,128.9937876,2020-03-17
"부산광역시 사하구청",부산광역시 사하구 낙동대로535번길 45-5,부산광역시 사하구 하단동 500-22,생활방범,2,200,360도전방면,30,2019-12,051-220-4341,35.11086764,128.9622049,2020-03-17
"부산광역시 사하구청",부산광역시 사하구 낙동남로1357번길 5,부산광역시 사하구 하단동 870-213,생활방범,2,200,360도전방면,30,2019-12,051-220-4341,35.10689175,128.9600191,2020-03-17
"부산광역시 사하구청",부산광역시 사하구 감천로43번길 25-14,부산광역시 사하구 감천동 622-1,생활방범,3,200,360도전방면,30,2019-12,051-220-4341,35.09253268,128.9978737,2020-03-17
"부산광역시 사하구청",부산광역시 사하구 감천로21번길 54,부산광역시 사하구 감천동 613-4,생활방범,4,200,360도전방면,30,2019-12,051-220-4341,35.09274396,128.9973938,2020-03-17
"부산광역시 사하구청",부산광역시 사하구 까치고개로 72,부산광역시 사하구 괴정동 1-5,생활방범,3,200,360도전방면,30,2019-12,051-220-4341,35.10439149,129.0091956,2020-03-17
"부산광역시 사하구청",부산광역시 사하구 회화나무길 76,부산광역시 사하구 괴정동 993-8,쓰레기단속,1,200,전주방면,30,,051-220-4435,35.10097127,128.9922184,2020-03-17
"부산광역시 사하구청",부산광역시 사하구 낙동대로 228,부산광역시 사하구 괴정동 936-5,쓰레기단속,1,200,전주방면,30,,051-220-4435,35.10005363,128.9919988,2020-03-17
"부산광역시 사하구청",부산광역시 사하구 사하로141번길 61,부산광역시 사하구 괴정동 499-11,쓰레기단속,1,200,전주방면,30,,051-220-4435,35.09507016,128.9896352,2020-03-17
"부산광역시 사하구청",부산광역시 사하구 승학로 228,부산광역시 사하구 괴정동 1047-5,쓰레기단속,1,200,전주방면,30,,051-220-4435,35.10153957,128.9899658,2020-03-17
"부산광역시 사하구청",부산광역시 사하구 괴정로271번길 9,부산광역시 사하구 괴정동 528-4,쓰레기단속,1,200,전주방면,30,,051-220-4435,35.09721951,128.9913502,2020-03-17
"부산광역시 사하구청",부산광역시 사하구 괴정로245번길 18,부산광역시 사하구 괴정동 532-1,쓰레기단속,1,200,전주방면,30,,051-220-4435,35.09757551,128.9886016,2020-03-17
"부산광역시 사하구청",부산광역시 사하구 장평로450번길 62,부산광역시 사하구 괴정동 531-6,쓰레기단속,1,200,전주방면,30,,051-220-4435,35.09752005,128.9898732,2020-03-17
"부산광역시 사하구청",부산광역시 사하구 까치고개로 6,부산광역시 사하구 괴정동 354-34,쓰레기단속,1,200,전주방면,30,,051-220-4435,35.10321529,129.0032142,2020-03-17
"부산광역시 사하구청",부산광역시 사하구 원양로398번길 31,부산광역시 사하구 감천동 92-1,쓰레기단속,1,200,전주방면,30,,051-220-4435,35.08471621,129.0067377,2020-03-17
"부산광역시 사하구청",부산광역시 사하구 대티로17번길 71,부산광역시 사하구 괴정동 194-40,쓰레기단속,1,200,전주방면,30,,051-220-4435,35.1066676,129.0032236,2020-03-17
"부산광역시 사하구청",부산광역시 사하구 까치고개로 69,부산광역시 사하구 괴정동 2-59,쓰레기단속,1,200,전주방면,30,,051-220-4435,35.10436729,129.0088553,2020-03-17
"부산광역시 사하구청",부산광역시 사하구 낙동대로216번길 28,부산광역시 사하구 괴정동 1025-82,쓰레기단속,1,200,전주방면,30,,051-220-4435,35.1015794,128.9928071,2020-03-17
"부산광역시 사하구청",부산광역시 사하구 사하로186번길 47,부산광역시 사하구 괴정동 434-63,쓰레기단속,1,200,전주방면,30,,051-220-4435,35.09944086,128.9963677,2020-03-17
"부산광역시 사하구청",부산광역시 사하구 오작로 26-1,부산광역시 사하구 괴정동 446-4,쓰레기단속,1,200,전주방면,30,,051-220-4435,35.09828573,128.9965291,2020-03-17
"부산광역시 사하구청",부산광역시 사하구 사하로 184-6,부산광역시 사하구 괴정동 958-23,쓰레기단속,1,200,전주방면,30,,051-220-4435,35.09835658,128.9944899,2020-03-17
"부산광역시 사하구청",부산광역시 사하구 승학로281번길 16,부산광역시 사하구 괴정동 260-500,쓰레기단속,1,200,전주방면,30,,051-220-4435,35.10247704,128.9943645,2020-03-17
"부산광역시 사하구청",부산광역시 사하구 낙동대로302번길 35,부산광역시 사하구 괴정동 1091-1,쓰레기단속,1,200,전주방면,30,,051-220-4435,35.10121489,128.9822401,2020-03-17
"부산광역시 사하구청",부산광역시 사하구 낙동대로318번길 1,부산광역시 사하구 괴정동 1138-10,쓰레기단속,1,200,전주방면,30,,051-220-4435,35.10034882,128.9823284,2020-03-17
"부산광역시 사하구청",부산광역시 사하구 장평로449번길 122,부산광역시 사하구 괴정동 1130-15,쓰레기단속,1,200,전주방면,30,,051-220-4435,35.09950071,128.9802014,2020-03-17
"부산광역시 사하구청",부산광역시 사하구 승학로 16,부산광역시 사하구 당리동 306-8,쓰레기단속,1,200,전주방면,30,,051-220-4435,35.10659996,128.9706118,2020-03-17
"부산광역시 사하구청",부산광역시 사하구 승학로31번길 8,부산광역시 사하구 당리동 310-4,쓰레기단속,1,200,전주방면,30,,051-220-4435,35.10682271,128.9731812,2020-03-17
"부산광역시 사하구청",부산광역시 사하구 승학로71번안길 16,부산광역시 사하구 당리동 87-2,쓰레기단속,1,200,전주방면,30,,051-220-4435,35.10539289,128.9761148,2020-03-17
"부산광역시 사하구청",부산광역시 사하구 승학로71번안길 10,부산광역시 사하구 당리동 86-4,쓰레기단속,1,200,전주방면,30,,051-220-4435,35.10524992,128.9759596,2020-03-17
"부산광역시 사하구청",부산광역시 사하구 승학로 132,부산광역시 사하구 당리동 350-32,쓰레기단속,1,200,전주방면,30,,051-220-4435,35.1035443,128.9817745,2020-03-17
"부산광역시 사하구청",부산광역시 사하구 승학로 101-1,부산광역시 사하구 당리동 345-26,쓰레기단속,1,200,전주방면,30,,051-220-4435,35.10341701,128.9785702,2020-03-17
"부산광역시 사하구청",부산광역시 사하구 승학로31번길 21,부산광역시 사하구 당리동 309-2,쓰레기단속,1,200,전주방면,30,,051-220-4435,35.10721576,128.9736247,2020-03-17
"부산광역시 사하구청",부산광역시 사하구 승학로71번길 82,부산광역시 사하구 당리동 61-8,쓰레기단속,1,200,전주방면,30,,051-220-4435,35.10748135,128.9786956,2020-03-17
"부산광역시 사하구청",부산광역시 사하구 승학로71번안길 94,부산광역시 사하구 당리동 26-23,쓰레기단속,1,200,전주방면,30,,051-220-4435,35.10818695,128.9783859,2020-03-17
"부산광역시 사하구청",부산광역시 사하구 제석로62번길 16,부산광역시 사하구 당리동 143-1,쓰레기단속,1,200,전주방면,30,,051-220-4435,35.10546217,128.9753478,2020-03-17
"부산광역시 사하구청",부산광역시 사하구 제석로59번길 18,부산광역시 사하구 당리동 311-11,쓰레기단속,1,200,전주방면,30,,051-220-4435,35.1065092,128.974055,2020-03-17
"부산광역시 사하구청",부산광역시 사하구 마하로 74,부산광역시 사하구 괴정동 1071-21,쓰레기단속,1,200,전주방면,30,,051-220-4435,35.10596408,128.9846116,2020-03-17
"부산광역시 사하구청",부산광역시 사하구 괴정로57번길 39,부산광역시 사하구 하단동 12-1,쓰레기단속,1,200,전주방면,30,,051-220-4435,35.10287084,128.9725199,2020-03-17
"부산광역시 사하구청",부산광역시 사하구 낙동대로356번길 33,부산광역시 사하구 당리동 343-16,쓰레기단속,1,200,전주방면,30,,051-220-4435,35.10256458,128.9803149,2020-03-17
"부산광역시 사하구청",부산광역시 사하구 괴정로57번길 33,부산광역시 사하구 하단동 9-4,쓰레기단속,1,200,전주방면,30,,051-220-4435,35.10290944,128.9722023,2020-03-17
"부산광역시 사하구청",부산광역시 사하구 동매로92번길 33,부산광역시 사하구 하단동 352-18,쓰레기단속,1,200,전주방면,30,,051-220-4435,35.10147798,128.9674799,2020-03-17
"부산광역시 사하구청",부산광역시 사하구 동매로 94,부산광역시 사하구 하단동 328,쓰레기단속,1,200,전주방면,30,,051-220-4435,35.10223735,128.9683334,2020-03-17
"부산광역시 사하구청",부산광역시 사하구 낙동대로451번길 39,부산광역시 사하구 하단동 123-1,쓰레기단속,1,200,전주방면,30,,051-220-4435,35.10349276,128.9702788,2020-03-17
"부산광역시 사하구청",부산광역시 사하구 낙동대로519번길 29-4,부산광역시 사하구 하단동 785-3,쓰레기단속,1,200,전주방면,30,,051-220-4435,35.11016919,128.963886,2020-03-17
"부산광역시 사하구청",부산광역시 사하구 낙동남로1423번길 55,부산광역시 사하구 하단동 513-3,쓰레기단속,1,200,전주방면,30,,051-220-4435,35.10878458,128.9657015,2020-03-17
"부산광역시 사하구청",부산광역시 사하구 승학로17번길 9,부산광역시 사하구 당리동 234-15,쓰레기단속,1,200,전주방면,30,,051-220-4435,35.10702824,128.9700355,2020-03-17
"부산광역시 사하구청",부산광역시 사하구 하신번영로328번길 1,부산광역시 사하구 하단동 502-20,쓰레기단속,1,200,전주방면,30,,051-220-4435,35.11029566,128.9593132,2020-03-17
"부산광역시 사하구청",부산광역시 사하구 낙동남로1423번길 130,부산광역시 사하구 하단동 490-11,쓰레기단속,1,200,전주방면,30,,051-220-4435,35.11184487,128.9640045,2020-03-17
"부산광역시 사하구청",부산광역시 사하구 하신번영로312번길 45-3,부산광역시 사하구 하단동 588-119,쓰레기단속,1,200,전주방면,30,,051-220-4435,35.10889914,128.9615016,2020-03-17
"부산광역시 사하구청",부산광역시 사하구 낙동대로474번길 17,부산광역시 사하구 하단동 530-18,쓰레기단속,1,200,전주방면,30,,051-220-4435,35.10752251,128.969098,2020-03-17
"부산광역시 사하구청",부산광역시 사하구 낙동대로563번안길 1,부산광역시 사하구 하단동 477-4,쓰레기단속,1,200,전주방면,30,,051-220-4435,35.11287701,128.9634352,2020-03-17
"부산광역시 사하구청",부산광역시 사하구 하신번영로380번길 103,부산광역시 사하구 하단동 503-13,쓰레기단속,1,200,전주방면,30,,051-220-4435,35.11003242,128.9606813,2020-03-17
"부산광역시 사하구청",부산광역시 사하구 하신번영로300번길 92-3,부산광역시 사하구 하단동 515-15,쓰레기단속,1,200,전주방면,30,,051-220-4435,35.10750749,128.9642056,2020-03-17
"부산광역시 사하구청",부산광역시 사하구 낙동대로485번길 28,부산광역시 사하구 하단동 512-40,쓰레기단속,1,200,전주방면,30,,051-220-4435,35.10761373,128.965578,2020-03-17
"부산광역시 사하구청",부산광역시 사하구 낙동대로549번길 63,부산광역시 사하구 하단동 870-48,쓰레기단속,1,200,전주방면,30,,051-220-4435,35.11254999,128.9603488,2020-03-17
"부산광역시 사하구청",부산광역시 사하구 장평로278번길 20,부산광역시 사하구 신평동 84-85,쓰레기단속,1,200,전주방면,30,,051-220-4435,35.09099848,128.9737387,2020-03-17
"부산광역시 사하구청",부산광역시 사하구 다대로 121-2,부산광역시 사하구 신평동 33-53,쓰레기단속,1,200,전주방면,30,,051-220-4435,35.09149314,128.9783507,2020-03-17
"부산광역시 사하구청",부산광역시 사하구 장림시장9길 226,부산광역시 사하구 장림동 615-458,쓰레기단속,1,200,전주방면,30,,051-220-4435,35.0789003,128.9705244,2020-03-17
"부산광역시 사하구청",부산광역시 사하구 다대로130번길 124,부산광역시 사하구 신평동 146-24,쓰레기단속,1,200,전주방면,30,,051-220-4435,35.09301207,128.9755503,2020-03-17
"부산광역시 사하구청",부산광역시 사하구 다대로116번길 27,부산광역시 사하구 신평동 126-9,쓰레기단속,1,200,전주방면,30,,051-220-4435,35.09271887,128.9772577,2020-03-17
"부산광역시 사하구청",부산광역시 사하구 다대로144번길 45,부산광역시 사하구 신평동 84-73,쓰레기단속,1,200,전주방면,30,,051-220-4435,35.09061835,128.9761688,2020-03-17
"부산광역시 사하구청",부산광역시 사하구 다대로119번길 33,부산광역시 사하구 신평동 33-23,쓰레기단속,1,200,전주방면,30,,051-220-4435,35.09135448,128.9787768,2020-03-17
"부산광역시 사하구청",부산광역시 사하구 다대로136번길 40,부산광역시 사하구 신평동 111-365,쓰레기단속,1,200,전주방면,30,,051-220-4435,35.0910896,128.976975,2020-03-17
"부산광역시 사하구청",부산광역시 사하구 다대로130번길 38,부산광역시 사하구 신평동 111-184,쓰레기단속,1,200,전주방면,30,,051-220-4435,35.09162906,128.977146,2020-03-17
"부산광역시 사하구청",부산광역시 사하구 하신번영로201번길 17,부산광역시 사하구 신평동 587-6,쓰레기단속,1,200,전주방면,30,,051-220-4435,35.09894547,128.9572167,2020-03-17
"부산광역시 사하구청",부산광역시 사하구 하신번영로169번길 69,부산광역시 사하구 신평동 610-1,쓰레기단속,1,200,전주방면,30,,051-220-4435,35.09792567,128.9562286,2020-03-17
"부산광역시 사하구청",부산광역시 사하구 하신번영로157번길 17,부산광역시 사하구 신평동 630-1,쓰레기단속,1,200,전주방면,30,,051-220-4435,35.09653336,128.959031,2020-03-17
"부산광역시 사하구청",부산광역시 사하구 하신번영로171번길 54,부산광역시 사하구 신평동 602-8,쓰레기단속,1,200,전주방면,30,,051-220-4435,35.09818914,128.9571091,2020-03-17
"부산광역시 사하구청",부산광역시 사하구 낙동남로1353번길 34,부산광역시 사하구 하단동 870-220,쓰레기단속,1,200,전주방면,30,,051-220-4435,35.10811834,128.9599348,2020-03-17
"부산광역시 사하구청",부산광역시 사하구 하신번영로173번길 20,부산광역시 사하구 신평동 597-7,쓰레기단속,1,200,전주방면,30,,051-220-4435,35.09826408,128.9590294,2020-03-17
"부산광역시 사하구청",부산광역시 사하구 하신번영로179번길 38,부산광역시 사하구 신평동 588-8,쓰레기단속,1,200,전주방면,30,,051-220-4435,35.09879528,128.9579717,2020-03-17
"부산광역시 사하구청",부산광역시 사하구 장림시장5길 66,부산광역시 사하구 장림동 641-292,쓰레기단속,1,200,전주방면,30,,051-220-4435,35.08057955,128.966816,2020-03-17
"부산광역시 사하구청",부산광역시 사하구 장평로195번길 47,부산광역시 사하구 장림동 163-46,쓰레기단속,1,200,전주방면,30,,051-220-4435,35.08434739,128.9702052,2020-03-17
"부산광역시 사하구청",부산광역시 사하구 장림시장8길 3,부산광역시 사하구 장림동 808-130,쓰레기단속,1,200,전주방면,30,,051-220-4435,35.08074765,128.9649538,2020-03-17
"부산광역시 사하구청",부산광역시 사하구 장림로 179,부산광역시 사하구 장림동 668,쓰레기단속,1,200,전주방면,30,,051-220-4435,35.0827365,128.9687496,2020-03-17
"부산광역시 사하구청",부산광역시 사하구 보덕포2길 36,부산광역시 사하구 장림동 915-4,쓰레기단속,1,200,전주방면,30,,051-220-4435,35.0742682,128.9579258,2020-03-17
"부산광역시 사하구청",,부산광역시 사하구 장림동 641-312,쓰레기단속,1,200,전주방면,30,,051-220-4435,35.08070189,128.9661705,2020-03-17
"부산광역시 사하구청",부산광역시 사하구 장림시장5길 260,부산광역시 사하구 장림동 618-10,쓰레기단속,1,200,전주방면,30,,051-220-4435,35.0787207,128.971564,2020-03-17
"부산광역시 사하구청",부산광역시 사하구 장림시장9길 170,부산광역시 사하구 장림동 615-351,쓰레기단속,1,200,전주방면,30,,051-220-4435,35.0792642,128.9689826,2020-03-17
"부산광역시 사하구청",부산광역시 사하구 다대로 268,부산광역시 사하구 장림동 221,쓰레기단속,1,200,전주방면,30,,051-220-4435,35.07848811,128.9769452,2020-03-17
"부산광역시 사하구청",부산광역시 사하구 장림시장8길 201,부산광역시 사하구 장림동 615-244,쓰레기단속,1,200,전주방면,30,,051-220-4435,35.07927248,128.9701998,2020-03-17
"부산광역시 사하구청",부산광역시 사하구 동매로 50,부산광역시 사하구 하단동 609-1,쓰레기단속,1,200,전주방면,30,,051-220-4435,35.10322899,128.9638042,2020-03-17
"부산광역시 사하구청",부산광역시 사하구 윤공단로22번길 31,부산광역시 사하구 다대동 954-35,쓰레기단속,1,200,전주방면,30,,051-220-4435,35.05643668,128.9683178,2020-03-17
"부산광역시 사하구청",부산광역시 사하구 윤공단로132번길 24,부산광역시 사하구 다대동 927-20,쓰레기단속,1,200,전주방면,30,,051-220-4435,35.06084611,128.9737527,2020-03-17
"부산광역시 사하구청",부산광역시 사하구 다대동로53번길 14,부산광역시 사하구 다대동 189-2,쓰레기단속,1,200,전주방면,30,,051-220-4435,35.05840606,128.9734058,2020-03-17
"부산광역시 사하구청",부산광역시 사하구 윤공단로75번길 22,부산광역시 사하구 다대동 1030-3,쓰레기단속,1,200,전주방면,30,,051-220-4435,35.05867068,128.9673795,2020-03-17
"부산광역시 사하구청",부산광역시 사하구 다대로 563,부산광역시 사하구 다대동 771,쓰레기단속,1,200,전주방면,30,,051-220-4435,35.05617402,128.9707264,2020-03-17
"부산광역시 사하구청",부산광역시 사하구 윤공단로 9,부산광역시 사하구 다대동 653-8,쓰레기단속,1,200,전주방면,30,,051-220-4435,35.05444472,128.9694233,2020-03-17
"부산광역시 사하구청",부산광역시 사하구 다대동로 49-1,부산광역시 사하구 다대동 854,쓰레기단속,1,200,전주방면,30,,051-220-4435,35.05764328,128.9729802,2020-03-17
"부산광역시 사하구청",부산광역시 사하구 다송로 14,부산광역시 사하구 다대동 69-4,쓰레기단속,1,200,전주방면,30,,051-220-4435,35.06598034,128.9809292,2020-03-17
"부산광역시 사하구청",부산광역시 사하구 다대로381번길 60,부산광역시 사하구 다대동 93-7,쓰레기단속,1,200,전주방면,30,,051-220-4435,35.06661964,128.9832392,2020-03-17
"부산광역시 사하구청",부산광역시 사하구 두송로 146,부산광역시 사하구 구평동 435-246,쓰레기단속,1,200,전주방면,30,,051-220-4435,35.07240134,128.9839007,2020-03-17
"부산광역시 사하구청",부산광역시 사하구 두송로 191,부산광역시 사하구 구평동 435-142,쓰레기단속,1,200,전주방면,30,,051-220-4435,35.07013474,128.9877219,2020-03-17
"부산광역시 사하구청",부산광역시 사하구 두송로144번길 41,부산광역시 사하구 구평동 435-266,쓰레기단속,1,200,전주방면,30,,051-220-4435,35.07125406,128.9830975,2020-03-17
"부산광역시 사하구청",부산광역시 사하구 감천로21번길 50,부산광역시 사하구 감천동 613-2,쓰레기단속,1,200,전주방면,30,,051-220-4435,35.09267384,128.9971516,2020-03-17
"부산광역시 사하구청",부산광역시 사하구 감천로139번가길 41,부산광역시 사하구 감천동 28-2,쓰레기단속,1,200,전주방면,30,,051-220-4435,35.08720233,129.0091151,2020-03-17
"부산광역시 사하구청",부산광역시 사하구 원양로356번길 20,부산광역시 사하구 감천동 237,쓰레기단속,1,200,전주방면,30,,051-220-4435,35.0816693,129.006755,2020-03-17
"부산광역시 사하구청",부산광역시 사하구 감내1로 169,부산광역시 사하구 감천동 12-260,쓰레기단속,1,200,전주방면,30,,051-220-4435,35.09549927,129.0086362,2020-03-17
"부산광역시 사하구청",부산광역시 사하구 감내2로 117,부산광역시 사하구 감천동 6-1055,쓰레기단속,1,200,전주방면,30,,051-220-4435,35.09762339,129.0079385,2020-03-17
"부산광역시 사하구청",부산광역시 사하구 옥천로 93-1,부산광역시 사하구 감천동 12-201,쓰레기단속,1,200,전주방면,30,,051-220-4435,35.09460401,129.0100619,2020-03-17
"부산광역시 사하구청",부산광역시 사하구 옥천로70번길 89,부산광역시 사하구 감천동 13-1440,쓰레기단속,1,200,전주방면,30,,051-220-4435,35.09262098,129.0111341,2020-03-17
"부산광역시 사하구청",부산광역시 사하구 옥천로 84-1,부산광역시 사하구 감천동 13-637,쓰레기단속,1,200,전주방면,30,,051-220-4435,35.09379328,129.009997,2020-03-17
"부산광역시 사하구청",부산광역시 사하구 승학로281번안길 31,부산광역시 사하구 괴정동 산 155-3,쓰레기단속,1,200,전주방면,30,,051-220-4435,35.10509229,128.9898223,2020-03-17
"부산광역시 사하구청",부산광역시 사하구 사리로18번길 9-2,부산광역시 사하구 괴정동 300-1,쓰레기단속,1,200,전주방면,30,,051-220-4435,35.10130595,128.9997467,2020-03-17
"부산광역시 사하구청",부산광역시 사하구 사리로7번길 29,부산광역시 사하구 괴정동 400-25,쓰레기단속,1,200,전주방면,30,,051-220-4435,35.09961342,128.9983989,2020-03-17
"부산광역시 사하구청",,부산광역시 사하구 당리동 산 5-9,쓰레기단속,1,200,전주방면,30,,051-220-4435,35.11408413,128.9870241,2020-03-17
"부산광역시 사하구청",부산광역시 사하구 낙동대로563번안길 40-4,부산광역시 사하구 하단동 487-11,쓰레기단속,1,200,전주방면,30,,051-220-4435,35.11172611,128.9630706,2020-03-17
"부산광역시 사하구청",부산광역시 사하구 장평로292번길 3-10,부산광역시 사하구 신평동 158-2,쓰레기단속,1,200,전주방면,30,,051-220-4435,35.09259242,128.9739331,2020-03-17
"부산광역시 사하구청",부산광역시 사하구 장림시장5길 227,부산광역시 사하구 장림동 348-16,쓰레기단속,1,200,전주방면,30,,051-220-4435,35.07939243,128.9709798,2020-03-17
"부산광역시 사하구청",부산광역시 사하구 윤공단로 32-1,부산광역시 사하구 다대동 954-12,쓰레기단속,1,200,전주방면,30,,051-220-4435,35.05540339,128.9679029884,2020-03-17
"부산광역시 사하구청",부산광역시 사하구 감천로 149,부산광역시 사하구 감천동 66-1,쓰레기단속,1,200,전주방면,30,,051-220-4435,35.08590994,129.0073555,2020-03-17
"부산광역시 사하구청",부산광역시 사하구 옥천로 49,부산광역시 사하구 감천동 19-33,쓰레기단속,1,200,전주방면,30,,051-220-4435,35.09139777,129.0075657,2020-03-17
"부산광역시 사하구청",,부산광역시 사하구 구평동 산62,쓰레기단속,1,200,전주방면,30,,051-220-4435,35.07737791,128.986022,2020-03-17
"부산광역시 사하구청",,부산광역시 사하구 구평동 산65,쓰레기단속,1,200,전주방면,30,,051-220-4435,35.07684487,128.9872766,2020-03-17
"부산광역시 사하구청",부산광역시 사하구 낙동대로519번길 46,부산광역시 사하구 하단동 500-51,쓰레기단속,1,200,전주방면,30,,051-220-4435,35.11061879,128.962893,2020-03-17
"부산광역시 사하구청",부산광역시 사하구 하신번영로153번길 32,부산광역시 사하구 신평동 629-11,쓰레기단속,1,200,전주방면,30,,051-220-4435,35.09650347,128.958252,2020-03-17
"부산광역시 사하구청",부산광역시 사하구 장림번영로 6,부산광역시 사하구 장림동 328-16,쓰레기단속,1,200,전주방면,30,,051-220-4435,35.08198851,128.9664708,2020-03-17
"부산광역시 사하구청",부산광역시 사하구 윤공단로 25-5,부산광역시 사하구 다대동 952,쓰레기단속,1,200,전주방면,30,,051-220-4435,35.05491948,128.9664144,2020-03-17
"부산광역시 사하구청",부산광역시 사하구 원양로398번길 79,부산광역시 사하구 감천동 200-6,쓰레기단속,1,200,전주방면,30,,051-220-4435,35.0830167,129.0084055,2020-03-17
"부산광역시 사하구청",부산광역시 사하구 감내1로 153,부산광역시 사하구 감천동 11-97,쓰레기단속,1,200,전주방면,30,,051-220-4435,35.09486418,129.0080471,2020-03-17
"부산광역시 사하구청",부산광역시 사하구 낙동대로179번길 23-6,부산광역시 사하구 괴정동 411-7,쓰레기단속,1,200,전주방면,30,,051-220-4435,35.10049357,128.9976967,2020-03-17
"부산광역시 사하구청",부산광역시 사하구 사하로 190,부산광역시 사하구 괴정동 961-1,교통단속,3,200,360도전방향,30,,051-220-4561,35.09903752,128.9938949,2020-03-17
"부산광역시 사하구청",부산광역시 사하구 낙동남로 1392,부산광역시 사하구 하단동 592-1,교통단속,3,200,360도전방향,30,,051-220-4561,35.10586979,128.9638463,2020-03-17
"부산광역시 사하구청",부산광역시 사하구 낙동대로 548,부산광역시 사하구 하단동 492-1,교통단속,3,200,360도전방향,30,,051-220-4561,35.11294974,128.9644892,2020-03-17
"부산광역시 사하구청",부산광역시 사하구 낙동대로 553-1,부산광역시 사하구 하단동 477-8,교통단속,3,200,360도전방향,30,,051-220-4561,35.1128386,128.963731,2020-03-17
"부산광역시 사하구청",부산광역시 사하구 사하로 144,부산광역시 사하구 괴정동 483-36,교통단속,3,200,360도전방향,30,,051-220-4561,35.0945257,128.9933795,2020-03-17
"부산광역시 사하구청",부산광역시 사하구 장림번영로 32,부산광역시 사하구 장림동 332-6,교통단속,3,200,360도전방향,30,,051-220-4561,35.08058154,128.9688227,2020-03-17
"부산광역시 사하구청",부산광역시 사하구 낙동대로 449,부산광역시 사하구 하단동 619-1,교통단속,3,200,360도전방향,30,,051-220-4561,35.10500579,128.9693205,2020-03-17
"부산광역시 사하구청",부산광역시 사하구 옥천로75번길 5,부산광역시 사하구 감천동 16-787,교통단속,1,200,360도전방향,30,,051-220-4561,35.09340338,129.0091916,2020-03-17
"부산광역시 사하구청",부산광역시 사하구 승학로 54,부산광역시 사하구 당리동 313-33,교통단속,3,200,360도전방향,30,,051-220-4561,35.10543566,128.9741629,2020-03-17
"부산광역시 사하구청",부산광역시 사하구 다대로 139,부산광역시 사하구 신평동 71-9,교통단속,3,200,360도전방향,30,,051-220-4561,35.08997273,128.9779816,2020-03-17
"부산광역시 사하구청",부산광역시 사하구 다대로 551,부산광역시 사하구 다대동 891,교통단속,3,200,360도전방향,30,,051-220-4561,35.05698993,128.9712732,2020-03-17
"부산광역시 사하구청",부산광역시 사하구 옥천로 73,부산광역시 사하구 감천동 16-65,교통단속,3,200,360도전방향,30,,051-220-4561,35.09312562,129.0089908,2020-03-17
"부산광역시 사하구청",부산광역시 사하구 낙동남로 1399,부산광역시 사하구 하단동 525-8,교통단속,1,200,360도전방향,30,,051-220-4561,35.10661116,128.9646996,2020-03-17
"부산광역시 사하구청",부산광역시 사하구 장평로 449,부산광역시 사하구 괴정동 553-1,교통단속,1,200,360도전방향,30,,051-220-4561,35.09821576,128.986361,2020-03-17
"부산광역시 사하구청",부산광역시 사하구 낙동대로 388,부산광역시 사하구 당리동 321-1,교통단속,1,200,360도전방향,30,,051-220-4561,35.1034205,128.9759048,2020-03-17
"부산광역시 사하구청",부산광역시 사하구 낙동남로1389번길 1,부산광역시 사하구 하단동 524-5,교통단속,1,200,360도전방향,30,,051-220-4561,35.10655785,128.9634704,2020-03-17
"부산광역시 사하구청",부산광역시 사하구 다대로 403,부산광역시 사하구 다대동 84-5,교통단속,1,200,360도전방향,30,,051-220-4561,35.06720415,128.9800777,2020-03-17
"부산광역시 사하구청",부산광역시 사하구 사하로 191,부산광역시 사하구 괴정동 963-3,교통단속,1,200,360도전방향,30,,051-220-4561,35.09885193,128.993443,2020-03-17
"부산광역시 사하구청",부산광역시 사하구 낙동남로 1411,부산광역시 사하구 하단동 526-5,교통단속,1,200,360도전방향,30,,051-220-4561,35.10648323,128.9660473,2020-03-17
"부산광역시 사하구청",부산광역시 사하구 낙동남로 1409,부산광역시 사하구 하단동 526-4,교통단속,3,200,360도전방향,30,,051-220-4561,35.10657537,128.9657961,2020-03-17
"부산광역시 사하구청",부산광역시 사하구 낙동남로 1410,부산광역시 사하구 하단동 589-5,교통단속,1,200,360도전방향,30,,051-220-4561,35.10588993,128.9658428,2020-03-17
"부산광역시 사하구청",부산광역시 사하구 낙동대로 181,부산광역시 사하구 괴정동 268-30,교통단속,1,200,360도전방향,30,,051-220-4561,35.10127765,128.9966204,2020-03-17
"부산광역시 사하구청",부산광역시 사하구 낙동대로 154,부산광역시 사하구 괴정동 310-4,교통단속,1,200,360도전방향,30,,051-220-4561,35.10305976,128.999132,2020-03-17
"부산광역시 사하구청",부산광역시 사하구 낙동대로 448,부산광역시 사하구 당리동 304-1,교통단속,1,200,360도전방향,30,,051-220-4561,35.10523654,128.969773,2020-03-17
"부산광역시 사하구청",부산광역시 사하구 감천로 55,부산광역시 사하구 감천동 648-6,교통단속,1,200,360도전방향,30,,051-220-4561,35.09051533,128.9987484,2020-03-17
"부산광역시 사하구청",부산광역시 사하구 낙동대로 308,부산광역시 사하구 괴정동 577-9,교통단속,1,200,360도전방향,30,,051-220-4561,35.09996065,128.9835083,2020-03-17
"부산광역시 사하구청",부산광역시 사하구 낙동대로 484,부산광역시 사하구 하단동 529-4,교통단속,1,200,360도전방향,30,,051-220-4561,35.10780405,128.9677083,2020-03-17
"부산광역시 사하구청",부산광역시 사하구 낙동남로1423번길 8,부산광역시 사하구 하단동 528-7,교통단속,1,200,360도전방향,30,,051-220-4561,35.10693301,128.9672921,2020-03-17
"부산광역시 사하구청",부산광역시 사하구 낙동남로1405번길 5,부산광역시 사하구 하단동 525-29,교통단속,1,200,360도전방향,30,,051-220-4561,35.10686765,128.9653169,2020-03-17
"부산광역시 사하구청",부산광역시 사하구 낙동남로 1417,부산광역시 사하구 하단동 526-9,교통단속,1,200,360도전방향,30,,051-220-4561,35.10656872,128.9666297,2020-03-17
"부산광역시 사하구청",부산광역시 사하구 낙동남로 1413,부산광역시 사하구 하단동 526-6,교통단속,3,200,360도전방향,30,,051-220-4561,35.10681916,128.966874,2020-03-17
"부산광역시 사하구청",부산광역시 사하구 사하로 199-1,부산광역시 사하구 괴정동 969-5,교통단속,1,200,360도전방향,30,,051-220-4561,35.09955721,128.9931774,2020-03-17
"부산광역시 사하구청",부산광역시 사하구 장평로 299,부산광역시 사하구 신평동 259-8,교통단속,1,200,360도전방향,30,,051-220-4561,35.09288772,128.9730812,2020-03-17
"부산광역시 사하구청",부산광역시 사하구 낙동대로 425,부산광역시 사하구 하단동 623-1,교통단속,5,200,360도전방향,30,,051-220-4561,35.10390345,128.971896,2020-03-17
"부산광역시 사하구청",부산광역시 사하구 사하로 195,부산광역시 사하구 괴정동 949-2,교통단속,1,200,360도전방향,30,,051-220-4561,35.09915018,128.9933479,2020-03-17
"부산광역시 사하구청",부산광역시 사하구 다대로429번길 20,부산광역시 사하구 다대동 120-10,교통단속,4,200,360도전방향,30,,051-220-4561,35.0617561,128.9816241,2020-03-17
"부산광역시 사하구청",,부산광역시 사하구 감천동 10-152,교통단속,4,200,360도전방향,30,,051-220-4561,35.09724019,129.0106538,2020-03-17
"부산광역시 사하구청",부산광역시 사하구 다대로 317,부산광역시 사하구 장림동 380-2,교통단속,2,200,361도전방향,30,,051-220-4561,35.0738461,128.9769117,2020-03-17
"부산광역시 사하구청",부산광역시 사하구 다대로 740,부산광역시 사하구 다대동 1548-5,교통단속,2,200,362도전방향,30,,051-220-4561,35.05027727,128.9607363,2020-03-17
"부산광역시 사하구청",부산광역시 사하구 낙동대로 205,부산광역시 사하구 괴정동 1010-15,교통단속,3,200,363도전방향,30,,051-220-4561,35.10026926,128.9942828,2020-03-17
"부산광역시 사하구청",부산광역시 사하구 다송로 58,부산광역시 사하구 다대동 120-19,교통단속,4,200,364도전방향,30,,051-220-4561,35.06249389,128.9829046,2020-03-17
"부산광역시 사하구청",부산광역시 사하구 감천항로 92,부산광역시 사하구 구평동 90-5,교통단속,3,200,365도전방향,30,,051-220-4561,35.0845221,128.9920298,2020-03-17
"부산광역시 사하구청",,부산광역시 사하구 감천동 387-9,재난재해,1,200,360도전방향,30,,051-220-4521,35.08224151,129.0062357,2020-03-17
"부산광역시 사하구청",,부산광역시 사하구 구평동 498,재난재해,1,200,360도전방향,30,,051-220-4521,35.04782268,129.0000582,2020-03-17
"부산광역시 사하구청",부산광역시 사하구 괴정로232번길 20,부산광역시 사하구 괴정동 555-42,재난재해,1,200,360도전방향,30,,051-220-4521,35.09598869,128.9864328,2020-03-17
"부산광역시 사하구청",부산광역시 사하구 몰운대1길 14,부산광역시 사하구 다대동 482-3,재난재해,3,200,360도전방향,30,,051-220-4521,35.04637931,128.9680126,2020-03-17
"부산광역시 사하구청",부산광역시 사하구 몰운대1길 14,부산광역시 사하구 다대동 482-3,재난재해,1,200,360도전방향,30,,051-220-4521,35.04637931,128.9680126,2020-03-17
"부산광역시 사하구청",,부산광역시 사하구 다대동 680-27,재난재해,1,200,360도전방향,30,,051-220-4521,35.05464067,128.9719689,2020-03-17
"부산광역시 사하구청",부산광역시 사하구 하신중앙로 236-1,부산광역시 사하구 하단동 870-312,재난재해,1,200,360도전방향,30,,051-220-4521,35.0997044,128.961547,2020-03-17
"부산광역시 사하구청",,부산광역시 사하구 구평동 481-3,재난재해,1,200,360도전방향,30,,051-220-4521,35.0529876,128.9957036,2020-03-17
"부산광역시 사하구청",,부산광역시 사하구 구평동 472-17,재난재해,1,200,360도전방향,30,,051-220-4521,35.05762248,128.9955078,2020-03-17
"부산광역시 사하구청",부산광역시 사하구 낙동남로 1361,부산광역시 사하구 하단동 870-89,재난재해,1,200,360도전방향,30,,051-220-4521,35.10651664,128.9607167,2020-03-17
"부산광역시 사하구청",부산광역시 사하구 을숙도대로 466,부산광역시 사하구 신평동 659-2,재난재해,1,200,360도전방향,30,,051-220-4521,35.08287925,128.9541776,2020-03-17
"부산광역시 사하구청",,부산광역시 사하구 다대동 681-9,재난재해,1,200,365도전방향,30,,051-220-4521,35.05444765,128.9713088,2020-03-17
"부산광역시 사하구청",,부산광역시 사하구 하단동 1173,재난재해,1,200,365도전방향,30,,051-220-4521,35.10124317,128.9561906,2020-03-17
"부산광역시 사하구청",,부산광역시 사하구 하단동 1162,재난재해,1,200,365도전방향,30,,051-220-4521,35.11409233,128.9590944,2020-03-17
"부산광역시 사하구청",,부산광역시 사하구 다대동 120-8,재난재해,1,200,365도전방향,30,,051-220-4521,35.05933355,128.9791174,2020-03-17
"부산광역시 사하구청",,부산광역시 사하구 다대동 1525,재난재해,1,200,365도전방향,30,,051-220-4521,35.06978614,128.9558998,2020-03-17
"부산광역시 사하구청",부산광역시 사하구 다대로 504,부산광역시 사하구 다대동 156,시설물관리,2,200,승강기문,30,,051-220-4671,35.06037627,128.9738897,2020-03-17
"부산광역시 사하구청",부산광역시 사하구 낙동남로1233번길 92,부산광역시 사하구 하단동 1150-2,시설물관리,2,200,승강기문,30,,051-220-4671,35.10825299,128.9474204,2020-03-17
"부산광역시 사하구청",부산광역시 사하구 하신번영로 378,부산광역시 사하구 하단동 474,시설물관리,2,200,승강기문,30,,051-220-4671,35.1145275,128.9610522,2020-03-17
