"관리기관명",소재지도로명주소,소재지지번주소,설치목적구분,카메라대수,카메라화소수,촬영방면정보,보관일수,설치년월,관리기관전화번호,위도,경도,데이터기준일자
"부산광역시_동구",부산광역시 동구 수성로 22,부산광역시 동구 수정동 519-9,어린이보호,1,200,360,30,2019-12,051-440-4701,35.13462362,129.042298,2020-03-26
"부산광역시_동구",부산광역시 동구 증산로 147,부산광역시 동구 범일동 1338-38,생활방범,1,200,360,30,2019-12,051-440-4701,35.13907041,129.0530417,2020-03-26
"부산광역시_동구",부산광역시 동구 충장대로289번길 59-2,부산광역시 동구 좌천동 1164-3,생활방범,1,200,360,30,2019-12,051-440-4701,35.12889661,129.0520623,2020-03-26
"부산광역시_동구",부산광역시 동구 수정공원남로 32,부산광역시 동구 수정동 1181-5,생활방범,1,200,360,30,2019-12,051-440-4701,35.12721507,129.038287,2020-03-26
"부산광역시_동구",부산광역시 동구 망양로756번길 15,부산광역시 동구 수정동 666-34,생활방범,1,200,360,30,2019-12,051-440-4701,35.13124771,129.0411299,2020-03-26
"부산광역시_동구",부산광역시 동구 좌천동역 2번출구,부산광역시 동구 좌천동역 2번출구,생활방범,1,200,360,30,2019-12,051-440-4701,35.133874,129.053487,2020-03-26
"부산광역시_동구",부산광역시 동구 수정중로38번길 2,부산광역시 동구 수정동 541-11,어린이보호,1,200,360,30,2019-12,051-440-4701,35.13130233,129.0455849,2020-03-26
"부산광역시_동구",부산광역시 동구 증산서로 18-1,부산광역시 동구 좌천동 887-2,어린이보호,1,200,360,30,2019-12,051-440-4701,35.136139,129.0486222,2020-03-26
"부산광역시_동구",부산광역시 동구 좌천로 17,부산광역시 동구 좌천동 867-8,생활방범,1,200,360,30,2019-12,051-440-4701,35.1345851,129.0473564,2020-03-26
"부산광역시_동구",부산광역시 동구 초량북로 18,부산광역시 동구 초량동 796-38,생활방범,1,200,360,30,2019-12,051-440-4701,35.1215145,129.0355527,2020-03-26
"부산광역시_동구",부산광역시 동구 초량로100번길 22,부산광역시 동구 초량동 828-32,생활방범,1,200,360,30,2019-12,051-440-4701,35.12004426,129.0332034,2020-03-26
"부산광역시_동구",부산광역시 동구 초량남로 18-1,부산광역시 동구 초량동 823-2,생활방범,1,200,360,30,2019-12,051-440-4701,35.1192785,129.0342419,2020-03-26
"부산광역시_동구",부산광역시 동구 중앙대로 371번길 54,부산광역시 동구 수정2동 546-13,어린이보호,1,200,360,30,2019-12,051-440-4701,35.1302068,129.0462343,2020-03-26
"부산광역시_동구",부산광역시 동구 망양로610번길 38,부산광역시 동구 초량6동 757-31,생활방범,1,200,360,30,2019-12,051-440-4701,35.12355788,129.0360504,2020-03-26
"부산광역시_동구",부산광역시 동구 정공단로 19,부산광역시 동구 좌천1동 514,어린이보호,1,200,360,30,2019-12,051-440-4701,35.13478855,129.0534388,2020-03-26
"부산광역시_동구",부산광역시 동구 범곡로 1,부산광역시 동구 범일1동 1375,어린이보호,1,200,360,30,2019-12,051-440-4701,35.1382609,129.0558785,2020-03-26
"부산광역시_동구",부산광역시 동구 중앙대로 541,부산광역시 동구 범일4동 26-4,생활방범,1,200,360,30,2019-05,051-440-4701,35.14151203,129.0559423,2020-03-26
"부산광역시_동구",부산광역시 동구 진시장로 10,부산광역시 동구 범일동 238-5,생활방범,1,200,360,30,2019-12,051-440-4701,35.13692604,129.0576919,2020-03-26
"부산광역시_동구",부산광역시 동구 망양로 914,부산광역시 동구 범일4동 1411,어린이보호,1,200,360,30,2019-12,051-440-4701,35.13958975,129.0511108,2020-03-26
"부산광역시_동구",부산광역시 동구 진시장로 10,부산광역시 동구 진시장로 10,생활방범,1,200,360,30,2019-12,051-440-4701,35.13692604,129.0576919,2020-03-26
"부산광역시_동구",부산광역시 동구 망양로685번길 8,부산광역시 동구 수정4동 1172-7,어린이보호,1,200,360,30,2019-12,051-440-4701,35.12708485,129.0404556,2020-03-26
"부산광역시_동구",부산광역시 동구 초량중로 141,부산광역시 동구 수정1동 365,생활방범,1,200,360,30,2019-12,051-440-4701,35.12401505,129.0418707,2020-03-26
"부산광역시_동구",부산광역시 동구 초량상로 35,부산광역시 동구 초량1동 994-14,어린이보호,1,200,360,30,2019-12,051-440-4701,35.115269,129.0363677,2020-03-26
"부산광역시_동구",부산광역시 동구 자성로133번길 46,부산광역시 동구 범일동 830-120,생활방범,1,200,360,30,2019-05,051-440-4701,35.14086981,129.0629738,2020-03-26
"부산광역시_동구",부산광역시 동구 성남오길 13,부산광역시 동구 좌천동 1141-5,생활방범,1,200,360,30,2019-12,051-440-4701,35.12680074,129.0517289,2020-03-26
"부산광역시_동구",부산광역시 동구 중동길 15,부산광역시 동구 초량동 1060-11,생활방범,1,200,360,30,2019-12,051-440-4701,35.11424897,129.0352879,2020-03-26
"부산광역시_동구",부산광역시 동구 성남이로38번길 25,부산광역시 동구 범일동 252-881,생활방범,1,200,360,30,2019-12,051-440-4701,35.13321294,129.0581338,2020-03-26
"부산광역시_동구",부산광역시 동구 안창로 81,부산광역시 동구 범일동 산 65-153,생활방범,1,200,360,30,2019-12,051-440-4701,35.14484927,129.0404207,2020-03-26
"부산광역시_동구",부산광역시 동구 수정공원로 91-2,부산광역시 동구 수정동 593-14,어린이보호,1,200,360,30,2019-12,051-440-4701,35.13320729,129.0405689,2020-03-26
"부산광역시_동구",부산광역시 동구 초량4동 827-325,부산광역시 동구 초량4동 827-325,어린이보호,1,200,360,30,2019-12,051-440-4701,35.121381,129.034753,2020-03-26
"부산광역시_동구",부산광역시 동구 증산서로23번길 11,부산광역시 동구 좌천동 919-32,생활방범,1,200,360,30,2019-12,051-440-4701,35.13668093,129.0481197,2020-03-26
"부산광역시_동구",부산광역시 동구 증산로 7-3,부산광역시 동구 좌천동 952-11,생활방범,1,200,360,30,2019-12,051-440-4701,35.13511643,129.0464175,2020-03-26
"부산광역시_동구",부산광역시 동구 초량중로 128-1,부산광역시 동구 수정동 392-8,생활방범,1,200,360,30,2019-12,051-440-4701,35.12278281,129.0414099783,2020-03-26
"부산광역시_동구",부산광역시 동구 중앙대로 471,부산광역시 동구 좌천1동 520-1,생활방범,1,200,360,30,2019-12,051-440-4701,35.13559015,129.0552712,2020-03-26
"부산광역시_동구",부산광역시 동구 범일로53번길 31-2,부산광역시 동구 범일2동 305,어린이보호,1,200,360,30,2019-12,051-440-4701,35.13477062,129.0576815,2020-03-26
"부산광역시_동구",부산광역시 동구 범상로 47,부산광역시 동구 범일동 산65-1,생활방범,1,200,360,30,2019-12,051-440-4701,35.14426133,129.0479191,2020-03-26
"부산광역시_동구",부산광역시 동구 성남이로37번길 1,부산광역시 동구 좌천동 68-161,어린이보호,1,200,360,30,2019-12,051-440-4701,35.13287969,129.0567432,2020-03-26
"부산광역시_동구",부산광역시 동구 성남이로 57,부산광역시 동구 좌천동 3-4,생활방범,1,200,360,30,2019-12,051-440-4701,35.13364424,129.0562973,2020-03-26
"부산광역시_동구",부산광역시 동구 범일로89번길 33,부산광역시 동구 범일2동 662,어린이보호,1,200,360,30,2019-12,051-440-4701,35.13909057,129.0586504,2020-03-26
"부산광역시_동구",부산광역시 동구 망양로875번길 12,부산광역시 동구 범일동 1435-144,생활방범,1,200,360,30,2019-12,051-440-4701,35.13918808,129.048007,2020-03-26
"부산광역시_동구",부산광역시 동구 수정서로 2,부산광역시 동구 수정2동 883,어린이보호,1,200,360,30,2019-12,051-440-4701,35.12968064,129.0425694,2020-03-26
"부산광역시_동구",부산광역시 동구 수정북로23번길 42,부산광역시 동구 수정동 663-3,어린이보호,1,200,360,30,2019-12,051-440-4701,35.13123148,129.0425204,2020-03-26
"부산광역시_동구",부산광역시 동구 망양로739번길 20,부산광역시 동구 수정2동 772-4,생활방범,1,200,360,30,2019-12,051-440-4701,35.13046063,129.0397061,2020-03-26
"부산광역시_동구",부산광역시 동구 수정중로37번길 17,부산광역시 동구 수정5동 537-16,어린이보호,1,200,360,30,2019-12,051-440-4701,35.1320587,129.0446242,2020-03-26
"부산광역시_동구",부산광역시 동구 홍곡중로38번길 3-5,부산광역시 동구 수정4동 1148-2,어린이보호,1,200,360,30,2019-12,051-440-4701,35.12713761,129.041817,2020-03-26
"부산광역시_동구",부산광역시 동구 수정공원로 129,부산광역시 동구 수정5동 494-95,어린이보호,1,200,360,30,2019-09,051-440-4701,35.13572901,129.0427995,2020-03-26
"부산광역시_동구",부산광역시 동구 진성로 54-5,부산광역시 동구 좌천1동 1009-6,어린이보호,1,200,360,30,2019-12,051-440-4701,35.13301042,129.0464701,2020-03-26
"부산광역시_동구",부산광역시 동구 증산로 9-11,부산광역시 동구 좌천4동 951-3,어린이보호,1,200,360,30,2019-12,051-440-4701,35.1351547,129.0466356,2020-03-26
"부산광역시_동구",부산광역시 동구 성북로1번길 38-1,부산광역시 동구 좌천4동 860-72,어린이보호,1,200,360,30,2019-05,051-440-4701,35.13505248,129.0489214,2020-03-26
"부산광역시_동구",부산광역시 동구 중앙대로180번길 13,부산광역시 동구 초량2동 1212-2,생활방범,1,200,360,30,2019-12,051-440-4701,35.1130674,129.0403867,2020-03-26
"부산광역시_동구",부산광역시 동구 영초길 150,부산광역시 동구 초량동 1064-63,어린이보호,1,200,360,30,2019-12,051-440-4701,35.11532677,129.0350734,2020-03-26
"부산광역시_동구",부산광역시 동구 초량상로89번길 27,부산광역시 동구 초량2동 931-53,어린이보호,1,200,360,30,2019-12,051-440-4701,35.11968573,129.0373798,2020-03-26
"부산광역시_동구",부산광역시 동구 초량상로79번가길 10,부산광역시 동구 초량2동 954-17,어린이보호,1,200,360,30,2019-12,051-440-4701,35.11874426,129.0376328,2020-03-26
"부산광역시_동구",부산광역시 동구 초량중로 76,부산광역시 동구 초량동 232-3,어린이보호,1,200,360,30,2019-09,051-440-4701,35.1185768,129.0392488,2020-03-26
"부산광역시_동구",부산광역시 동구 초량로13번길 65,부산광역시 동구 초량동 465-7,어린이보호,1,200,360,30,2019-12,051-440-4701,35.11615233,129.0389282,2020-03-26
"부산광역시_동구",부산광역시 동구 초량상로63번가길 13,부산광역시 동구 초량1동 988-9,생활방범,1,200,360,30,2019-12,051-440-4701,35.11800221,129.0363157,2020-03-26
"부산광역시_동구",부산광역시 동구 성남칠길 22,부산광역시 동구 좌천동 1164-8 철도부지,생활방범,1,200,360,30,2019-05,051-440-4701,35.12641913,129.0506356,2020-03-26
"부산광역시_동구",부산광역시 동구 성남오길 51,부산광역시 동구 좌천동 1164-8 철도부지,생활방범,1,200,360,30,2019-05,051-440-4701,35.1281567,129.0515876,2020-03-26
"부산광역시_동구",부산광역시 동구 구봉로 46,부산광역시 동구 초량6동 744,어린이보호,1,200,360,30,2019-06,051-440-4701,35.12451542,129.0367718,2020-03-26
"부산광역시_동구",부산광역시 동구 홍곡남로 52,부산광역시 동구 초량6동 1176-4,생활방범,1,200,360,30,2019-06,051-440-4701,35.1258269,129.0353297,2020-03-26
"부산광역시_동구",부산광역시 동구 초량중로 23,부산광역시 동구 초량1동 1056-5,생활방범,1,200,360,30,2019-06,051-440-4701,35.11424186,129.0367836,2020-03-26
"부산광역시_동구",부산광역시 동구 초량상로 60-2,부산광역시 동구 초량2동 1015-1,생활방범,1,200,360,30,2019-06,051-440-4701,35.117226,129.037568,2020-03-26
"부산광역시_동구",부산광역시 동구 홍곡중로 23,부산광역시 동구 수정1동 1011-134,생활방범,1,200,360,30,2019-06,051-440-4701,35.12579232,129.0416474,2020-03-26
"부산광역시_동구",부산광역시 동구 망양로525번길 4,부산광역시 동구 초량6동 851-5,생활방범,1,200,360,30,2019-12,051-440-4701,35.11896403,129.0294782,2020-03-26
"부산광역시_동구",부산광역시 동구 진성로 75번길 11,부산광역시 동구 수정5동 525-74,생활방범,1,200,360,30,2019-06,051-440-4701,35.1337207,129.0442208,2020-03-26
"부산광역시_동구",부산광역시 동구 수정공원북로 20,부산광역시 동구 수정5동 404-3,생활방범,1,200,360,30,2019-06,051-440-4701,35.13783675,129.0469156,2020-03-26
"부산광역시_동구",부산광역시 동구 진성로 28,부산광역시 동구 수정2동 464-2,어린이보호,1,200,360,30,2019-06,051-440-4701,35.13100427,129.0470122,2020-03-26
"부산광역시_동구",부산광역시 동구 수정북로34번길 5,부산광역시 동구 수정5동 537-3,생활방범,1,200,360,30,2019-06,051-440-4701,35.1333705,129.0435415,2020-03-26
"부산광역시_동구",부산광역시 동구 수정공원로 146,부산광역시 동구 수정5동 440-21,생활방범,1,200,360,30,2019-05,051-440-4701,35.13618717,129.0444872,2020-03-26
"부산광역시_동구",부산광역시 동구 수정중로 12,부산광역시 동구 수정2동 812-10,생활방범,1,200,360,30,2019-06,051-440-4701,35.12955534,129.0440142,2020-03-26
"부산광역시_동구",부산광역시 동구 증산서로 28,부산광역시 동구 좌천4동 897-7,생활방범,1,200,360,30,2019-05,051-440-4701,35.13707102,129.0491388,2020-03-26
"부산광역시_동구",부산광역시 동구 범곡로33번길 40,부산광역시 동구 범일1동 1320-61,생활방범,1,200,360,30,2019-12,051-440-4701,35.13967074,129.0542021,2020-03-26
"부산광역시_동구",부산광역시 동구 좌천서로 13,부산광역시 동구 좌천4동 850-22,생활방범,1,200,360,30,2019-05,051-440-4701,35.13357953,129.0473487,2020-03-26
"부산광역시_동구",부산광역시 동구 진시장로20번길 3,부산광역시 동구 범일2동 290-1,생활방범,1,200,360,30,2019-06,051-440-4701,35.13691806,129.0587975,2020-03-26
"부산광역시_동구",부산광역시 동구 범일로90번길 6,부산광역시 동구 범일2동 629-2,생활방범,1,200,360,30,2019-06,051-440-4701,35.1378406,129.0600845,2020-03-26
"부산광역시_동구",부산광역시 동구 조방로42번길 12-1,부산광역시 동구 범일2동 830-24,생활방범,1,200,360,30,2019-06,051-440-4701,35.14090448,129.0619961,2020-03-26
"부산광역시_동구",부산광역시 동구 자성공원로 26,부산광역시 동구 범일동 584-1,생활방범,1,200,360,30,2019-06,051-440-4701,35.13710008,129.062295,2020-03-26
"부산광역시_동구",부산광역시 동구 자성로133번길 16,부산광역시 동구 범일2동 830-31,생활방범,1,200,360,30,2019-06,051-440-4701,35.13884533,129.0652221,2020-03-26
"부산광역시_동구",부산광역시 동구 망양로 893-1,부산광역시 동구 범일4동 1445-49,생활방범,1,200,360,30,2019-06,051-440-4701,35.14028479,129.0488068,2020-03-26
"부산광역시_동구",부산광역시 동구 범곡로 35,부산광역시 동구 범일4동 1482-6,생활방범,1,200,360,30,2019-12,051-440-4701,35.14065456,129.0548544,2020-03-26
"부산광역시_동구",부산광역시 동구 범내남로 17,부산광역시 동구 범일4동 1456-34,생활방범,1,200,360,30,2019-06,051-440-4701,35.14113917,129.050294,2020-03-26
"부산광역시_동구",부산광역시 동구 범내로 7,부산광역시 동구 범일4동 1492-9,생활방범,1,200,360,30,2019-06,051-440-4701,35.14200456,129.0517682,2020-03-26
"부산광역시_동구",부산광역시 동구 증산동로 29,부산광역시 동구 좌천1동 783-1,어린이보호,1,200,360,30,2019-06,051-440-4701,35.13484472,129.0509742,2020-03-26
"부산광역시_동구",부산광역시 동구 증산동로 48,부산광역시 동구 좌천동 745-4,생활방범,1,200,360,30,2019-12,051-440-4701,35.1359456,129.0524196,2020-03-26
"부산광역시_동구",부산광역시 동구 성남일로 18,부산광역시 동구 좌천3동 37-5,생활방범,1,200,360,30,2019-06,051-440-4701,35.13258543,129.0556037,2020-03-26
"부산광역시_동구",부산광역시 동구 수정공원로 99-11,부산광역시 동구 수정5동 588-3,생활방범,1,200,360,30,2019-06,051-440-4701,35.13414457,129.0403509,2020-03-26
"부산광역시_동구",부산광역시 동구 망양로533번길 46-1,부산광역시 동구 초량동 850-64,생활방범,1,200,360,30,2019-06,051-440-4701,35.11818814,129.0282393,2020-03-26
"부산광역시_동구",부산광역시 동구 성북로36번길 46,부산광역시 동구 범일동 산81-28,생활방범,1,200,90,30,2019-06,051-440-4701,35.13740283,129.0504065,2020-03-26
"부산광역시_동구",부산광역시 동구 성북로36번길 46,부산광역시 동구 범일동 산81-28,생활방범,1,200,360,30,2019-06,051-440-4701,35.13740283,129.0504065,2020-03-26
"부산광역시_동구",부산광역시 동구 성북로52번길 21,부산광역시 동구 범일4동 1411-3,생활방범,1,200,360,30,2019-06,051-440-4701,35.13849156,129.049973,2020-03-26
"부산광역시_동구",부산광역시 동구 수정공원남로 57,부산광역시 동구 수정동 1161-7,생활방범,1,200,360,30,2019-06,051-440-4701,35.12803069,129.0407995,2020-03-26
"부산광역시_동구",부산광역시 동구 증산로 67-1,부산광역시 동구 좌천동 810-6,생활방범,1,200,360,30,2019-12,051-440-4701,35.13360085,129.0507762,2020-03-26
"부산광역시_동구",부산광역시 동구 망양로828번길 11,부산광역시 동구 수정5동 431-3,어린이보호,1,200,360,30,2019-12,051-440-4701,35.13490803,129.0453109,2020-03-26
"부산광역시_동구",부산광역시 동구 중앙대로361번길 23,부산광역시 동구 수정동 264-5,어린이보호,1,200,360,30,2019-12,051-440-4701,35.12858417,129.0466664,2020-03-26
"부산광역시_동구",부산광역시 동구 초량로 21,부산광역시 동구 초량동 197-24,어린이보호,1,200,360,30,2019-12,051-440-4701,35.11949485,129.0397266,2020-03-26
"부산광역시_동구",부산광역시 동구 초량동 1170,부산광역시 동구 초량동 1170,생활방범,1,200,360,30,2019-12,051-440-4701,35.122051,129.044205,2020-03-26
"부산광역시_동구",부산광역시 동구 좌천로 41,부산광역시 동구 좌천동 834-3,어린이보호,1,200,360,30,2019-12,051-440-4701,35.1325041,129.0478483,2020-03-26
"부산광역시_동구",부산광역시 동구 진성로36번길 7,부산광역시 동구 좌천동 694-2,어린이보호,1,200,360,30,2019-12,051-440-4701,35.13148528,129.0473446,2020-03-26
"부산광역시_동구",부산광역시 동구 초량상로51번길 24,부산광역시 동구 초량동 994-231,어린이보호,1,200,360,30,2019-12,051-440-4701,35.11714996,129.0359786,2020-03-26
"부산광역시_동구",부산광역시 동구 정공단로11번가길 21-2,부산광역시 동구 좌천동 768-27,어린이보호,1,200,360,30,2019-12,051-440-4701,35.1342143,129.0520813,2020-03-26
"부산광역시_동구",부산광역시 동구 초량상로157번길 31,부산광역시 동구 수정동 1009-2,어린이보호,1,200,360,30,2019-12,051-440-4701,35.12534868,129.0433738,2020-03-26
"부산광역시_동구",부산광역시 동구 망양로730번길 1,부산광역시 동구 수정동 1190,어린이보호,1,200,360,30,2019-12,051-440-4701,35.12959589,129.0413958,2020-03-26
"부산광역시_동구",부산광역시 동구 자성로75번길 22,부산광역시 동구 범일동 321-54,생활방범,1,200,360,30,2019-12,051-440-4701,35.13554641,129.0601803,2020-03-26
"부산광역시_동구",부산광역시 동구 초량상로79번길 30,부산광역시 동구 초량동 931-2,어린이보호,1,200,360,30,2019-12,051-440-4701,35.11943794,129.0368955,2020-03-26
"부산광역시_동구",부산광역시 동구 증산로113번길 7,부산광역시 동구 좌천동 786-1,어린이보호,1,200,360,30,2019-12,051-440-4701,35.1365945,129.0532253,2020-03-26
"부산광역시_동구",부산광역시 동구 구봉중길 6,부산광역시 동구 초량동 1176-8,어린이보호,1,200,360,30,2019-12,051-440-4701,35.1262854,129.0345203,2020-03-26
"부산광역시_동구",부산광역시 동구 중앙대로 513,부산광역시 동구 범일동 83-1,어린이보호,1,200,360,30,2019-12,051-440-4701,35.1391023,129.0561516,2020-03-26
"부산광역시_동구",부산광역시 동구 증산동로 49-16,부산광역시 동구 좌천동 745-1,어린이보호,1,200,360,30,2019-12,051-440-4701,35.1368086,129.0521685,2020-03-26
"부산광역시_동구",부산광역시 동구 정공단로47번길 9,부산광역시 동구 범일동 1560-6,어린이보호,1,200,360,30,2019-12,051-440-4701,35.13686406,129.0551848,2020-03-26
"부산광역시_동구",부산광역시 동구 수정공원상로 60,부산광역시 동구 수정동 산35-43,생활방범,1,200,360,30,2019-12,051-440-4701,35.12787924,129.0367328,2020-03-26
"부산광역시_동구",부산광역시 동구 초량로75번길 19,부산광역시 동구 초량동 824-38,어린이보호,1,200,360,30,2019-12,051-440-4701,35.11948576,129.0338344,2020-03-26
"부산광역시_동구",부산광역시 동구 수정공원상로 12,부산광역시 동구 수정동 1190,어린이보호,1,200,360,30,2019-12,051-440-4701,35.12838459,129.0401194,2020-03-26
"부산광역시_동구",부산광역시 동구 초량상로37번길 17,부산광역시 동구 초량동 994-847,어린이보호,1,200,360,30,2019-12,051-440-4701,35.11590231,129.0355747,2020-03-26
"부산광역시_동구",부산광역시 동구 중앙대로236번길 10,부산광역시 동구 초량동 1192,생활방범,1,200,360,30,2019-12,051-440-4701,35.11745664,129.042387,2020-03-26
"부산광역시_동구",부산광역시 동구 수정중로17번길 4-2,부산광역시 동구 수정동 658-32,어린이보호,1,200,360,30,2019-12,051-440-4701,35.1304063,129.0437956,2020-03-26
"부산광역시_동구",부산광역시 동구 수정공원로 85-1,부산광역시 동구 수정동 600-59,어린이보호,1,200,360,30,2019-12,051-440-4701,35.13279498,129.0406507,2020-03-26
"부산광역시_동구",부산광역시 동구 범곡남로 24,부산광역시 동구 범일동 1358-1,어린이보호,1,200,360,30,2019-12,051-440-4701,35.13818562,129.0539893,2020-03-26
"부산광역시_동구",부산광역시 동구 망양로 874,부산광역시 동구 좌천동 906-19,어린이보호,1,200,360,30,2019-12,051-440-4701,35.1384513,129.0480725,2020-03-26
"부산광역시_동구",부산광역시 동구 범내남로26번길 13,부산광역시 동구 범일동 1623-4,어린이보호,1,200,360,30,2019-12,051-440-4701,35.142069,129.0503041,2020-03-26
"부산광역시_동구",부산광역시 동구 능풍길 8-2,부산광역시 동구 좌천동 1113,어린이보호,1,200,360,30,2019-12,051-440-4701,35.13233548,129.0473746,2020-03-26
"부산광역시_동구",부산광역시 동구 성남로47번길 2,부산광역시 동구 좌천동 1067,생활방범,1,200,360,30,2019-12,051-440-4701,35.13110302,129.0539561,2020-03-26
"부산광역시_동구",부산광역시 동구 증산북로 18,부산광역시 동구 범일동 1347-15,생활방범,1,200,360,30,2019-12,051-440-4701,35.13852159,129.0520318,2020-03-26
"부산광역시_동구",부산광역시 동구 망양로 755-1,부산광역시 동구 수정동 696-40,생활방범,1,200,360,30,2019-12,051-440-4701,35.13156508,129.0402646,2020-03-26
"부산광역시_동구",부산광역시 동구 중앙대로221번길 22,부산광역시 동구 초량동 393-2,생활방범,1,200,360,30,2019-12,051-440-4701,35.117349,129.0393616,2020-03-26
"부산광역시_동구",부산광역시 동구 대영로243번길 107,부산광역시 동구 초량동 1206-1,생활방범,1,200,360,30,2019-12,051-440-4701,35.1166324,129.039992,2020-03-26
"부산광역시_동구",부산광역시 동구 중앙대로203번길 10,부산광역시 동구 초량동 1086-1,생활방범,1,200,360,30,2019-12,051-440-4701,35.11575419,129.0392385,2020-03-26
"부산광역시_동구",부산광역시 동구 망양로 488,부산광역시 동구 초량동 865-34,어린이보호,1,200,360,30,2019-12,051-440-4701,35.117481,129.0332988,2020-03-26
"부산광역시_동구",부산광역시 동구 망양로600번가길 16-11,부산광역시 동구 초량동 793-192,생활방범,1,200,360,30,2019-12,051-440-4701,35.12357805,129.0354937,2020-03-26
"부산광역시_동구",부산광역시 동구 범내남로28,부산광역시 동구 범일동 1438-17,어린이보호,1,200,360,30,2019-12,051-440-4701,35.14182847,129.0498197,2020-03-26
"부산광역시_동구",부산광역시 동구 안창로 51,부산광역시 동구 범일동 1542-8,어린이보호,1,200,360,30,2019-12,051-440-4701,35.14562626,129.0439378,2020-03-26
"부산광역시_동구",부산광역시 동구 조방로 25,부산광역시 동구 범일동 830-266,어린이보호,1,200,360,30,2019-12,051-440-4701,35.13926689,129.061677,2020-03-26
"부산광역시_동구",부산광역시 동구 자성로90번길 21,부산광역시 동구 범일동 330-277,어린이보호,1,200,360,30,2019-12,051-440-4701,35.13493618,129.0629952,2020-03-26
"부산광역시_동구",부산광역시 동구 영초윗길42번길 7,부산광역시 동구 초량동 865-6,어린이보호,1,200,360,30,2019-12,051-440-4701,35.11847371,129.033138,2020-03-26
"부산광역시_동구",부산광역시 동구 조방로 53,부산광역시 동구 범일동 834-54,어린이보호,1,200,360,30,2019-12,051-440-4701,35.14095434,129.0599129,2020-03-26
"부산광역시_동구",부산광역시 동구 망양로735번길 10,부산광역시 동구 수정동 1164-16,어린이보호,1,200,360,30,2019-12,051-440-4701,35.12954361,129.0404336,2020-03-26
"부산광역시_동구",부산광역시 동구 구봉로 61,부산광역시 동구 초량동 754-1135,어린이보호,1,200,360,30,2019-12,051-440-4701,35.12489614,129.035781,2020-03-26
"부산광역시_동구",부산광역시 동구 고관로 79,부산광역시 동구 수정동 327-8,어린이보호,1,200,360,30,2019-12,051-440-4701,35.12619501,129.0444874,2020-03-26
"부산광역시_동구",부산광역시 동구 수정로 11,부산광역시 동구 수정동 119-2,어린이보호,1,200,360,30,2019-12,051-440-4701,35.1274785,129.0455418,2020-03-26
"부산광역시_동구",부산광역시 동구 증산로 114,부산광역시 동구 좌천동 709-21,어린이보호,1,200,360,30,2019-12,051-440-4701,35.13633993,129.0539956,2020-03-26
"부산광역시_동구",부산광역시 동구 대영로239번길 48,부산광역시 동구 초량동 576-1,어린이보호,1,200,360,30,2019-12,051-440-4701,35.11407945,129.0378675,2020-03-26
"부산광역시_동구",부산광역시 동구 성북로22번길 14,부산광역시 동구 좌천동 880-108,어린이보호,1,200,360,30,2019-12,051-440-4701,35.135824,129.0506481,2020-03-26
"부산광역시_동구",부산광역시 동구 망양로756번길 31,부산광역시 동구 수정동 664-57,어린이보호,1,200,360,30,2019-12,051-440-4701,35.13066747,129.0417648,2020-03-26
"부산광역시_동구",부산광역시 동구 망양로593번길 30,부산광역시 동구 초량동 794-337,어린이보호,1,200,360,30,2019-12,051-440-4701,35.12320484,129.0334618,2020-03-26
"부산광역시_동구",부산광역시 동구 증산북로9번길 27,부산광역시 동구 범일동 1471-17,어린이보호,1,200,360,30,2019-12,051-440-4701,35.13943159,129.0519362,2020-03-26
"부산광역시_동구",부산광역시 동구 증산로 47,부산광역시 동구 좌천동 819-86,어린이보호,1,200,360,30,2019-12,051-440-4701,35.1332102,129.049582,2020-03-26
"부산광역시_동구",부산광역시 동구 증산로25번길 25-1,부산광역시 동구 좌천동 860-135,어린이보호,1,200,360,30,2019-12,051-440-4701,35.13377362,129.0486612,2020-03-26
"부산광역시_동구",부산광역시 동구 진성로9번길 16,부산광역시 동구 수정동 210-6,어린이보호,1,200,360,30,2019-12,051-440-4701,35.12924466,129.0476833,2020-03-26
"부산광역시_동구",부산광역시 동구 홍곡남로 16-1,부산광역시 동구 수정동 1043-45,어린이보호,1,200,360,30,2019-12,051-440-4701,35.12512261,129.0390333,2020-03-26
"부산광역시_동구",부산광역시 동구 수성로 37-1,부산광역시 동구 수정동 445-58,어린이보호,1,200,360,30,2019-12,051-440-4701,35.13533265,129.0436453,2020-03-26
"부산광역시_동구",부산광역시 동구 수정북로34번길 42-3,부산광역시 동구 수정동 537-4,어린이보호,1,200,360,30,2019-12,051-440-4701,35.13247277,129.044368,2020-03-26
"부산광역시_동구",부산광역시 동구 자성로 99,부산광역시 동구 범일동 590-5,생활방범,1,200,360,30,2019-12,051-440-4701,35.13574371,129.0604485,2020-03-26
"부산광역시_동구",부산광역시 동구 범곡로53번길 11,부산광역시 동구 범일동 1461-7,생활방범,1,200,360,30,2019-12,051-440-4701,35.14063551,129.0530021,2020-03-26
"부산광역시_동구",부산광역시 동구 성남이로60번길 22,부산광역시 동구 범일동 252-137,어린이보호,1,200,360,30,2019-12,051-440-4701,35.13443838,129.0570808,2020-03-26
"부산광역시_동구",부산광역시 동구 고관로 127,부산광역시 동구 수정동 235-1,어린이보호,1,200,360,30,2019-12,051-440-4701,35.12987561,129.0474622,2020-03-26
"부산광역시_동구",부산광역시 동구 홍곡남로 8-7,부산광역시 동구 수정동 1042-1,어린이보호,1,200,360,30,2019-12,051-440-4701,35.12510147,129.0396471,2020-03-26
"부산광역시_동구",부산광역시 동구 망양로579번길 9,부산광역시 동구 초량동 794-298,생활방범,1,200,360,30,2019-12,051-440-4701,35.1225882,129.0334182,2020-03-26
"부산광역시_동구",부산광역시 동구 구봉북길9번길 1,부산광역시 동구 초량동 754-1343,생활방범,1,200,360,30,2019-12,051-440-4701,35.126539,129.035175,2020-03-26
"부산광역시_동구",부산광역시 동구 좌천고가교,부산광역시 동구 좌천고가교,생활방범,1,200,360,30,2019-12,051-440-4701,35.132575,129.052889,2020-03-26
"부산광역시_동구",부산광역시 동구 수정공원상로 80-6,부산광역시 동구 수정동 1178-60,생활방범,1,200,360,30,2019-01,051-440-4701,35.1283491,129.0385873,2020-03-26
"부산광역시_동구",부산광역시 동구 초량중로 110,부산광역시 동구 초량동 65-6,생활방범,1,200,360,30,2019-01,051-440-4701,35.12134615,129.0406722,2020-03-26
"부산광역시_동구",부산광역시 동구 영초윗길26번길 13,부산광역시 동구 초량동 994-334,생활방범,1,200,360,30,2019-01,051-440-4701,35.11773009,129.0351332,2020-03-26
"부산광역시_동구",부산광역시 동구 망양로931번가길 1,부산광역시 동구 범일동 1453-17,생활방범,1,200,360,30,2019-01,051-440-4701,35.14099107,129.0511635,2020-03-26
"부산광역시_동구",부산광역시 동구 초량중로 38,부산광역시 동구 초량동 554-4,생활방범,1,200,360,30,2019-12,051-440-4701,35.11515115,129.0375871,2020-03-26
"부산광역시_동구",부산광역시 동구 대영로239번길 59,부산광역시 동구 초량동 585-12,생활방범,1,200,360,30,2019-12,051-440-4701,35.11473647,129.0380243,2020-03-26
"부산광역시_동구",부산광역시 동구 망양로735번길 28,부산광역시 동구 수정동 1167-8,생활방범,1,200,360,30,2019-12,051-440-4701,35.12885882,129.0399996,2020-03-26
"부산광역시_동구",부산광역시 동구 자성로75번길8,부산광역시 동구 범일동 252-412,생활방범,1,200,360,30,2019-12,051-440-4701,35.13494777,129.0601959,2020-03-26
"부산광역시_동구",부산광역시 동구 성남이로 15,부산광역시 동구 좌천동 68-259,생활방범,1,200,360,30,2019-12,051-440-4701,35.13198756,129.056848,2020-03-26
"부산광역시_동구",부산광역시 동구 초량상로 92,부산광역시 동구 초량동 283-8,쓰레기단속,1,41,360,30,2019-06,051-440-4701,35.11973153,129.0389428,2020-03-26
"부산광역시_동구",부산광역시 동구 대영로239번길 45,부산광역시 동구 초량동 586-9,쓰레기단속,1,41,360,30,2019-09,051-440-4701,35.114148,129.0376919,2020-03-26
"부산광역시_동구",부산광역시 동구 범일로89번길 22,부산광역시 동구 범일로89번길 22,쓰레기단속,1,200,360,30,2019-05,051-440-4701,35.13857739,129.0589402,2020-03-26
"부산광역시_동구",부산광역시 동구 중앙대로195번가길 7,부산광역시 동구 초량동 537,쓰레기단속,1,200,360,30,2019-07,051-440-4701,35.11544445,129.0381516,2020-03-26
"부산광역시_동구",부산광역시 동구 초량남로 16,부산광역시 동구 초량동 824-152,쓰레기단속,1,200,360,30,2019-05,051-440-4701,35.11955237,129.0343757,2020-03-26
"부산광역시_동구",부산광역시 동구 초량로 68-1,부산광역시 동구 초량동 814-24,쓰레기단속,1,41,360,30,2019-06,051-440-4701,35.1199798,129.0353972,2020-03-26
"부산광역시_동구",부산광역시 동구 수정중로20번길 20,부산광역시 동구 수정동 802-4,쓰레기단속,1,200,360,30,2019-05,051-440-4701,35.13033462,129.0450429,2020-03-26
"부산광역시_동구",부산광역시 동구 영초윗길 40,부산광역시 동구 수정동 1181-1,쓰레기단속,1,200,360,30,2019-05,051-440-4701,35.11818347,129.0336792,2020-03-26
"부산광역시_동구",부산광역시 동구 망양로718번길 11,부산광역시 동구 수정동 872-61,쓰레기단속,1,41,360,30,2019-04,051-440-4701,35.1289611,129.0427006,2020-03-26
"부산광역시_동구",부산광역시 동구 고관로159번길 1-2,부산광역시 동구 좌천동 681-26,쓰레기단속,1,41,360,30,2019-06,051-440-4701,35.13151199,129.0502412,2020-03-26
"부산광역시_동구",부산광역시 동구 범일일길 31,부산광역시 동구 범일동 664-25,쓰레기단속,1,200,360,30,2019-07,051-440-4701,35.1398137,129.0583087,2020-03-26
"부산광역시_동구",부산광역시 동구 초량상로63번가길 33,부산광역시 동구 초량동 931-43,쓰레기단속,1,41,360,30,2019-07,051-440-4701,35.11878653,129.0361905,2020-03-26
"부산광역시_동구",부산광역시 동구 증산로 181,부산광역시 동구 범일동 1420-6,쓰레기단속,1,41,360,30,2019-04,051-440-4701,35.13974818,129.0513342,2020-03-26
"부산광역시_동구",부산광역시 동구 망양로718번길 17,부산광역시 동구 수정동 872-14,쓰레기단속,1,200,360,30,2019-05,051-440-4701,35.12909756,129.0429454,2020-03-26
"부산광역시_동구",부산광역시 동구 수정공원로 36,부산광역시 동구 수정동 773-1,쓰레기단속,1,41,360,30,2019-10,051-440-4701,35.13020218,129.0394277,2020-03-26
"부산광역시_동구",부산광역시 동구 수정북로23번길 1,부산광역시 동구 수정동 625-1,쓰레기단속,1,41,360,30,2019-04,051-440-4701,35.132322,129.0433559,2020-03-26
"부산광역시_동구",부산광역시 동구 구봉로 61,부산광역시 동구 초량동 754-1135,쓰레기단속,1,200,360,30,2019-05,051-440-4701,35.12489614,129.035781,2020-03-26
"부산광역시_동구",부산광역시 동구 충장대로289번길 17,부산광역시 동구 좌천동 1140-6,쓰레기단속,1,200,360,30,2019-05,051-440-4701,35.12698647,129.0518301,2020-03-26
"부산광역시_동구",부산광역시 동구 수정공원로 114-1,부산광역시 동구 수정동 515-3,쓰레기단속,1,200,360,30,2019-05,051-440-4701,35.13499475,129.0414516,2020-03-26
"부산광역시_동구",부산광역시 동구 수성남로 33,부산광역시 동구 수정동 599-128,쓰레기단속,1,41,360,30,2019-06,051-440-4701,35.1332086,129.0415606,2020-03-26
"부산광역시_동구",부산광역시 동구 범곡로33번나길 2,부산광역시 동구 범일동 1311-95,쓰레기단속,1,200,360,30,2019-05,051-440-4701,35.14011101,129.0548100130,2020-03-26
"부산광역시_동구",부산광역시 동구 진성로 65-1,부산광역시 동구 수정동 453-17,쓰레기단속,1,41,360,30,2019-06,051-440-4701,35.13354581,129.0452899541,2020-03-26
"부산광역시_동구",부산광역시 동구 범내로 10,부산광역시 동구 범일동 1513-7,쓰레기단속,1,41,360,30,2019-10,051-440-4701,35.14229166,129.0516306,2020-03-26
"부산광역시_동구",부산광역시 동구 망양로870번길 1,부산광역시 동구 좌천동 906-8,쓰레기단속,1,41,360,30,2019-10,051-440-4701,35.1381952,129.0479748,2020-03-26
"부산광역시_동구",부산광역시 동구 성남일로 8,부산광역시 동구 좌천동 68-319,쓰레기단속,1,41,360,30,2019-11,051-440-4701,35.13181213,129.0557159,2020-03-26
"부산광역시_동구",부산광역시 동구 범내남로 42,부산광역시 동구 범일동 1510-9,쓰레기단속,1,200,360,30,2019-05,051-440-4701,35.14299366,129.0499806,2020-03-26
"부산광역시_동구",부산광역시 동구 망양로886번길 15,부산광역시 동구 범일동 1430-19,쓰레기단속,1,200,360,30,2019-05,051-440-4701,35.13876413,129.0492031,2020-03-26
"부산광역시_동구",부산광역시 동구 증산로146번길 14,부산광역시 동구 범일동 1327-4,쓰레기단속,1,41,360,30,2019-10,051-440-4701,35.13937503,129.0539972,2020-03-26
"부산광역시_동구",부산광역시 동구 범곡서로17번길 3-1,부산광역시 동구 범일동 1458-34,쓰레기단속,1,41,360,30,2019-10,051-440-4701,35.14071631,129.0518499648,2020-03-26
"부산광역시_동구",부산광역시 동구 수정공원남로 50,부산광역시 동구 수정동 1171-2,쓰레기단속,1,41,360,30,2019-06,051-440-4701,35.12778837,129.0402055,2020-03-26
"부산광역시_동구",부산광역시 동구 중앙대로296번길 3-5,부산광역시 동구 초량동 1158-5,쓰레기단속,1,200,360,30,2019-05,051-440-4701,35.12327606,129.0446514,2020-03-26
"부산광역시_동구",부산광역시 동구 홍곡로45번길 42,부산광역시 동구 초량동 1043-58,쓰레기단속,1,41,360,30,2019-07,051-440-4701,35.12493968,129.0387655,2020-03-26
"부산광역시_동구",부산광역시 동구 범상로39번길 20,부산광역시 동구 범일동 1506,쓰레기단속,1,200,360,30,2019-05,051-440-4701,35.14281006,129.0484752,2020-03-26
"부산광역시_동구",부산광역시 동구 영초길247번길 26,부산광역시 동구 초량동 865-42,쓰레기단속,1,41,360,30,2019-07,051-440-4701,35.11785109,129.0339385,2020-03-26
"부산광역시_동구",부산광역시 동구 성남일로 22,부산광역시 동구 범일동 68-820,쓰레기단속,1,41,360,30,2019-07,051-440-4701,35.1329813,129.0553857,2020-03-26
"부산광역시_동구",부산광역시 동구 중앙대로 206,부산광역시 동구 초량동 1173,재난재해,1,41,360,30,2019-06,051-440-4701,35.11760617,129.0450624,2020-03-26
"부산광역시_동구",부산광역시 동구 중앙대로 206,부산광역시 동구 초량동 1172,재난재해,1,41,360,30,2019-06,051-440-4701,35.11760617,129.0450624,2020-03-26
"부산광역시_동구",부산광역시 동구 중앙대로 331,부산광역시 동구 초량동 1143-1,재난재해,1,130,360,30,2019-12,051-440-4701,35.1259117,129.0452984,2020-03-26
"부산광역시_동구",부산광역시 동구 중앙대로 331,부산광역시 동구 초량동 1143-1,재난재해,1,130,360,30,2019-12,051-440-4701,35.1259117,129.0452984,2020-03-26
"부산광역시_동구",부산광역시 동구 진시장로4,부산광역시 동구 범일동 220-2,재난재해,1,41,360,30,2019-06,051-440-4701,35.1369303,129.0570163,2020-03-26
"부산광역시_동구",부산광역시 동구 진시장로4,부산광역시 동구 범일동 220-2,재난재해,1,41,360,30,2019-06,051-440-4701,35.1369303,129.0570163,2020-03-26
"부산광역시_동구",부산광역시 동구 부산진구 가야동 엄광로 176,부산광역시 동구 부산진구 가야동 464-121,재난재해,1,200,360,30,2019-07,051-440-4701,35.141733,129.039437,2020-03-26
"부산광역시_동구",부산광역시 동구 수정중로38번길,부산광역시 동구 수정동 545-3,재난재해,1,41,90,30,2019-07,051-440-4701,35.130703,129.046521,2020-03-26
"부산광역시_동구",부산광역시 동구 수정중로38번길,부산광역시 동구 수정동 545-3,재난재해,1,130,360,30,2019-07,051-440-4701,35.130744,129.046641,2020-03-26
"부산광역시_동구",부산광역시 동구 자성로 99,부산광역시 동구 범일2동 590-5,재난재해,1,200,360,30,2019-04,051-440-4701,35.13574371,129.0604485,2020-03-26
"부산광역시_동구",부산광역시 동구 자성로 99,부산광역시 동구 범일2동 590-5,재난재해,1,200,360,30,2019-04,051-440-4701,35.13574371,129.0604485,2020-03-26
"부산광역시_동구",부산광역시 동구 자성로 99,부산광역시 동구 범일2동 590-5,재난재해,1,200,360,30,2019-04,051-440-4701,35.13574371,129.0604485,2020-03-26
"부산광역시_동구",부산광역시 동구 수정공원로 63-1,부산광역시 동구 수정동 713-2,재난재해,1,200,360,30,2019-01,051-440-4701,35.13294524,129.037934,2020-03-26
"부산광역시_동구",부산광역시 동구 수정공원로 63-1,부산광역시 동구 수정동 713-2,재난재해,1,200,360,30,2019-01,051-440-4701,35.13294524,129.037934,2020-03-26
"부산광역시_동구",부산광역시 동구 수정공원로 63-1,부산광역시 동구 수정동 713-2,재난재해,1,200,360,30,2019-01,051-440-4701,35.13294524,129.037934,2020-03-26
"부산광역시_동구",부산광역시 동구 수정공원로 63-1,부산광역시 동구 수정동 713-2,재난재해,1,200,360,30,2019-01,051-440-4701,35.13294524,129.037934,2020-03-26
"부산광역시_동구",부산광역시 동구 수정공원로 63-1,부산광역시 동구 수정동 713-2,재난재해,1,200,360,30,2019-01,051-440-4701,35.13294524,129.037934,2020-03-26
"부산광역시_동구",부산광역시 동구 수정공원로 63-1,부산광역시 동구 수정동 713-2,재난재해,1,200,360,30,2019-01,051-440-4701,35.13294524,129.037934,2020-03-26
"부산광역시_동구",부산광역시 동구 수정공원로 63-1,부산광역시 동구 수정동 713-2,재난재해,1,200,360,30,2019-01,051-440-4701,35.13294524,129.037934,2020-03-26
"부산광역시_동구",부산광역시 동구 망양로580번길 2,부산광역시 동구 초량동 827-44,재난재해,1,200,90,30,2019-09,051-440-4701,35.12209542,129.0338423,2020-03-26
"부산광역시_동구",부산광역시 동구 망양로580번길 2,부산광역시 동구 초량동 827-44,재난재해,1,200,90,30,2019-09,051-440-4701,35.12209542,129.0338423,2020-03-26
"부산광역시_동구",부산광역시 동구 망양로580번길 2,부산광역시 동구 초량동 827-44,재난재해,1,200,90,30,2019-09,051-440-4701,35.12209542,129.0338423,2020-03-26
"부산광역시_동구",부산광역시 동구 망양로580번길 2,부산광역시 동구 초량동 827-44,재난재해,1,200,90,30,2019-09,051-440-4701,35.12209542,129.0338423,2020-03-26
"부산광역시_동구",부산광역시 동구 망양로580번길 2,부산광역시 동구 초량동 827-44,재난재해,1,200,90,30,2019-09,051-440-4701,35.12209542,129.0338423,2020-03-26
"부산광역시_동구",부산광역시 동구 망양로859번길 5-1,부산광역시 동구 수정동 408-49,어린이보호,1,200,360,30,2019-12,051-440-4701,35.1374558,129.0472747,2020-03-26
"부산광역시_동구",부산광역시 동구 영초윗길 9,부산광역시 동구 초량동 994-404,어린이보호,1,200,360,30,2019-12,051-440-4701,35.11603507,129.0345383,2020-03-26
"부산광역시_동구",부산광역시 동구 초량상로65번길 36,부산광역시 동구 초량동 930-14,어린이보호,1,200,360,30,2019-12,051-440-4701,35.11873775,129.0369482,2020-03-26
"부산광역시_동구",부산광역시 동구 중앙대로221번길 22,부산광역시 동구 초량동 411-4,어린이보호,1,200,360,30,2019-12,051-440-4701,35.117349,129.0393616,2020-03-26
"부산광역시_동구",부산광역시 동구 범내로 22-1,부산광역시 동구 범일동 1513-40,어린이보호,1,200,360,30,2019-12,051-440-4701,35.14316729,129.0507968,2020-03-26
"부산광역시_동구",부산광역시 동구 초량남로 46,부산광역시 동구 초량동 1127,어린이보호,1,200,360,30,2019-12,051-440-4701,35.11914656,129.031277,2020-03-26
"부산광역시_동구",부산광역시 동구 고관로13번길 47,부산광역시 동구 초량동 110-47,어린이보호,1,200,360,30,2019-12,051-440-4701,35.12151037,129.0394829,2020-03-26
"부산광역시_동구",부산광역시 동구 진성로71번가길 21,부산광역시 동구 수정동 453-39,어린이보호,1,200,360,30,2019-12,051-440-4701,35.13296529,129.0450868,2020-03-26
"부산광역시_동구",부산광역시 동구 망양로 608,부산광역시 동구 초량동 754-348,어린이보호,1,200,360,30,2019-12,051-440-4701,35.1244232,129.0348237,2020-03-26
"부산광역시_동구",부산광역시 동구 범일로53번길 14,부산광역시 동구 범일동 305-6,어린이보호,1,200,360,30,2019-12,051-440-4701,35.13519334,129.0584732,2020-03-26
"부산광역시_동구",부산광역시 동구 망양로 667-5,부산광역시 동구 수정동 1182-1,어린이보호,1,200,360,30,2019-12,051-440-4701,35.12676095,129.0391400006,2020-03-26
"부산광역시_동구",부산광역시 동구 수정공원남로 40,부산광역시 동구 수정동 1180,어린이보호,1,200,360,30,2019-12,051-440-4701,35.12735777,129.0388039,2020-03-26
"부산광역시_동구",부산광역시 동구 수성로19번길 2,부산광역시 동구 수정동 518-2,어린이보호,1,200,360,30,2019-12,051-440-4701,35.1344821,129.042047,2020-03-26
"부산광역시_동구",부산광역시 동구 범곡북로 24-1,부산광역시 동구 범일동 1308-25,어린이보호,1,200,360,30,2019-12,051-440-4701,35.1415474,129.0532928,2020-03-26
"부산광역시_동구",부산광역시 동구 망양로808번길 3,부산광역시 동구 수정동 485-3,어린이보호,1,200,360,30,2019-12,051-440-4701,35.13437604,129.0437267,2020-03-26
"부산광역시_동구",부산광역시 동구 자성로111번길 17,부산광역시 동구 범일동 586-3,어린이보호,1,200,360,30,2019-12,051-440-4701,35.13673307,129.0620444,2020-03-26
"부산광역시_동구",부산광역시 동구 망양로672번길 12,부산광역시 동구 수정동 1046-105,생활방범,1,200,360,30,2019-12,051-440-4701,35.12595109,129.0394971,2020-03-26
"부산광역시_동구",부산광역시 동구 망양로 747,부산광역시 동구 수정동 770-9,생활방범,1,200,360,30,2019-12,051-440-4701,35.13078298,129.0400433,2020-03-26
"부산광역시_동구",부산광역시 동구 수정공원상로 84,부산광역시 동구 수정동 1168-3,생활방범,1,200,360,30,2019-12,051-440-4701,35.12866939,129.0390472,2020-03-26
"부산광역시_동구",부산광역시 동구 범일이길 14,부산광역시 동구 범일동 252-1206,생활방범,1,200,360,30,2019-12,051-440-4701,35.13830804,129.0576082,2020-03-26
"부산광역시_동구",부산광역시 동구 정공단로11번가길 21-10,부산광역시 동구 좌천동 492-3,생활방범,1,200,360,30,2019-12,051-440-4701,35.1339356,129.0516827,2020-03-26
"부산광역시_동구",부산광역시 동구 초량로108번길 34-3,부산광역시 동구 초량동 827-208,생활방범,1,200,360,30,2019-12,051-440-4701,35.12054062,129.0328384,2020-03-26
"부산광역시_동구",부산광역시 동구 망양로 594,부산광역시 동구 초량동 794-2,생활방범,1,200,360,30,2019-12,051-440-4701,35.12305958,129.0348139,2020-03-26
"부산광역시_동구",부산광역시 동구 망양로847번길 7-2,부산광역시 동구 수정동 413-3,생활방범,1,200,360,30,2019-12,051-440-4701,35.1367686,129.0465849,2020-03-26
"부산광역시_동구",부산광역시 동구 망양로 682-8,부산광역시 동구 수정동 1011-832,생활방범,1,200,360,30,2019-12,051-440-4701,35.12639953,129.0411229,2020-03-26
"부산광역시_동구",부산광역시 동구 망양로689번길 13,부산광역시 동구 수정동 1172-11,생활방범,1,200,360,30,2019-12,051-440-4701,35.12728062,129.0401753,2020-03-26
"부산광역시_동구",부산광역시 동구 중앙대로286번길 7,부산광역시 동구 초량동 1162-9,생활방범,1,200,360,30,2019-12,051-440-4701,35.12192843,129.0444071,2020-03-26
"부산광역시_동구",부산광역시 동구 자성로140번길 32,부산광역시 동구 범일동 825-88,생활방범,1,200,360,30,2019-12,051-440-4701,35.13564358,129.0648472,2020-03-26
"부산광역시_동구",부산광역시 동구 대영로243번길 31,부산광역시 동구 초량동 610-2,생활방범,1,200,360,30,2019-12,051-440-4701,35.11363435,129.0377556,2020-03-26
"부산광역시_동구",부산광역시 동구 고관로41번길 10,부산광역시 동구 수정동 397-41,생활방범,1,200,360,30,2019-12,051-440-4701,35.12296411,129.0426298,2020-03-26
"부산광역시_동구",부산광역시 동구 홍곡로64번길 10,부산광역시 동구 수정동 1025-12,생활방범,1,200,360,30,2019-12,051-440-4701,35.1246299,129.042051,2020-03-26
"부산광역시_동구",부산광역시 동구 수정로 5-1,부산광역시 동구 수정동 143-1,생활방범,1,200,360,30,2019-12,051-440-4701,35.12723785,129.0459175,2020-03-26
"부산광역시_동구",부산광역시 동구 성북로 10,부산광역시 동구 좌천동 879-3,생활방범,1,200,360,30,2019-12,051-440-4701,35.13476273,129.0500682,2020-03-26
"부산광역시_동구",부산광역시 동구 범곡남로16번길 10-10,부산광역시 동구 범일동 1354-6,생활방범,1,200,360,30,2019-12,051-440-4701,35.13891711,129.0548546,2020-03-26
"부산광역시_동구",부산광역시 동구 중앙대로 527-6,부산광역시 동구 범일동 63-9,생활방범,1,200,360,30,2019-12,051-440-4701,35.14044733,129.0560209,2020-03-26
"부산광역시_동구",부산광역시 동구 수정공원로 56,부산광역시 동구 수정동 771-208,생활방범,1,200,360,30,2019-12,051-440-4701,35.13176841,129.0391069,2020-03-26
"부산광역시_동구",부산광역시 동구 망양로 474-5,부산광역시 동구 초량동 994-73,생활방범,1,200,360,30,2019-12,051-440-4701,35.11633098,129.0340894,2020-03-26
"부산광역시_동구",부산광역시 동구 범일동 1403-9,부산광역시 동구 범일동 1403-9,생활방범,1,200,360,30,2019-12,051-440-4701,35.137505,129.0500661,2020-03-26
"부산광역시_동구",부산광역시 동구 증산북로20번길 5,부산광역시 동구 범일동 1450-51,생활방범,1,200,360,30,2019-12,051-440-4701,35.138685,129.052536,2020-03-26
"부산광역시_동구",부산광역시 동구 영초길211번길 20,부산광역시 동구 초량동 899-4,생활방범,1,200,360,30,2019-12,051-440-4701,35.11804615,129.0347725,2020-03-26
"부산광역시_동구",부산광역시 동구 영초길211번길 20,부산광역시 동구 초량동 899-4,생활방범,1,200,360,30,2019-12,051-440-4701,35.11804615,129.0347725,2020-03-26
"부산광역시_동구",부산광역시 동구 망양로937번길 12,부산광역시 동구 범일동 1493-7,생활방범,1,200,360,30,2019-12,051-440-4701,35.14180884,129.0516185,2020-03-26
"부산광역시_동구",부산광역시 동구 증산로 168,부산광역시 동구 범일동 1462-9,생활방범,1,200,360,30,2019-12,051-440-4701,35.14059131,129.0526323,2020-03-26
"부산광역시_동구",부산광역시 동구 망양로 880,부산광역시 동구 범일동 1434-32,생활방범,1,200,360,30,2019-12,051-440-4701,35.1389214,129.0483287,2020-03-26
"부산광역시_동구",부산광역시 동구 망양로 880,부산광역시 동구 범일동 1434-32,생활방범,1,200,90,30,2019-12,051-440-4701,35.1389214,129.0483287,2020-03-26
"부산광역시_동구",부산광역시 동구 초량상로 49,부산광역시 동구 초량1동 994-13,어린이보호,1,200,360,30,2019-01,051-440-4701,35.11571293,129.0363333,2020-03-26
"부산광역시_동구",부산광역시 동구 초량상로 49,부산광역시 동구 초량1동 994-13,어린이보호,1,41,90,30,2019-01,051-440-4701,35.11571293,129.0363333,2020-03-26
"부산광역시_동구",부산광역시 동구 초량상로 49,부산광역시 동구 초량1동 994-13,어린이보호,1,41,90,30,2019-01,051-440-4701,35.11571293,129.0363333,2020-03-26
"부산광역시_동구",부산광역시 동구 초량상로 49,부산광역시 동구 초량1동 994-13,어린이보호,1,41,90,30,2019-01,051-440-4701,35.11571293,129.0363333,2020-03-26
"부산광역시_동구",부산광역시 동구 초량상로 49,부산광역시 동구 초량1동 994-13,어린이보호,1,41,90,30,2019-01,051-440-4701,35.11571293,129.0363333,2020-03-26
"부산광역시_동구",부산광역시 동구 초량상로 49,부산광역시 동구 초량1동 994-13,어린이보호,1,41,90,30,2019-01,051-440-4701,35.11571293,129.0363333,2020-03-26
"부산광역시_동구",부산광역시 동구 초량상로 49,부산광역시 동구 초량1동 994-13,어린이보호,1,41,90,30,2019-01,051-440-4701,35.11571293,129.0363333,2020-03-26
"부산광역시_동구",부산광역시 동구 초량상로 49,부산광역시 동구 초량1동 994-13,어린이보호,1,200,90,30,2019-01,051-440-4701,35.11571293,129.0363333,2020-03-26
"부산광역시_동구",부산광역시 동구 초량상로 49,부산광역시 동구 초량1동 994-13,어린이보호,1,200,90,30,2019-01,051-440-4701,35.11571293,129.0363333,2020-03-26
"부산광역시_동구",부산광역시 동구 구봉로 46,부산광역시 동구 수정1동 1073-1,어린이보호,1,200,360,30,2019-01,051-440-4701,35.12451542,129.0367718,2020-03-26
"부산광역시_동구",부산광역시 동구 구봉로 46,부산광역시 동구 수정1동 1073-1,어린이보호,1,41,90,30,2019-01,051-440-4701,35.12451542,129.0367718,2020-03-26
"부산광역시_동구",부산광역시 동구 구봉로 46,부산광역시 동구 수정1동 1073-1,어린이보호,1,41,90,30,2019-01,051-440-4701,35.12451542,129.0367718,2020-03-26
"부산광역시_동구",부산광역시 동구 구봉로 46,부산광역시 동구 수정1동 1073-1,어린이보호,1,41,90,30,2019-01,051-440-4701,35.12451542,129.0367718,2020-03-26
"부산광역시_동구",부산광역시 동구 구봉로 46,부산광역시 동구 수정1동 1073-1,어린이보호,1,41,90,30,2019-01,051-440-4701,35.12451542,129.0367718,2020-03-26
"부산광역시_동구",부산광역시 동구 구봉로 46,부산광역시 동구 수정1동 1073-1,어린이보호,1,41,90,30,2019-01,051-440-4701,35.12451542,129.0367718,2020-03-26
"부산광역시_동구",부산광역시 동구 구봉로 46,부산광역시 동구 수정1동 1073-1,어린이보호,1,41,90,30,2019-01,051-440-4701,35.12451542,129.0367718,2020-03-26
"부산광역시_동구",부산광역시 동구 구봉로 46,부산광역시 동구 수정1동 1073-1,어린이보호,1,41,90,30,2019-01,051-440-4701,35.12451542,129.0367718,2020-03-26
"부산광역시_동구",부산광역시 동구 구봉로 46,부산광역시 동구 수정1동 1073-1,어린이보호,1,41,90,30,2019-01,051-440-4701,35.12451542,129.0367718,2020-03-26
"부산광역시_동구",부산광역시 동구 구봉로 46,부산광역시 동구 수정1동 1073-1,어린이보호,1,41,90,30,2019-01,051-440-4701,35.12451542,129.0367718,2020-03-26
"부산광역시_동구",부산광역시 동구 구봉로 46,부산광역시 동구 수정1동 1073-1,어린이보호,1,41,90,30,2019-01,051-440-4701,35.12451542,129.0367718,2020-03-26
"부산광역시_동구",부산광역시 동구 성북로36번길 46,부산광역시 동구 수정동 453-17,재난재해,1,200,360,30,2019-11,051-440-4701,35.13740283,129.0504065,2020-03-26
"부산광역시_동구",부산광역시 동구 진성로 29,부산광역시 동구 수정2동 464-2,어린이보호,1,200,360,30,2019-01,051-440-4701,35.13126498,129.0467291,2020-03-26
"부산광역시_동구",부산광역시 동구 진성로 29,부산광역시 동구 수정2동 464-2,어린이보호,1,200,90,30,2019-01,051-440-4701,35.13126498,129.0467291,2020-03-26
"부산광역시_동구",부산광역시 동구 진성로 29,부산광역시 동구 수정2동 464-2,어린이보호,1,200,90,30,2019-01,051-440-4701,35.13126498,129.0467291,2020-03-26
"부산광역시_동구",부산광역시 동구 진성로 29,부산광역시 동구 수정2동 464-2,어린이보호,1,200,90,30,2019-01,051-440-4701,35.13126498,129.0467291,2020-03-26
"부산광역시_동구",부산광역시 동구 진성로 29,부산광역시 동구 수정2동 464-2,어린이보호,1,200,90,30,2019-01,051-440-4701,35.13126498,129.0467291,2020-03-26
"부산광역시_동구",부산광역시 동구 진성로 29,부산광역시 동구 수정2동 464-2,어린이보호,1,200,90,30,2019-01,051-440-4701,35.13126498,129.0467291,2020-03-26
"부산광역시_동구",부산광역시 동구 진성로 29,부산광역시 동구 수정2동 464-2,어린이보호,1,200,90,30,2019-01,051-440-4701,35.13126498,129.0467291,2020-03-26
"부산광역시_동구",부산광역시 동구 진성로 29,부산광역시 동구 수정2동 464-2,어린이보호,1,200,90,30,2019-01,051-440-4701,35.13126498,129.0467291,2020-03-26
"부산광역시_동구",부산광역시 동구 진성로 29,부산광역시 동구 수정2동 464-2,어린이보호,1,200,90,30,2019-01,051-440-4701,35.13126498,129.0467291,2020-03-26
"부산광역시_동구",부산광역시 동구 진성로 29,부산광역시 동구 수정2동 464-2,어린이보호,1,200,90,30,2019-01,051-440-4701,35.13126498,129.0467291,2020-03-26
"부산광역시_동구",부산광역시 동구 망양로 807,부산광역시 동구 수정동 488-3,어린이보호,1,200,360,30,2019-01,051-440-4701,35.13455159,129.0427218,2020-03-26
"부산광역시_동구",부산광역시 동구 망양로 807,부산광역시 동구 수정동 488-3,어린이보호,1,41,90,30,2019-01,051-440-4701,35.13455159,129.0427218,2020-03-26
"부산광역시_동구",부산광역시 동구 망양로 807,부산광역시 동구 수정동 488-3,어린이보호,1,41,90,30,2019-01,051-440-4701,35.13455159,129.0427218,2020-03-26
"부산광역시_동구",부산광역시 동구 망양로 807,부산광역시 동구 수정동 488-3,어린이보호,1,41,90,30,2019-01,051-440-4701,35.13455159,129.0427218,2020-03-26
"부산광역시_동구",부산광역시 동구 증산동로 59,부산광역시 동구 범일동 1400,어린이보호,1,200,360,30,2019-01,051-440-4701,35.13718925,129.0519501,2020-03-26
"부산광역시_동구",부산광역시 동구 증산동로 59,부산광역시 동구 범일동 1400,어린이보호,1,41,90,30,2019-01,051-440-4701,35.13718925,129.0519501,2020-03-26
"부산광역시_동구",부산광역시 동구 증산동로 59,부산광역시 동구 범일동 1400,어린이보호,1,41,90,30,2019-01,051-440-4701,35.13718925,129.0519501,2020-03-26
"부산광역시_동구",부산광역시 동구 증산동로 59,부산광역시 동구 범일동 1400,어린이보호,1,41,90,30,2019-01,051-440-4701,35.13718925,129.0519501,2020-03-26
"부산광역시_동구",부산광역시 동구 증산동로 59,부산광역시 동구 범일동 1400,어린이보호,1,41,90,30,2019-01,051-440-4701,35.13718925,129.0519501,2020-03-26
"부산광역시_동구",부산광역시 동구 증산동로 59,부산광역시 동구 범일동 1400,어린이보호,1,41,90,30,2019-01,051-440-4701,35.13718925,129.0519501,2020-03-26
"부산광역시_동구",부산광역시 동구 증산동로 59,부산광역시 동구 범일동 1400,어린이보호,1,41,90,30,2019-01,051-440-4701,35.13718925,129.0519501,2020-03-26
"부산광역시_동구",부산광역시 동구 범일로53번길 14,부산광역시 동구 범일동 305-6,어린이보호,1,41,90,30,2019-01,051-440-4701,35.13519334,129.0584732,2020-03-26
"부산광역시_동구",부산광역시 동구 범일로53번길 14,부산광역시 동구 범일동 305-6,어린이보호,1,41,90,30,2019-01,051-440-4701,35.13519334,129.0584732,2020-03-26
"부산광역시_동구",부산광역시 동구 범일로53번길 14,부산광역시 동구 범일동 305-6,어린이보호,1,200,360,30,2019-01,051-440-4701,35.13519334,129.0584732,2020-03-26
"부산광역시_동구",부산광역시 동구 범일로53번길 14,부산광역시 동구 범일동 305-6,어린이보호,1,41,90,30,2019-01,051-440-4701,35.13519334,129.0584732,2020-03-26
"부산광역시_동구",부산광역시 동구 범일로53번길 14,부산광역시 동구 범일동 305-6,어린이보호,1,41,90,30,2019-01,051-440-4701,35.13519334,129.0584732,2020-03-26
"부산광역시_동구",부산광역시 동구 범일로53번길 14,부산광역시 동구 범일동 305-6,어린이보호,1,41,90,30,2019-01,051-440-4701,35.13519334,129.0584732,2020-03-26
"부산광역시_동구",부산광역시 동구 범일로53번길 14,부산광역시 동구 범일동 305-6,어린이보호,1,41,90,30,2019-01,051-440-4701,35.13519334,129.0584732,2020-03-26
"부산광역시_동구",부산광역시 동구 범일로53번길 14,부산광역시 동구 범일동 305-6,어린이보호,1,41,90,30,2019-01,051-440-4701,35.13519334,129.0584732,2020-03-26
"부산광역시_동구",부산광역시 동구 범일로53번길 14,부산광역시 동구 범일동 305-6,어린이보호,1,41,90,30,2019-01,051-440-4701,35.13519334,129.0584732,2020-03-26
"부산광역시_동구",부산광역시 동구 범일로53번길 14,부산광역시 동구 범일동 305-6,어린이보호,1,41,90,30,2019-01,051-440-4701,35.13519334,129.0584732,2020-03-26
"부산광역시_동구",부산광역시 동구 범일로53번길 14,부산광역시 동구 범일동 305-6,어린이보호,1,41,90,30,2019-01,051-440-4701,35.13519334,129.0584732,2020-03-26
"부산광역시_동구",부산광역시 동구 증산서로 55,부산광역시 동구 범일동 1411-3,어린이보호,1,200,360,30,2019-01,051-440-4701,35.13957116,129.0496534,2020-03-26
"부산광역시_동구",부산광역시 동구 증산서로 55,부산광역시 동구 범일동 1411-3,어린이보호,1,41,90,30,2019-01,051-440-4701,35.13957116,129.0496534,2020-03-26
"부산광역시_동구",부산광역시 동구 증산서로 55,부산광역시 동구 범일동 1411-3,어린이보호,1,41,90,30,2019-01,051-440-4701,35.13957116,129.0496534,2020-03-26
"부산광역시_동구",부산광역시 동구 증산서로 55,부산광역시 동구 범일동 1411-3,어린이보호,1,41,90,30,2019-01,051-440-4701,35.13957116,129.0496534,2020-03-26
"부산광역시_동구",부산광역시 동구 증산서로 55,부산광역시 동구 범일동 1411-3,어린이보호,1,41,90,30,2019-01,051-440-4701,35.13957116,129.0496534,2020-03-26
"부산광역시_동구",부산광역시 동구 증산서로 55,부산광역시 동구 범일동 1411-3,어린이보호,1,41,90,30,2019-01,051-440-4701,35.13957116,129.0496534,2020-03-26
"부산광역시_동구",부산광역시 동구 증산서로 55,부산광역시 동구 범일동 1411-3,어린이보호,1,41,90,30,2019-01,051-440-4701,35.13957116,129.0496534,2020-03-26
"부산광역시_동구",부산광역시 동구 증산서로 55,부산광역시 동구 범일동 1411-3,어린이보호,1,41,90,30,2019-01,051-440-4701,35.13957116,129.0496534,2020-03-26
"부산광역시_동구",부산광역시 동구 증산서로 55,부산광역시 동구 범일동 1411-3,어린이보호,1,41,90,30,2019-01,051-440-4701,35.13957116,129.0496534,2020-03-26
"부산광역시_동구",부산광역시 동구 증산서로 55,부산광역시 동구 범일동 1411-3,어린이보호,1,41,90,30,2019-01,051-440-4701,35.13957116,129.0496534,2020-03-26
"부산광역시_동구",부산광역시 동구 초량동 847-38,부산광역시 동구 초량동 847-38,생활방범,1,200,90,30,2019-10,051-440-4701,35.119195,129.028593,2020-03-26
"부산광역시_동구",부산광역시 동구 초량동 847-38,부산광역시 동구 초량동 847-38,생활방범,1,200,90,30,2019-10,051-440-4701,35.119195,129.028593,2020-03-26
"부산광역시_동구",부산광역시 동구 증산서로 18,부산광역시 동구 좌천4동 874,어린이보호,1,41,360,30,2019-01,051-440-4701,35.1353531,129.0488368,2020-03-26
"부산광역시_동구",부산광역시 동구 증산서로 18,부산광역시 동구 좌천4동 874,어린이보호,1,41,90,30,2019-01,051-440-4701,35.1353531,129.0488368,2020-03-26
"부산광역시_동구",부산광역시 동구 증산서로 18,부산광역시 동구 좌천4동 874,어린이보호,1,41,90,30,2019-01,051-440-4701,35.1353531,129.0488368,2020-03-26
"부산광역시_동구",부산광역시 동구 범일로53번길 14,부산광역시 동구 범일동 305-6,어린이보호,1,41,90,30,2019-01,051-440-4701,35.13519334,129.0584732,2020-03-26
"부산광역시_동구",부산광역시 동구 범일로53번길 14,부산광역시 동구 범일동 305-6,어린이보호,1,41,90,30,2019-01,051-440-4701,35.13519334,129.0584732,2020-03-26
"부산광역시_동구",부산광역시 동구 범일로53번길 14,부산광역시 동구 범일동 305-6,어린이보호,1,41,90,30,2019-01,051-440-4701,35.13519334,129.0584732,2020-03-26
"부산광역시_동구",부산광역시 동구 자성로108번길 19,부산광역시 동구 범일동 825-43,재난재해,1,41,90,30,2019-01,051-440-4701,35.13525351,129.0634113,2020-03-26
"부산광역시_동구",부산광역시 동구 중앙대로 501-1,부산광역시 동구 범일동 105-1,생활방범,1,200,90,30,2019-09,051-440-4701,35.1380057,129.0560955,2020-03-26
"부산광역시_동구",부산광역시 동구 좌천동 904-31,부산광역시 동구 좌천동 904-31,생활방범,1,200,360,30,2019-02,051-440-4701,35.138214,129.048431,2020-03-26
"부산광역시_동구",부산광역시 동구 범일동 1343-1,부산광역시 동구 범일동 1343-1,생활방범,1,200,360,30,2019-02,051-440-4701,35.139041,129.052063,2020-03-26
"부산광역시_동구",부산광역시 동구 수정북로 46,부산광역시 동구 수정동 523-41,생활방범,1,200,360,30,2019-02,051-440-4701,35.13365804,129.0431251,2020-03-26
"부산광역시_동구",부산광역시 동구 진성로75번길 22,부산광역시 동구 수정동 525-12,생활방범,1,200,360,30,2019-02,051-440-4701,35.13371866,129.0435918,2020-03-26
"부산광역시_동구",부산광역시 동구 성남로29번나길 11,부산광역시 동구 좌천동 68-739,생활방범,1,200,360,30,2019-01,051-440-4701,35.1295737,129.0533737,2020-03-26
"부산광역시_동구",부산광역시 동구 범상로21번길 6,부산광역시 동구 범일동 1438-282,생활방범,1,200,360,30,2019-01,051-440-4701,35.14226287,129.0486458,2020-03-26
"부산광역시_동구",부산광역시 동구 범일일길 10,부산광역시 동구 범일동 653-17,생활방범,1,200,360,30,2019-01,051-440-4701,35.13786978,129.0585801,2020-03-26
"부산광역시_동구",부산광역시 동구 성북로 43-1,부산광역시 동구 좌천동 903-18,생활방범,1,200,360,30,2019-01,051-440-4701,35.13771792,129.0494665,2020-03-26
"부산광역시_동구",부산광역시 동구 자성로8번길 28-1,부산광역시 동구 좌천동 229-6,생활방범,1,200,360,30,2019-01,051-440-4701,35.13343661,129.0547256,2020-03-26
"부산광역시_동구",부산광역시 동구 자성로 99,부산광역시 동구 범일2동 590-5,재난재해,1,200,360,30,2019-04,051-440-4701,35.13574371,129.0604485,2020-03-26
"부산광역시_동구",부산광역시 동구 영초윗길 2,부산광역시 동구 초량동 994-62,쓰레기단속,1,200,360,30,2019-04,051-440-4701,35.11543399,129.0349138,2020-03-26
"부산광역시_동구",부산광역시 동구 홍곡로13번길 19,부산광역시 동구 초량동 671-3,쓰레기단속,1,200,360,30,2019-04,051-440-4701,35.12192732,129.0380543,2020-03-26
"부산광역시_동구",부산광역시 동구 초량로80번길 42,부산광역시 동구 초량동 796-85,쓰레기단속,1,200,360,30,2019-04,051-440-4701,35.12180472,129.0346247,2020-03-26
"부산광역시_동구",부산광역시 동구 중앙대로251번길 29,부산광역시 동구 초량동 146-4,쓰레기단속,1,200,360,30,2019-04,051-440-4701,35.11973219,129.0401888,2020-03-26
"부산광역시_동구",부산광역시 동구 중앙대로231번길 17,부산광역시 동구 초량동 216-2,쓰레기단속,1,200,360,30,2019-04,051-440-4701,35.11806275,129.0400024,2020-03-26
"부산광역시_동구",부산광역시 동구 고관로13번길 65-3,부산광역시 동구 초량동 664-23,쓰레기단속,1,200,360,30,2019-04,051-440-4701,35.1217916,129.038458,2020-03-26
"부산광역시_동구",부산광역시 동구 초량중로 105,부산광역시 동구 초량동 108-3,쓰레기단속,1,200,360,30,2019-04,051-440-4701,35.1209848,129.0402547,2020-03-26
"부산광역시_동구",부산광역시 동구 증산북로 10,부산광역시 동구 범일동 1414,쓰레기단속,1,200,360,30,2019-04,051-440-4701,35.13867043,129.0511184,2020-03-26
"부산광역시_동구",부산광역시 동구 증산북로 2,부산광역시 동구 범일동 1412-79,쓰레기단속,1,200,360,30,2019-04,051-440-4701,35.13845297,129.0503363,2020-03-26
"부산광역시_동구",부산광역시 동구 성남삼로33번길 2,부산광역시 동구 범일동 252-1054,쓰레기단속,1,200,360,30,2019-04,051-440-4701,35.13292198,129.0580738,2020-03-26
"부산광역시_동구",부산광역시 동구 중앙대로460번길 36,부산광역시 동구 범일동 62-175,생활방범,1,200,360,30,2019-05,051-440-4701,35.1352258,129.0564099,2020-03-26
"부산광역시_동구",부산광역시 동구 범일이길 52,부산광역시 동구 범일동 62-523,생활방범,1,200,360,30,2019-05,051-440-4701,35.14161479,129.0575335,2020-03-26
"부산광역시_동구",부산광역시 동구 범일일길11번가길 1,부산광역시 동구 범일동 660-56,생활방범,1,200,360,30,2019-05,051-440-4701,35.1383312,129.0579423,2020-03-26
"부산광역시_동구",부산광역시 동구 자성로133번길 16,부산광역시 동구 범일동 830-31,생활방범,1,200,360,30,2019-05,051-440-4701,35.13884533,129.0652221,2020-03-26
"부산광역시_동구",부산광역시 동구 좌천동 1080,부산광역시 동구 좌천동 1080,재난재해,1,200,360,30,2019-08,051-440-4701,35.128031,129.0528313,2020-03-26
"부산광역시_동구",부산광역시 동구 자성로140번길 33,부산광역시 동구 범일동 825-23,재난재해,1,200,360,30,2019-08,051-440-4701,35.13515011,129.064826,2020-03-26
"부산광역시_동구",부산광역시 동구 성남이로37번길 14,부산광역시 동구 좌천동 68-147,쓰레기단속,1,200,360,30,2019-06,051-440-4701,35.13294821,129.0561043,2020-03-26
"부산광역시_동구",부산광역시 동구 자성로108번길 19,부산광역시 동구 범일동 825-43,쓰레기단속,1,200,360,30,2019-06,051-440-4701,35.13525351,129.0634113,2020-03-26
"부산광역시_동구",부산광역시 동구 초량로73번길 3,부산광역시 동구 초량동 824-33,생활방범,1,200,90,30,2019-10,051-440-4701,35.11988871,129.0347394,2020-03-26
"부산광역시_동구",부산광역시 동구 초량중로68번길 13,부산광역시 동구 초량동 309-1,생활방범,1,200,90,30,2019-10,051-440-4701,35.11788439,129.0394627,2020-03-26
"부산광역시_동구",부산광역시 동구 진성로 5,부산광역시 동구 수정동 1-42,생활방범,1,200,90,30,2019-10,051-440-4701,35.12939394,129.0486612,2020-03-26
"부산광역시_동구",부산광역시 동구 수성남로 27-10,부산광역시 동구 수정동 599-2,생활방범,1,200,90,30,2019-10,051-440-4701,35.13293933,129.0414968,2020-03-26
"부산광역시_동구",부산광역시 동구 수정북로 46번길 21,부산광역시 동구 수정동 526-7,생활방범,1,200,90,30,2019-10,051-440-4701,35.13325939,129.0441068,2020-03-26
"부산광역시_동구",부산광역시 동구 성남로62,부산광역시 동구 좌천동 68-686,생활방범,1,200,90,30,2019-10,051-440-4701,35.13093385,129.0556412,2020-03-26
"부산광역시_동구",부산광역시 동구 진시장로 20,부산광역시 동구 범일동 640-7,생활방범,1,200,90,30,2019-10,051-440-4701,35.13693163,129.0586355,2020-03-26
"부산광역시_동구",부산광역시 동구 망양로745번길 12,부산광역시 동구 수정동 771-7,생활방범,1,200,90,30,2019-10,051-440-4701,35.13069521,129.0396901,2020-03-26
"부산광역시_동구",부산광역시 동구 중앙대로460번길 50,부산광역시 동구 좌천동 333-5,생활방범,1,200,90,30,2019-10,051-440-4701,35.13573262,129.0568589,2020-03-26
"부산광역시_동구",부산광역시 동구 증산로65번길 7,부산광역시 동구 좌천동 808-12,생활방범,1,200,90,30,2019-10,051-440-4701,35.13327668,129.0505487,2020-03-26
"부산광역시_동구",부산광역시 동구 범곡서로 21,부산광역시 동구 범일동 1424-7,생활방범,1,200,90,30,2019-10,051-440-4701,35.1405218,129.0516116,2020-03-26
"부산광역시_동구",부산광역시 동구 성북로42번길 27,부산광역시 동구 범일동 1412-108,생활방범,1,200,90,30,2019-10,051-440-4701,35.13834158,129.0507416,2020-03-26
"부산광역시_동구",부산광역시 동구 고관로 110,부산광역시 동구 수정동 270-7,생활방범,1,200,90,30,2019-10,051-440-4701,35.12852141,129.046327,2020-03-26
"부산광역시_동구",부산광역시 동구 초량상로 48,부산광역시 동구 초량동 1050-1,생활방범,1,200,90,30,2019-10,051-440-4701,35.11600499,129.0369723,2020-03-26
"부산광역시_동구",부산광역시 동구 초량북로47번길 19-4,부산광역시 동구 범일동 252-1463,생활방범,1,200,90,30,2019-10,051-440-4701,35.12410157,129.0367308,2020-03-26
"부산광역시_동구",부산광역시 동구 초량중로32번길 3-1,부산광역시 동구 초량동 588-4,어린이보호,1,200,360,30,2019-12,051-440-4701,35.1147076,129.0373831,2020-03-26
"부산광역시_동구",부산광역시 동구 초량로 59-2,부산광역시 동구 초량동 906-125,어린이보호,1,200,360,30,2019-12,051-440-4701,35.1196041,129.0360178,2020-03-26
"부산광역시_동구",부산광역시 동구 초량로 42,부산광역시 동구 초량동 806-14,어린이보호,1,200,360,30,2019-12,051-440-4701,35.12042017,129.0378632,2020-03-26
"부산광역시_동구",부산광역시 동구 구봉로 20,부산광역시 동구 초량동 675-7,어린이보호,1,200,360,30,2019-12,051-440-4701,35.12227403,129.0380147,2020-03-26
"부산광역시_동구",부산광역시 동구 중앙대로260번길 7,부산광역시 동구 초량동 1168-15,어린이보호,1,200,360,30,2019-12,051-440-4701,35.11979665,129.0432088,2020-03-26
"부산광역시_동구",부산광역시 동구 중앙대로296번길 3-10,부산광역시 동구 초량동 1159-2,어린이보호,1,200,360,30,2019-12,051-440-4701,35.12349978,129.045065,2020-03-26
"부산광역시_동구",부산광역시 동구 망양로600번가길 24,부산광역시 동구 초량동 793-26,어린이보호,1,200,360,30,2019-12,051-440-4701,35.12302704,129.0358924,2020-03-26
"부산광역시_동구",부산광역시 동구 초량북로23번길 14,부산광역시 동구 초량동 793-133,어린이보호,1,200,360,30,2019-12,051-440-4701,35.1224354,129.0354916,2020-03-26
"부산광역시_동구",부산광역시 동구 홍곡로 77,부산광역시 동구 수정동 1009-1,어린이보호,1,200,360,30,2019-12,051-440-4701,35.12566918,129.042965,2020-03-26
"부산광역시_동구",부산광역시 동구 홍곡로 59,부산광역시 동구 수정동 1030-36,어린이보호,1,200,360,30,2019-12,051-440-4701,35.12477295,129.0411745,2020-03-26
"부산광역시_동구",부산광역시 동구 홍곡중로19번길 15,부산광역시 동구 수정동 1011-596,어린이보호,1,200,360,30,2019-12,051-440-4701,35.1259539,129.0408072,2020-03-26
"부산광역시_동구",부산광역시 동구 수정공원중로 22,부산광역시 동구 수정동 711-4,생활방범,1,200,360,30,2019-12,051-440-4701,35.1323287,129.0385856,2020-03-26
"부산광역시_동구",부산광역시 동구 수정공원로43번길 19,부산광역시 동구 수정동 943-2,어린이보호,1,200,360,30,2019-12,051-440-4701,35.13116325,129.038653,2020-03-26
"부산광역시_동구",부산광역시 동구 수정서로 26,부산광역시 동구 수정동 645,어린이보호,1,200,360,30,2019-12,051-440-4701,35.13137177,129.0433927,2020-03-26
"부산광역시_동구",부산광역시 동구 수성남로 10,부산광역시 동구 수정동 705-4,어린이보호,1,200,360,30,2019-12,051-440-4701,35.13206894,129.0400973,2020-03-26
"부산광역시_동구",부산광역시 동구 고관로 142-1,부산광역시 동구 수정동 227-59,어린이보호,1,200,360,30,2019-12,051-440-4701,35.13048031,129.0487937,2020-03-26
"부산광역시_동구",부산광역시 동구 수정공원상로 32-1,부산광역시 동구 수정동 1188-40,어린이보호,1,200,360,30,2019-12,051-440-4701,35.12780683,129.0378235,2020-03-26
"부산광역시_동구",부산광역시 동구 고관로 168,부산광역시 동구 좌천동 632-2,어린이보호,1,200,360,30,2019-12,051-440-4701,35.1318371,129.0510523,2020-03-26
"부산광역시_동구",부산광역시 동구 진성로68번가길 11,부산광역시 동구 좌천동 973-47,어린이보호,1,200,360,30,2019-12,051-440-4701,35.1339259,129.0460383,2020-03-26
"부산광역시_동구",부산광역시 동구 증산동로 65,부산광역시 동구 좌천동 728-1,어린이보호,1,200,360,30,2019-12,051-440-4701,35.1371997,129.0531183,2020-03-26
"부산광역시_동구",부산광역시 동구 중앙대로 485,부산광역시 동구 범일동 138-5,어린이보호,1,200,360,30,2019-12,051-440-4701,35.1365243,129.0562381,2020-03-26
"부산광역시_동구",부산광역시 동구 범일로65번길 23,부산광역시 동구 범일동 266-5,어린이보호,1,200,360,30,2019-12,051-440-4701,35.13575214,129.0580441,2020-03-26
"부산광역시_동구",부산광역시 동구 범일일길 55,부산광역시 동구 범일동 62-175,생활방범,1,200,360,30,2019-12,051-440-4701,35.14195067,129.0579193,2020-03-26
"부산광역시_동구",부산광역시 동구 범곡로 42,부산광역시 동구 범일동 1309-21,어린이보호,1,200,360,30,2019-12,051-440-4701,35.14109427,129.0542204,2020-03-26
"부산광역시_동구",부산광역시 동구 범곡로28번길 14,부산광역시 동구 범일동 28-11,어린이보호,1,200,360,30,2019-12,051-440-4701,35.1410316,129.0557898,2020-03-26
"부산광역시_동구",부산광역시 동구 범일로90번길 17,부산광역시 동구 범일동 830-62,생활방범,1,200,360,30,2019-12,051-440-4701,35.13829114,129.0615703,2020-03-26
"부산광역시_동구",부산광역시 동구 고관로 13번길 2,부산광역시 동구 초량동 46-32,생활방범,1,200,360,30,2019-12,051-440-4701,35.1209079,129.0418587,2020-03-26
"부산광역시_동구",부산광역시 동구 망양로669,부산광역시 동구 수정동 1174-11,생활방범,1,200,360,30,2019-12,051-440-4701,35.12656298,129.0393369,2020-03-26
"부산광역시_동구",부산광역시 동구 망양로879번길 19,부산광역시 동구 범일동 1435-643,생활방범,1,200,360,30,2019-12,051-440-4701,35.13927519,129.0471184,2020-03-26
"부산광역시_동구",부산광역시 동구 망양로 943,부산광역시 동구 범일동 1486-6,생활방범,1,200,360,30,2019-12,051-440-4701,35.14204055,129.0524098,2020-03-26
"부산광역시_동구",부산광역시 동구 고관로33번길 9,부산광역시 동구 수정동 403-3,생활방범,1,200,360,30,2019-12,051-440-4701,35.12250368,129.0421445,2020-03-26
"부산광역시_동구",부산광역시 동구 영초길191번길 5,부산광역시 동구 초량동 994-209,생활방범,1,200,360,30,2019-12,051-440-4701,35.11711739,129.0355567,2020-03-26
"부산광역시_동구",부산광역시 동구 영초길191번길 12,부산광역시 동구 초량동 994-552,생활방범,1,200,360,30,2019-12,051-440-4701,35.11723057,129.0352568,2020-03-26
"부산광역시_동구",부산광역시 동구 영초윗길 22-1,부산광역시 동구 초량동 994-599,생활방범,1,200,360,30,2019-12,051-440-4701,35.11710123,129.0350167,2020-03-26
"부산광역시_동구",부산광역시 동구 범일동 1642,부산광역시 동구 범일동 1642,쓰레기단속,1,200,90,30,2019-08,051-440-4701,35.129906,129.061862,2020-03-26
"부산광역시_동구",부산광역시 동구 범일동 1642,부산광역시 동구 범일동 1642,쓰레기단속,1,200,90,30,2019-08,051-440-4701,35.129906,129.061862,2020-03-26
"부산광역시_동구",부산광역시 동구 범일동 1642,부산광역시 동구 범일동 1642,쓰레기단속,1,200,90,30,2019-08,051-440-4701,35.129906,129.061862,2020-03-26
"부산광역시_동구",부산광역시 동구 범일동 1642,부산광역시 동구 범일동 1642,쓰레기단속,1,200,90,30,2019-08,051-440-4701,35.129906,129.061862,2020-03-26
"부산광역시_동구",부산광역시 동구 범일동 1642,부산광역시 동구 범일동 1642,쓰레기단속,1,200,90,30,2019-08,051-440-4701,35.129906,129.061862,2020-03-26
"부산광역시_동구",부산광역시 동구 범일동 1642,부산광역시 동구 범일동 1642,쓰레기단속,1,200,90,30,2019-08,051-440-4701,35.129906,129.061862,2020-03-26
"부산광역시_동구",부산광역시 동구 구청로 1,부산광역시 동구 수정동 806-74,재난재해,1,41,360,30,2019-01,051-440-4701,35.12929577,129.0452977,2020-03-26
"부산광역시_동구",부산광역시 동구 구청로 1,부산광역시 동구 수정동 806-74,재난재해,1,41,90,30,2019-01,051-440-4701,35.12929577,129.0452977,2020-03-26
"부산광역시_동구",부산광역시 동구 구청로 1,부산광역시 동구 수정동 806-74,재난재해,1,41,90,30,2019-01,051-440-4701,35.12929577,129.0452977,2020-03-26
"부산광역시_동구",부산광역시 동구 망양로 937,부산광역시 동구 범일동 1488-20,재난재해,1,200,360,30,2019-06,051-440-4701,35.1414459,129.0513832,2020-03-26
"부산광역시_동구",부산광역시 동구 좌천동 786-1,부산광역시 동구 좌천동 786-1,재난재해,1,200,90,30,2019-03,051-440-4701,35.135921,129.053149,2020-03-26
"부산광역시_동구",부산광역시 동구 좌천동 786-1,부산광역시 동구 좌천동 786-1,재난재해,1,200,90,30,2019-03,051-440-4701,35.135921,129.053149,2020-03-26
"부산광역시_동구",부산광역시 동구 좌천동 786-1,부산광역시 동구 좌천동 786-1,재난재해,1,200,90,30,2019-03,051-440-4701,35.135921,129.053149,2020-03-26
"부산광역시_동구",부산광역시 동구 좌천동 786-1,부산광역시 동구 좌천동 786-1,재난재해,1,200,90,30,2019-03,051-440-4701,35.135921,129.053149,2020-03-26
"부산광역시_동구",부산광역시 동구 좌천동 786-1,부산광역시 동구 좌천동 786-1,재난재해,1,200,90,30,2019-03,051-440-4701,35.135921,129.053149,2020-03-26
"부산광역시_동구",부산광역시 동구 홍곡중로38번길 13,부산광역시 동구 수정동 970-103,생활방범,1,200,360,30,2019-06,051-440-4701,35.1266652,129.0421548,2020-03-26
"부산광역시_동구",부산광역시 동구 좌천동 786-1,부산광역시 동구 좌천동 786-1,재난재해,1,200,90,30,2019-03,051-440-4701,35.135921,129.053149,2020-03-26
"부산광역시_동구",부산광역시 동구 좌천동 786-1,부산광역시 동구 좌천동 786-1,재난재해,1,200,90,30,2019-03,051-440-4701,35.135921,129.053149,2020-03-26
"부산광역시_동구",부산광역시 동구 중앙대로195번가길 26,부산광역시 동구 초량동 448-1,쓰레기단속,1,200,360,30,2019-05,051-440-4701,35.1163951,129.0382104,2020-03-26
"부산광역시_동구",부산광역시 동구 홍곡로29번길 1,부산광역시 동구 초량동 647-3,쓰레기단속,1,200,360,30,2019-05,051-440-4701,35.12272259,129.039206,2020-03-26
"부산광역시_동구",부산광역시 동구 초량상로 120,부산광역시 동구 초량동 95-4,쓰레기단속,1,200,360,30,2019-05,051-440-4701,35.12204991,129.040194,2020-03-26
"부산광역시_동구",부산광역시 동구 수정외솔로7번길 2-1,부산광역시 동구 수정동 970-61,쓰레기단속,1,200,360,30,2019-05,051-440-4701,35.126204,129.042809,2020-03-26
"부산광역시_동구",부산광역시 동구 수정공원남로 19,부산광역시 동구 수정동 1187-4,쓰레기단속,1,200,360,30,2019-05,051-440-4701,35.12704454,129.0370674,2020-03-26
"부산광역시_동구",부산광역시 동구 성북로1번길 23,부산광역시 동구 좌천동 861-19,쓰레기단속,1,200,360,30,2019-05,051-440-4701,35.13442757,129.0485723,2020-03-26
"부산광역시_동구",부산광역시 동구 좌천동로 1,부산광역시 동구 좌천동 842-12,쓰레기단속,1,200,360,30,2019-05,051-440-4701,35.1328012,129.0479869,2020-03-26
"부산광역시_동구",부산광역시 동구 성남삼로18번길 13-1,부산광역시 동구 범일동 252-1206,쓰레기단속,1,200,360,30,2019-05,051-440-4701,35.13227151,129.0590184,2020-03-26
"부산광역시_동구",부산광역시 동구 홍곡남로18번길 26,부산광역시 동구 수정동 1043-19,생활방범,1,200,360,30,2019-08,051-440-4701,35.12614239,129.0390544,2020-03-26
"부산광역시_동구",부산광역시 동구 초량로25번길 7-2,부산광역시 동구 초량동 262-7,생활방범,1,200,360,30,2019-08,051-440-4701,35.11957158,129.0392372,2020-03-26
"부산광역시_동구",부산광역시 동구 망양로 741,부산광역시 동구 수정동 776-3,생활방범,1,200,360,30,2019-08,051-440-4701,35.13029778,129.0403866,2020-03-26
"부산광역시_동구",부산광역시 동구 중앙대로361번길 41,부산광역시 동구 수정동 282-3,생활방범,1,200,360,30,2019-08,051-440-4701,35.12904281,129.0459759,2020-03-26
"부산광역시_동구",부산광역시 동구 정공단로 9,부산광역시 동구 좌천동 536-1,생활방범,1,200,360,30,2019-09,051-440-4701,35.13407331,129.0528899,2020-03-26
"부산광역시_동구",부산광역시 동구 중앙대로460번길 10,부산광역시 동구 좌천동 303-1,생활방범,1,200,360,30,2019-09,051-440-4701,35.13434079,129.0553978,2020-03-26
"부산광역시_동구",부산광역시 동구 증산로 38,부산광역시 동구 좌천동 854-50,생활방범,1,200,360,30,2019-09,051-440-4701,35.13324273,129.0485075,2020-03-26
"부산광역시_동구",부산광역시 동구 성북로45번길 5+C155,부산광역시 동구 좌천동 903-15,생활방범,1,200,360,30,2019-09,051-440-4701,35.137757,129.049385,2020-03-26
"부산광역시_동구",부산광역시 동구 좌천동 749-1,부산광역시 동구 좌천동 749-1,생활방범,1,200,360,30,2019-09,051-440-4701,35.136195,129.051679,2020-03-26
"부산광역시_동구",부산광역시 동구 홍곡로69번길 4,부산광역시 동구 수정동 1011-177,생활방범,1,200,360,30,2019-10,051-440-4701,35.12542019,129.0421252,2020-03-26
"부산광역시_동구",부산광역시 동구 초량북로 43-5,부산광역시 동구 초량동 767-14,생활방범,1,200,360,30,2019-10,051-440-4701,35.12341195,129.037012,2020-03-26
"부산광역시_동구",부산광역시 동구 망양로712번길 29,부산광역시 동구 수정동 867-16,생활방범,1,200,360,30,2019-10,051-440-4701,35.128619,129.043186,2020-03-26
"부산광역시_동구",부산광역시 동구 범일일길 35-1,부산광역시 동구 범일동 62-266,생활방범,1,200,360,30,2019-10,051-440-4701,35.14028089,129.0581801,2020-03-26
"부산광역시_동구",부산광역시 동구 범상로39번길 11,부산광역시 동구 범일동 1522-206,생활방범,1,200,360,30,2019-10,051-440-4701,35.14319816,129.0485463,2020-03-26
"부산광역시_동구",부산광역시 동구 수정공원남로 7,부산광역시 동구 수정동 1189-13,생활방범,1,200,360,30,2019-10,051-440-4701,35.12628145,129.0359295,2020-03-26
"부산광역시_동구",부산광역시 동구 범곡북로 28,부산광역시 동구 범일동 1486-2,생활방범,1,200,360,30,2019-10,051-440-4701,35.14182476,129.0530188,2020-03-26
"부산광역시_동구",부산광역시 동구 성남로 64,부산광역시 동구 좌천동 1119-2,생활방범,1,200,360,30,2019-10,051-440-4701,35.13091813,129.0559304,2020-03-26
"부산광역시_동구",부산광역시 동구 초량동 1171-1,부산광역시 동구 초량동 1171-1,생활방범,1,200,90,30,2019-10,051-440-4701,35.123621,129.047168,2020-03-26
"부산광역시_동구",부산광역시 동구 초량동 1171-1,부산광역시 동구 초량동 1171-1,생활방범,1,200,90,30,2019-10,051-440-4701,35.123621,129.047168,2020-03-26
"부산광역시_동구",부산광역시 동구 초량동 1171-1,부산광역시 동구 초량동 1171-1,생활방범,1,200,90,30,2019-10,051-440-4701,35.123621,129.047168,2020-03-26
"부산광역시_동구",부산광역시 동구 초량동 1171-1,부산광역시 동구 초량동 1171-1,생활방범,1,200,90,30,2019-10,051-440-4701,35.123621,129.047168,2020-03-26
"부산광역시_동구",부산광역시 동구 범곡로 9,부산광역시 동구 범일동 1368-1,생활방범,1,200,360,30,2019-10,051-440-4701,35.1388698,129.055731,2020-03-26
"부산광역시_동구",부산광역시 동구 수정공원상로 70-3,부산광역시 동구 수정동 1190,생활방범,1,200,360,30,2019-10,051-440-4701,35.12821811,129.037803,2020-03-26
"부산광역시_동구",부산광역시 동구 정공단로21번가길 1,부산광역시 동구 좌천동 1088-5,생활방범,1,200,360,30,2019-10,051-440-4701,35.13544265,129.0533412,2020-03-26
"부산광역시_동구",부산광역시 동구 수정중로38번길 18-8,부산광역시 동구 수정동 543-14,생활방범,1,200,360,30,2019-10,051-440-4701,35.13090021,129.045917,2020-03-26
"부산광역시_동구",부산광역시 동구 고관로29번길 82,부산광역시 동구 초량동 700-2,생활방범,1,200,360,30,2019-10,051-440-4701,35.1236152,129.0384298,2020-03-26
"부산광역시_동구",부산광역시 동구 홍곡로 31,부산광역시 동구 초량동 644-2,생활방범,1,200,360,30,2019-10,051-440-4701,35.1229158,129.0392842,2020-03-26
"부산광역시_동구",부산광역시 동구 망양로 641,부산광역시 동구 수정동 1190,생활방범,1,200,360,30,2019-10,051-440-4701,35.12620311,129.0365155,2020-03-26
"부산광역시_동구",부산광역시 동구 수정로41번길 12,부산광역시 동구 수정동 1104-69,생활방범,1,200,360,30,2019-10,051-440-4701,35.135654,129.043748,2020-03-26
"부산광역시_동구",부산광역시 동구 범일일길25번길 6,부산광역시 동구 범일동 662-101,생활방범,1,200,360,30,2019-10,051-440-4701,35.1395093,129.0581914,2020-03-26
"부산광역시_동구",부산광역시 동구 망양로739번길 4,부산광역시 동구 수정동 1144-6,생활방범,1,200,360,30,2019-10,051-440-4701,35.13018593,129.0403926,2020-03-26
"부산광역시_동구",부산광역시 동구 망양로 705,부산광역시 동구 수정동 844-394,생활방범,1,200,360,30,2019-10,051-440-4701,35.1278759,129.042498,2020-03-26
"부산광역시_동구",부산광역시 동구 홍곡중로 42-1,부산광역시 동구 수정동 1190,생활방범,1,200,360,30,2019-10,051-440-4701,35.12730731,129.0411588,2020-03-26
"부산광역시_동구",부산광역시 동구 초량중로16번길 8-1,부산광역시 동구 초량동 1109,생활방범,1,200,360,30,2019-10,051-440-4701,35.11325767,129.0370048,2020-03-26
"부산광역시_동구",부산광역시 동구 중앙대로371번길 26,부산광역시 동구 수정동 239-1,생활방범,1,200,360,30,2019-10,051-440-4701,35.12942729,129.0473281,2020-03-26
"부산광역시_동구",부산광역시 동구 성남이로56번길 26,부산광역시 동구 범일동 252-49,생활방범,1,200,360,30,2019-10,051-440-4701,35.13392359,129.0576778,2020-03-26
"부산광역시_동구",부산광역시 동구 초량중로 58-10,부산광역시 동구 초량동 1100-3,생활방범,1,200,360,30,2019-10,051-440-4701,35.11674804,129.0386579,2020-03-26
"부산광역시_동구",부산광역시 동구 수성로 33,부산광역시 동구 수정동 445-72,어린이보호,1,200,360,30,2019-12,051-440-4701,35.13522682,129.043081,2020-03-26
"부산광역시_동구",부산광역시 동구 수정공원로 108,부산광역시 동구 수정동 517-23,어린이보호,1,200,360,30,2019-12,051-440-4701,35.13460123,129.0410600200,2020-03-26
"부산광역시_동구",부산광역시 동구 정공단로17번길 16,부산광역시 동구 좌천동 763-1,어린이보호,1,200,360,30,2019-12,051-440-4701,35.13526283,129.0531041,2020-03-26
"부산광역시_동구",부산광역시 동구 정공단로 17,부산광역시 동구 좌천동 514-2,어린이보호,1,200,360,30,2019-12,051-440-4701,35.13467511,129.0533263,2020-03-26
"부산광역시_동구",부산광역시 동구 범상로 26,부산광역시 동구 범일동 1501-149,어린이보호,1,200,360,30,2019-12,051-440-4701,35.14257773,129.049211,2020-03-26
"부산광역시_동구",부산광역시 동구 구봉로 46,부산광역시 동구 수정동 1073-1,어린이보호,1,200,360,30,2019-12,051-440-4701,35.12451542,129.0367718,2020-03-26
"부산광역시_동구",부산광역시 동구 초량로 116,부산광역시 동구 초량동 827-114,어린이보호,1,200,360,30,2019-12,051-440-4701,35.11941422,129.0305773,2020-03-26
"부산광역시_동구",부산광역시 동구 범곡남로 12,부산광역시 동구 범일동 1363,어린이보호,1,200,360,30,2019-12,051-440-4701,35.1383395,129.0550368,2020-03-26
"부산광역시_동구",부산광역시 동구 수정서로26번길 17,부산광역시 동구 수정동 654,어린이보호,1,200,360,30,2019-12,051-440-4701,35.13067106,129.0434761,2020-03-26
"부산광역시_동구",부산광역시 동구 영초윗길 28,부산광역시 동구 초량동 899-19,어린이보호,1,200,360,30,2019-12,051-440-4701,35.11756171,129.034642,2020-03-26
"부산광역시_동구",부산광역시 동구 안창로 72,부산광역시 동구 범일동 산 65-153,어린이보호,1,200,360,30,2019-12,051-440-4701,35.14573576,129.0408641,2020-03-26
"부산광역시_동구",부산광역시 동구 홍곡로 11,부산광역시 동구 초량동 668-3,어린이보호,1,200,360,30,2019-12,051-440-4701,35.1211785,129.0384261,2020-03-26
"부산광역시_동구",부산광역시 동구 수정동 563-2,부산광역시 동구 수정동 563-2,어린이보호,1,200,360,30,2019-12,051-440-4701,35.132305,129.043594,2020-03-26
"부산광역시_동구",부산광역시 동구 초량상로157번길 42-1,부산광역시 동구 수정동 337-1,어린이보호,1,200,360,30,2019-12,051-440-4701,35.1255855,129.0439162,2020-03-26
"부산광역시_동구",부산광역시 동구 초량동 994-38,부산광역시 동구 초량동 994-38,생활방범,1,200,360,30,2019-12,051-440-4701,35.117085,129.0362285,2020-03-26
"부산광역시_동구",부산광역시 동구 중앙대로 387,부산광역시 동구 수정동 1-4,생활방범,1,200,360,30,2019-12,051-440-4701,35.12973458,129.0489812,2020-03-26
"부산광역시_동구",부산광역시 동구 수정공원로 63-1,부산광역시 동구 수정동 707-140,생활방범,1,200,360,30,2019-12,051-440-4701,35.13294524,129.037934,2020-03-26
"부산광역시_동구",부산광역시 동구 안창로92번길 19,부산광역시 동구 범일동 산 65-141,생활방범,1,200,360,30,2019-12,051-440-4701,35.14365091,129.0392322,2020-03-26
"부산광역시_동구",부산광역시 동구 대영로243번길 47,부산광역시 동구 초량동 579-2,생활방범,1,200,360,30,2019-12,051-440-4701,35.11426849,129.0381816,2020-03-26
"부산광역시_동구",부산광역시 동구 범내로 28,부산광역시 동구 범일동 1513-26,생활방범,1,200,360,30,2019-12,051-440-4701,35.14329856,129.0502823,2020-03-26
"부산광역시_동구",부산광역시 동구 좌천동 745-1,부산광역시 동구 좌천동 745-1,생활방범,1,200,360,30,2019-12,051-440-4701,35.136809,129.052169,2020-03-26
"부산광역시_동구",부산광역시 동구 자성로103번길 8,부산광역시 동구 범일동 586-26,생활방범,1,200,360,30,2019-12,051-440-4701,35.1362213,129.0622509,2020-03-26
"부산광역시_동구",부산광역시 동구 영초윗길 48,부산광역시 동구 초량동 856-31,생활방범,1,200,360,30,2019-12,051-440-4701,35.11853593,129.0326526,2020-03-26
"부산광역시_동구",부산광역시 동구 초량로60번길 18,부산광역시 동구 초량동 811-143,생활방범,1,200,360,30,2019-12,051-440-4701,35.12015174,129.0368913,2020-03-26
"부산광역시_동구",부산광역시 동구 대영로243번길 69,부산광역시 동구 초량동 555-1,생활방범,1,200,360,30,2019-12,051-440-4701,35.1151739,129.0387295,2020-03-26
"부산광역시_동구",부산광역시 동구 초량남로17번길 14,부산광역시 동구 초량동 906-78,생활방범,1,200,360,30,2019-12,051-440-4701,35.11898364,129.0349714,2020-03-26
"부산광역시_동구",부산광역시 동구 중앙대로 192,부산광역시 동구 초량동 1205-1,생활방범,1,200,360,30,2019-12,051-440-4701,35.11433245,129.0397558,2020-03-26
"부산광역시_동구",부산광역시 동구 범곡로39번길 24,부산광역시 동구 범일동 1478-20,생활방범,1,200,360,30,2019-12,051-440-4701,35.1405729,129.0539308,2020-03-26
"부산광역시_동구",부산광역시 동구 망양로833번길 1,부산광역시 동구 수정동 433-62,생활방범,1,200,360,30,2019-12,051-440-4701,35.1360133,129.0454297,2020-03-26
"부산광역시_동구",부산광역시 동구 범일로102번길 8,부산광역시 동구 범일동 830-58,생활방범,1,200,360,30,2019-12,051-440-4701,35.13886654,129.0603781,2020-03-26
"부산광역시_동구",부산광역시 동구 중앙대로195번가길 31,부산광역시 동구 초량동 1043-3,생활방범,1,200,360,30,2019-12,051-440-4701,35.1165399,129.0379595,2020-03-26
"부산광역시_동구",부산광역시 동구 수정동 589-5,부산광역시 동구 수정동 589-5,생활방범,1,200,360,30,2019-12,051-440-4701,35.135045,129.039042,2020-03-26
"부산광역시_동구",부산광역시 동구 중앙대로320번길 6,부산광역시 동구 초량동 1156-1,생활방범,1,200,360,30,2019-12,051-440-4701,35.12453307,129.0457797,2020-03-26
"부산광역시_동구",부산광역시 동구 정공단로 40,부산광역시 동구 좌천동 428-7,생활방범,1,200,360,30,2019-12,051-440-4701,35.13593661,129.0550342,2020-03-26
"부산광역시_동구",부산광역시 동구 고관로18,부산광역시 동구 초량동 1147-13,생활방범,1,200,360,30,2019-03,051-440-4701,35.12126887,129.0424778,2020-03-26
"부산광역시_동구",부산광역시 동구 망양로773번길 10,부산광역시 동구 수정동 607-27,생활방범,1,200,360,30,2019-03,051-440-4701,35.13235236,129.0416752,2020-03-26
"부산광역시_동구",부산광역시 동구 고관로 37,부산광역시 동구 수정동 397-38,쓰레기단속,1,200,360,30,2019-05,051-440-4701,35.12272717,129.0427862,2020-03-26
"부산광역시_동구",부산광역시 동구 진시장로16번길 17,부산광역시 동구 범일동 285-1,쓰레기단속,1,200,360,30,2019-05,051-440-4701,35.13640739,129.0580913,2020-03-26
"부산광역시_동구",부산광역시 동구 영초윗길26번길 3-14,부산광역시 동구 초량동 899-2,생활방범,1,200,360,30,2019-07,051-440-4701,35.11784967,129.0346668,2020-03-26
"부산광역시_동구",부산광역시 동구 구봉중길6번길 15,부산광역시 동구 초량동 754-164,생활방범,1,200,360,30,2019-07,051-440-4701,35.1266909,129.0342084,2020-03-26
"부산광역시_동구",부산광역시 동구 수정공원남로 31-5,부산광역시 동구 수정동 1188-31,생활방범,1,200,360,30,2019-07,051-440-4701,35.12750902,129.0377415,2020-03-26
"부산광역시_동구",부산광역시 동구 고관로153번길 27,부산광역시 동구 좌천동 812-57,생활방범,1,200,360,30,2019-07,051-440-4701,35.13222102,129.0496666,2020-03-26
"부산광역시_동구",부산광역시 동구 성남이로60번길 31-1,부산광역시 동구 범일동 252-1814,생활방범,1,200,360,30,2019-07,051-440-4701,35.13489166,129.0573467,2020-03-26
"부산광역시_동구",부산광역시 동구 성남일로 22,부산광역시 동구 좌천동 35-5,생활방범,1,200,360,30,2019-08,051-440-4701,35.1329813,129.0553857,2020-03-26
"부산광역시_동구",부산광역시 동구 망양로923번길 12,부산광역시 동구 범일동 1454-24,생활방범,1,200,360,30,2019-08,051-440-4701,35.1404474,129.0504872,2020-03-26
"부산광역시_동구",부산광역시 동구 구봉중길 19,부산광역시 동구 초량동 754-633,생활방범,1,200,360,30,2019-08,051-440-4701,35.12635609,129.0332023,2020-03-26
"부산광역시_동구",부산광역시 동구 홍곡남로 24,부산광역시 동구 수정동 1043-34,생활방범,1,200,360,30,2019-08,051-440-4701,35.12564209,129.0385812,2020-03-26
"부산광역시_동구",부산광역시 동구 범내로 39,부산광역시 동구 범일동 1509-69,생활방범,1,200,360,30,2019-08,051-440-4701,35.14335422,129.0489101,2020-03-26
"부산광역시_동구",부산광역시 동구 자성로140번길 32,부산광역시 동구 범일동 825-88,재난재해,1,200,360,30,2019-07,051-440-4701,35.13564358,129.0648472,2020-03-26
"부산광역시_동구",부산광역시 동구 자성로140번길 32,부산광역시 동구 범일동 825-88,재난재해,1,200,360,30,2019-07,051-440-4701,35.13564358,129.0648472,2020-03-26
"부산광역시_동구",부산광역시 동구 수성로 47,부산광역시 동구 수정동 438-20,어린이보호,1,200,360,30,2019-05,051-440-4701,35.13566977,129.0446015,2020-03-26
"부산광역시_동구",부산광역시 동구 수성로 47,부산광역시 동구 수정동 438-20,어린이보호,1,200,90,30,2019-05,051-440-4701,35.13566977,129.0446015,2020-03-26
"부산광역시_동구",부산광역시 동구 수성로 47,부산광역시 동구 수정동 438-20,어린이보호,1,200,90,30,2019-05,051-440-4701,35.13566977,129.0446015,2020-03-26
"부산광역시_동구",부산광역시 동구 수성로 47,부산광역시 동구 수정동 438-20,어린이보호,1,200,90,30,2019-05,051-440-4701,35.13566977,129.0446015,2020-03-26
"부산광역시_동구",부산광역시 동구 수성로 47,부산광역시 동구 수정동 438-20,어린이보호,1,200,90,30,2019-05,051-440-4701,35.13566977,129.0446015,2020-03-26
"부산광역시_동구",부산광역시 동구 범일로 35,부산광역시 동구 수정동 438-20,어린이보호,1,200,360,30,2019-05,051-440-4701,35.13305763,129.0594243,2020-03-26
"부산광역시_동구",부산광역시 동구 범일로 35,부산광역시 동구 수정동 438-20,어린이보호,1,200,90,30,2019-05,051-440-4701,35.13305763,129.0594243,2020-03-26
"부산광역시_동구",부산광역시 동구 범일로 35,부산광역시 동구 수정동 438-20,어린이보호,1,200,90,30,2019-05,051-440-4701,35.13305763,129.0594243,2020-03-26
"부산광역시_동구",부산광역시 동구 수정공원로 63-1,부산광역시 동구 수정동 713-2,재난재해,1,200,360,30,2019-04,051-440-4701,35.13294524,129.037934,2020-03-26
"부산광역시_동구",부산광역시 동구 수정공원로 63-1,부산광역시 동구 수정동 713-2,재난재해,1,200,360,30,2019-04,051-440-4701,35.13294524,129.037934,2020-03-26
"부산광역시_동구",부산광역시 동구 망양로 807,부산광역시 동구 수정동 488-3,어린이보호,1,41,90,30,2019-01,051-440-4701,35.13455159,129.0427218,2020-03-26
"부산광역시_동구",부산광역시 동구 망양로 807,부산광역시 동구 수정동 488-3,어린이보호,1,41,90,30,2019-01,051-440-4701,35.13455159,129.0427218,2020-03-26
"부산광역시_동구",부산광역시 동구 망양로 807,부산광역시 동구 수정동 488-3,어린이보호,1,41,90,30,2019-01,051-440-4701,35.13455159,129.0427218,2020-03-26
"부산광역시_동구",부산광역시 동구 진성로 29,부산광역시 동구 수정2동 464-2,어린이보호,1,200,90,30,2019-01,051-440-4701,35.13126498,129.0467291,2020-03-26
"부산광역시_동구",부산광역시 동구 진성로 29,부산광역시 동구 수정2동 464-2,어린이보호,1,200,90,30,2019-01,051-440-4701,35.13126498,129.0467291,2020-03-26
"부산광역시_동구",부산광역시 동구 영초길191번길 8-1,부산광역시 동구 초량동 994-213,시설물관리,1,200,90,30,2019-08,051-440-4701,35.11724152,129.0354632,2020-03-26
"부산광역시_동구",부산광역시 동구 영초길191번길 8-1,부산광역시 동구 초량동 994-213,시설물관리,1,200,90,30,2019-08,051-440-4701,35.11724152,129.0354632,2020-03-26
"부산광역시_동구",부산광역시 동구 영초길191번길 8-1,부산광역시 동구 초량동 994-213,시설물관리,1,200,90,30,2019-08,051-440-4701,35.11724152,129.0354632,2020-03-26
"부산광역시_동구",부산광역시 동구 영초길191번길 8-1,부산광역시 동구 초량동 994-213,시설물관리,1,200,90,30,2019-08,051-440-4701,35.11724152,129.0354632,2020-03-26
"부산광역시_동구",부산광역시 동구 중앙대로371번길 62,부산광역시 동구 수정동 549-8,쓰레기단속,1,200,360,30,2019-06,051-440-4701,35.13048042,129.0458012,2020-03-26
"부산광역시_동구",부산광역시 동구 능풍길 8,부산광역시 동구 좌천동 831-3,쓰레기단속,1,200,360,30,2019-06,051-440-4701,35.13211784,129.0472419,2020-03-26
"부산광역시_동구",부산광역시 동구 수정공원북로 1,부산광역시 동구 수정동 433-13,쓰레기단속,1,200,360,30,2019-06,051-440-4701,35.13665945,129.0453371,2020-03-26
"부산광역시_동구",부산광역시 동구 수정공원상로20번가길 46-1,부산광역시 동구 수정동 1188,쓰레기단속,1,200,360,30,2019-06,051-440-4701,35.12773835,129.0367512,2020-03-26
"부산광역시_동구",부산광역시 동구 홍곡로91번길 14,부산광역시 동구 수정동 1002-31,쓰레기단속,1,200,360,30,2019-06,051-440-4701,35.12612686,129.0436126,2020-03-26
"부산광역시_동구",부산광역시 동구 고관로29번길 73,부산광역시 동구 초량동 702-3,쓰레기단속,1,200,360,30,2019-06,051-440-4701,35.12325707,129.0387192,2020-03-26
"부산광역시_동구",부산광역시 동구 초량중로 115-1,부산광역시 동구 초량동 90-29,쓰레기단속,1,200,360,30,2019-06,051-440-4701,35.12188912,129.0407515,2020-03-26
"부산광역시_동구",부산광역시 동구 고관로7번길 16,부산광역시 동구 초량동 50-40,쓰레기단속,1,200,360,30,2019-06,051-440-4701,35.1205329,129.0408117,2020-03-26
"부산광역시_동구",부산광역시 동구 초량중로 49,부산광역시 동구 초량동 1043-8,쓰레기단속,1,200,360,30,2019-06,051-440-4701,35.1163426,129.0378305,2020-03-26
"부산광역시_동구",부산광역시 동구 초량중로 16,부산광역시 동구 초량동 597-20,쓰레기단속,1,200,360,30,2019-06,051-440-4701,35.11350689,129.0367609,2020-03-26
"부산광역시_동구",부산광역시 동구 초량북로42번길 9,부산광역시 동구 초량동 768-19,쓰레기단속,1,200,360,30,2019-06,051-440-4701,35.1230061,129.0373529,2020-03-26
"부산광역시_동구",부산광역시 동구 성남이로56번길 4,부산광역시 동구 범일동 252-8,쓰레기단속,1,200,360,30,2019-06,051-440-4701,35.13372866,129.0566329,2020-03-26
"부산광역시_동구",부산광역시 동구 구청로 1,부산광역시 동구 수정동 806-74,재난재해,1,200,90,30,2019-07,051-440-4701,35.12929577,129.0452977,2020-03-26
"부산광역시_동구",부산광역시 동구 구청로 1,부산광역시 동구 수정동 806-74,재난재해,1,200,90,30,2019-07,051-440-4701,35.12929577,129.0452977,2020-03-26
"부산광역시_동구",부산광역시 동구 초량상로 77-1,부산광역시 동구 초량동 296-27,생활방범,1,200,360,30,2019-10,051-440-4701,35.1187436,129.0381901,2020-03-26
"부산광역시_동구",부산광역시 동구 초량상로25번길 21,부산광역시 동구 초량동 1064-259,생활방범,1,200,360,30,2019-10,051-440-4701,35.11477806,129.0349062,2020-03-26
"부산광역시_동구",부산광역시 동구 망양로 627-2,부산광역시 동구 초량동 754-1199,생활방범,1,200,360,30,2019-10,051-440-4701,35.1262664,129.0348394,2020-03-26
"부산광역시_동구",부산광역시 동구 수정외솔로7번길 20,부산광역시 동구 수정동 969-39,생활방범,1,200,360,30,2019-10,051-440-4701,35.12630703,129.041906,2020-03-26
"부산광역시_동구",부산광역시 동구 수정북로23번길 47-4,부산광역시 동구 수정동 665-2,생활방범,1,200,360,30,2019-10,051-440-4701,35.130918,129.0421552,2020-03-26
"부산광역시_동구",부산광역시 동구 수정공원로 29-1,부산광역시 동구 수정동 925-22,생활방범,1,200,360,30,2019-10,051-440-4701,35.12954332,129.0393805,2020-03-26
"부산광역시_동구",부산광역시 동구 중앙대로460번가길 7,부산광역시 동구 좌천동 308-54,생활방범,1,200,90,30,2019-10,051-440-4701,35.1344125,129.0558179,2020-03-26
"부산광역시_동구",부산광역시 동구 중앙대로460번가길 7,부산광역시 동구 좌천동 308-54,생활방범,1,200,360,30,2019-10,051-440-4701,35.1344125,129.0558179,2020-03-26
"부산광역시_동구",부산광역시 동구 중앙대로460번가길 7,부산광역시 동구 좌천동 308-54,생활방범,1,200,360,30,2019-10,051-440-4701,35.1344125,129.0558179,2020-03-26
"부산광역시_동구",부산광역시 동구 성남로 67-1,부산광역시 동구 좌천동 68-575,생활방범,1,200,360,30,2019-10,051-440-4701,35.1313336,129.0563092,2020-03-26
"부산광역시_동구",부산광역시 동구 자성공원로 4,부산광역시 동구 범일동 320-1,생활방범,1,200,360,30,2019-10,051-440-4701,35.1369028,129.0599073,2020-03-26
"부산광역시_동구",부산광역시 동구 범일로89번길 46,부산광역시 동구 범일동 914-9,생활방범,1,200,90,30,2019-10,051-440-4701,35.13966806,129.0588185,2020-03-26
"부산광역시_동구",부산광역시 동구 범일로89번길 46,부산광역시 동구 범일동 914-9,생활방범,1,200,90,30,2019-10,051-440-4701,35.13966806,129.0588185,2020-03-26
"부산광역시_동구",부산광역시 동구 범일로89번길 46,부산광역시 동구 범일동 914-9,생활방범,1,200,90,30,2019-10,051-440-4701,35.13966806,129.0588185,2020-03-26
"부산광역시_동구",부산광역시 동구 범일로89번길 46,부산광역시 동구 범일동 914-9,생활방범,1,200,90,30,2019-10,051-440-4701,35.13966806,129.0588185,2020-03-26
"부산광역시_동구",부산광역시 동구 수정공원북로 3,부산광역시 동구 수정5동 426-16,생활방범,1,200,360,30,2019-10,051-440-4701,35.13690459,129.0455495,2020-03-26
"부산광역시_동구",부산광역시 동구 수정공원북로 3,부산광역시 동구 수정5동 426-16,생활방범,1,200,90,30,2019-10,051-440-4701,35.13690459,129.0455495,2020-03-26
"부산광역시_동구",부산광역시 동구 수정공원북로 3,부산광역시 동구 수정5동 426-16,생활방범,1,200,90,30,2019-10,051-440-4701,35.13690459,129.0455495,2020-03-26
"부산광역시_동구",부산광역시 동구 수정공원북로 3,부산광역시 동구 수정5동 426-16,생활방범,1,200,90,30,2019-10,051-440-4701,35.13690459,129.0455495,2020-03-26
"부산광역시_동구",부산광역시 동구 성남일로 5,부산광역시 동구 좌천동 1168,생활방범,1,200,360,30,2019-10,051-440-4701,35.1319028,129.0553257,2020-03-26
"부산광역시_동구",부산광역시 동구 성남일로 5,부산광역시 동구 좌천동 1168,생활방범,1,200,90,30,2019-10,051-440-4701,35.1319028,129.0553257,2020-03-26
"부산광역시_동구",부산광역시 동구 성남일로 5,부산광역시 동구 좌천동 1168,생활방범,1,200,90,30,2019-10,051-440-4701,35.1319028,129.0553257,2020-03-26
"부산광역시_동구",부산광역시 동구 성남일로 5,부산광역시 동구 좌천동 1168,생활방범,1,200,90,30,2019-10,051-440-4701,35.1319028,129.0553257,2020-03-26
"부산광역시_동구",부산광역시 동구 증산동로 37,부산광역시 동구 좌천동 752-5,생활방범,1,200,360,30,2019-10,051-440-4701,35.13551962,129.0513509,2020-03-26
"부산광역시_동구",부산광역시 동구 증산동로 37,부산광역시 동구 좌천동 752-5,생활방범,1,200,90,30,2019-10,051-440-4701,35.13551962,129.0513509,2020-03-26
"부산광역시_동구",부산광역시 동구 증산동로 37,부산광역시 동구 좌천동 752-5,생활방범,1,200,90,30,2019-10,051-440-4701,35.13551962,129.0513509,2020-03-26
"부산광역시_동구",부산광역시 동구 증산동로 37,부산광역시 동구 좌천동 752-5,생활방범,1,200,90,30,2019-10,051-440-4701,35.13551962,129.0513509,2020-03-26
"부산광역시_동구",부산광역시 동구 증산동로 9-2,부산광역시 동구 좌천동 860-144,생활방범,1,200,360,30,2019-10,051-440-4701,35.1340949,129.049532,2020-03-26
"부산광역시_동구",부산광역시 동구 증산동로 9-2,부산광역시 동구 좌천동 860-144,생활방범,1,200,90,30,2019-10,051-440-4701,35.1340949,129.049532,2020-03-26
"부산광역시_동구",부산광역시 동구 증산동로 9-2,부산광역시 동구 좌천동 860-144,생활방범,1,200,90,30,2019-10,051-440-4701,35.1340949,129.049532,2020-03-26
"부산광역시_동구",부산광역시 동구 증산동로 9-2,부산광역시 동구 좌천동 860-144,생활방범,1,200,90,30,2019-10,051-440-4701,35.1340949,129.049532,2020-03-26
"부산광역시_동구",부산광역시 동구 증산동로 9-2,부산광역시 동구 좌천동 860-144,생활방범,1,200,90,30,2019-10,051-440-4701,35.1340949,129.049532,2020-03-26
"부산광역시_동구",부산광역시 동구 초량북로 47,부산광역시 동구 초량동 768-5,생활방범,1,200,360,30,2019-10,051-440-4701,35.1235118,129.0372909,2020-03-26
"부산광역시_동구",부산광역시 동구 초량북로 47,부산광역시 동구 초량동 768-5,생활방범,1,200,90,30,2019-10,051-440-4701,35.1235118,129.0372909,2020-03-26
"부산광역시_동구",부산광역시 동구 초량북로 47,부산광역시 동구 초량동 768-5,생활방범,1,200,90,30,2019-10,051-440-4701,35.1235118,129.0372909,2020-03-26
"부산광역시_동구",부산광역시 동구 초량북로 47,부산광역시 동구 초량동 768-5,생활방범,1,200,90,30,2019-10,051-440-4701,35.1235118,129.0372909,2020-03-26
"부산광역시_동구",부산광역시 동구 영초길193번길 15,부산광역시 동구 초량동 990-33,생활방범,1,200,360,30,2019-10,051-440-4701,35.11784045,129.0356448,2020-03-26
"부산광역시_동구",부산광역시 동구 영초길193번길 15,부산광역시 동구 초량동 990-33,생활방범,1,200,90,30,2019-10,051-440-4701,35.11784045,129.0356448,2020-03-26
"부산광역시_동구",부산광역시 동구 영초길193번길 15,부산광역시 동구 초량동 990-33,생활방범,1,200,90,30,2019-10,051-440-4701,35.11784045,129.0356448,2020-03-26
"부산광역시_동구",부산광역시 동구 영초길193번길 15,부산광역시 동구 초량동 990-33,생활방범,1,200,90,30,2019-10,051-440-4701,35.11784045,129.0356448,2020-03-26
"부산광역시_동구",부산광역시 동구 영초길193번길 15,부산광역시 동구 초량동 990-33,생활방범,1,200,90,30,2019-10,051-440-4701,35.11784045,129.0356448,2020-03-26
"부산광역시_동구",부산광역시 동구 초량상로 155-1,부산광역시 동구 수정동 366-4,생활방범,1,200,360,30,2019-10,051-440-4701,35.12409763,129.0427459,2020-03-26
"부산광역시_동구",부산광역시 동구 초량상로 155-1,부산광역시 동구 수정동 366-4,생활방범,1,200,90,30,2019-10,051-440-4701,35.12409763,129.0427459,2020-03-26
"부산광역시_동구",부산광역시 동구 초량상로 155-1,부산광역시 동구 수정동 366-4,생활방범,1,200,90,30,2019-10,051-440-4701,35.12409763,129.0427459,2020-03-26
"부산광역시_동구",부산광역시 동구 초량상로 155-1,부산광역시 동구 수정동 366-4,생활방범,1,200,90,30,2019-10,051-440-4701,35.12409763,129.0427459,2020-03-26
"부산광역시_동구",부산광역시 동구 영초길232번길 1,부산광역시 동구 초량동 904-1,생활방범,1,200,360,30,2019-10,051-440-4701,35.1186267,129.0349756,2020-03-26
"부산광역시_동구",부산광역시 동구 영초길232번길 1,부산광역시 동구 초량동 904-1,생활방범,1,200,90,30,2019-10,051-440-4701,35.1186267,129.0349756,2020-03-26
"부산광역시_동구",부산광역시 동구 영초길232번길 1,부산광역시 동구 초량동 904-1,생활방범,1,200,90,30,2019-10,051-440-4701,35.1186267,129.0349756,2020-03-26
"부산광역시_동구",부산광역시 동구 영초길232번길 1,부산광역시 동구 초량동 904-1,생활방범,1,200,90,30,2019-10,051-440-4701,35.1186267,129.0349756,2020-03-26
"부산광역시_동구",부산광역시 동구 망양로737번길 11,부산광역시 동구 수정동 1164-3,생활방범,1,200,360,30,2019-10,051-440-4701,35.12986968,129.0401214,2020-03-26
"부산광역시_동구",부산광역시 동구 망양로737번길 11,부산광역시 동구 수정동 1164-3,생활방범,1,200,90,30,2019-10,051-440-4701,35.12986968,129.0401214,2020-03-26
"부산광역시_동구",부산광역시 동구 망양로737번길 11,부산광역시 동구 수정동 1164-3,생활방범,1,200,90,30,2019-10,051-440-4701,35.12986968,129.0401214,2020-03-26
"부산광역시_동구",부산광역시 동구 망양로737번길 11,부산광역시 동구 수정동 1164-3,생활방범,1,200,90,30,2019-10,051-440-4701,35.12986968,129.0401214,2020-03-26
"부산광역시_동구",부산광역시 동구 증산동로 77,부산광역시 동구 범일1동1352-113,생활방범,1,200,90,30,2019-05,051-440-4701,35.1381957,129.0536078,2020-03-26
"부산광역시_동구",부산광역시 동구 증산동로 77,부산광역시 동구 범일1동1352-113,생활방범,1,200,90,30,2019-05,051-440-4701,35.1381957,129.0536078,2020-03-26
"부산광역시_동구",부산광역시 동구 증산동로 77,부산광역시 동구 범일1동1352-113,생활방범,1,200,90,30,2019-05,051-440-4701,35.1381957,129.0536078,2020-03-26
"부산광역시_동구",부산광역시 동구 증산동로 77,부산광역시 동구 범일1동1352-113,생활방범,1,200,360,30,2019-05,051-440-4701,35.1381957,129.0536078,2020-03-26
"부산광역시_동구",부산광역시 동구 수정공원로 48,부산광역시 동구 수정2동 771-240,생활방범,1,200,90,30,2019-05,051-440-4701,35.13090642,129.0393487,2020-03-26
"부산광역시_동구",부산광역시 동구 수정공원로 48,부산광역시 동구 수정2동 771-240,생활방범,1,200,90,30,2019-05,051-440-4701,35.13090642,129.0393487,2020-03-26
"부산광역시_동구",부산광역시 동구 수정공원로 48,부산광역시 동구 수정2동 771-240,생활방범,1,200,90,30,2019-05,051-440-4701,35.13090642,129.0393487,2020-03-26
"부산광역시_동구",부산광역시 동구 수정공원로 48,부산광역시 동구 수정2동 771-240,생활방범,1,200,90,30,2019-05,051-440-4701,35.13090642,129.0393487,2020-03-26
"부산광역시_동구",부산광역시 동구 수정공원로 48,부산광역시 동구 수정2동 771-240,생활방범,1,200,360,30,2019-05,051-440-4701,35.13090642,129.0393487,2020-03-26
"부산광역시_동구",부산광역시 동구 수정공원로 122,부산광역시 동구 수정5동489-16,생활방범,1,200,90,30,2019-05,051-440-4701,35.13524361,129.0420853,2020-03-26
"부산광역시_동구",부산광역시 동구 수정공원로 122,부산광역시 동구 수정5동489-16,생활방범,1,200,90,30,2019-05,051-440-4701,35.13524361,129.0420853,2020-03-26
"부산광역시_동구",부산광역시 동구 수정공원로 122,부산광역시 동구 수정5동489-16,생활방범,1,200,90,30,2019-05,051-440-4701,35.13524361,129.0420853,2020-03-26
"부산광역시_동구",부산광역시 동구 수정공원로 122,부산광역시 동구 수정5동489-16,생활방범,1,200,360,30,2019-05,051-440-4701,35.13524361,129.0420853,2020-03-26
"부산광역시_동구",부산광역시 동구 망양로 844번길 19-1,부산광역시 동구 수정5동 428-6,생활방범,1,200,90,30,2019-05,051-440-4701,35.1354608,129.0461567,2020-03-26
"부산광역시_동구",부산광역시 동구 망양로 844번길 19-1,부산광역시 동구 수정5동 428-6,생활방범,1,200,90,30,2019-05,051-440-4701,35.1354608,129.0461567,2020-03-26
"부산광역시_동구",부산광역시 동구 망양로 516,부산광역시 동구 초량동 865-171,생활방범,1,200,90,30,2019-05,051-440-4701,35.1187471,129.030593,2020-03-26
"부산광역시_동구",부산광역시 동구 망양로 516,부산광역시 동구 초량동 865-171,생활방범,1,200,90,30,2019-05,051-440-4701,35.1187471,129.030593,2020-03-26
"부산광역시_동구",부산광역시 동구 망양로 516,부산광역시 동구 초량동 865-171,생활방범,1,200,90,30,2019-05,051-440-4701,35.1187471,129.030593,2020-03-26
"부산광역시_동구",부산광역시 동구 망양로 516,부산광역시 동구 초량동 865-171,생활방범,1,200,360,30,2019-05,051-440-4701,35.1187471,129.030593,2020-03-26
"부산광역시_동구",부산광역시 동구 좌천로 61,부산광역시 동구 좌천동 822-18,생활방범,1,200,90,30,2019-05,051-440-4701,35.1319404,129.0486155,2020-03-26
"부산광역시_동구",부산광역시 동구 좌천로 61,부산광역시 동구 좌천동 822-18,생활방범,1,200,90,30,2019-05,051-440-4701,35.1319404,129.0486155,2020-03-26
"부산광역시_동구",부산광역시 동구 좌천로 61,부산광역시 동구 좌천동 822-18,생활방범,1,200,90,30,2019-05,051-440-4701,35.1319404,129.0486155,2020-03-26
"부산광역시_동구",부산광역시 동구 좌천로 61,부산광역시 동구 좌천동 822-18,생활방범,1,200,360,30,2019-05,051-440-4701,35.1319404,129.0486155,2020-03-26
"부산광역시_동구",부산광역시 동구 중앙대로 251번길 25,부산광역시 동구 초량3동 147-2,생활방범,1,200,90,30,2019-05,051-440-4701,35.11970967,129.0404558,2020-03-26
"부산광역시_동구",부산광역시 동구 중앙대로 251번길 25,부산광역시 동구 초량3동 147-2,생활방범,1,200,90,30,2019-05,051-440-4701,35.11970967,129.0404558,2020-03-26
"부산광역시_동구",부산광역시 동구 중앙대로 251번길 25,부산광역시 동구 초량3동 147-2,생활방범,1,200,90,30,2019-05,051-440-4701,35.11970967,129.0404558,2020-03-26
"부산광역시_동구",부산광역시 동구 중앙대로 251번길 25,부산광역시 동구 초량3동 147-2,생활방범,1,200,90,30,2019-05,051-440-4701,35.11970967,129.0404558,2020-03-26
"부산광역시_동구",부산광역시 동구 중앙대로 251번길 25,부산광역시 동구 초량3동 147-2,생활방범,1,200,360,30,2019-05,051-440-4701,35.11970967,129.0404558,2020-03-26
"부산광역시_동구",부산광역시 동구 수정중로 47,부산광역시 동구 수정2동 463-13,생활방범,1,200,90,30,2019-05,051-440-4701,35.13218212,129.0459974,2020-03-26
"부산광역시_동구",부산광역시 동구 수정중로 47,부산광역시 동구 수정2동 463-13,생활방범,1,200,90,30,2019-05,051-440-4701,35.13218212,129.0459974,2020-03-26
"부산광역시_동구",부산광역시 동구 수정중로 47,부산광역시 동구 수정2동 463-13,생활방범,1,200,90,30,2019-05,051-440-4701,35.13218212,129.0459974,2020-03-26
"부산광역시_동구",부산광역시 동구 수정중로 47,부산광역시 동구 수정2동 463-13,생활방범,1,200,360,30,2019-05,051-440-4701,35.13218212,129.0459974,2020-03-26
"부산광역시_동구",부산광역시 동구 성북로 42번길,부산광역시 동구 범일동 1412-127,생활방범,1,200,90,30,2019-05,051-440-4701,35.138731,129.051039,2020-03-26
"부산광역시_동구",부산광역시 동구 성북로 42번길,부산광역시 동구 범일동 1412-127,생활방범,1,200,90,30,2019-05,051-440-4701,35.138731,129.051039,2020-03-26
"부산광역시_동구",부산광역시 동구 성북로 42번길,부산광역시 동구 범일동 1412-127,생활방범,1,200,360,30,2019-05,051-440-4701,35.138731,129.051039,2020-03-26
"부산광역시_동구",부산광역시 동구 망양로 694번길 25-3,부산광역시 동구 수정4동 974-43,생활방범,1,200,90,30,2019-05,051-440-4701,35.127388,129.0425736,2020-03-26
"부산광역시_동구",부산광역시 동구 망양로 694번길 25-3,부산광역시 동구 수정4동 974-43,생활방범,1,200,90,30,2019-05,051-440-4701,35.127388,129.0425736,2020-03-26
"부산광역시_동구",부산광역시 동구 망양로 694번길 25-3,부산광역시 동구 초량6동 827-65,생활방범,1,200,360,30,2019-05,051-440-4701,35.127388,129.0425736,2020-03-26
"부산광역시_동구",부산광역시 동구 초량로 80번길 38,부산광역시 동구 초량6동 827-65,생활방범,1,200,90,30,2019-05,051-440-4701,35.12169045,129.0345605,2020-03-26
"부산광역시_동구",부산광역시 동구 초량로 80번길 38,부산광역시 동구 초량6동 827-65,생활방범,1,200,90,30,2019-05,051-440-4701,35.12169045,129.0345605,2020-03-26
"부산광역시_동구",부산광역시 동구 초량로 80번길 38,부산광역시 동구 초량6동 827-65,생활방범,1,200,90,30,2019-05,051-440-4701,35.12169045,129.0345605,2020-03-26
"부산광역시_동구",부산광역시 동구 초량로 80번길 38,부산광역시 동구 초량6동 827-65,생활방범,1,200,360,30,2019-05,051-440-4701,35.12169045,129.0345605,2020-03-26
"부산광역시_동구",부산광역시 동구 영초길135-4,부산광역시 동구 초량동1064-1,생활방범,1,200,360,30,2019-07,051-440-4701,35.11563491,129.0338966,2020-03-26
"부산광역시_동구",부산광역시 동구 망양로 773,부산광역시 동구 수정동 1142,생활방범,1,200,360,30,2019-07,051-440-4701,35.13205291,129.0419047,2020-03-26
"부산광역시_동구",부산광역시 동구 망양로875번길 28,부산광역시 동구 범일동 1435-296,생활방범,1,200,360,30,2019-07,051-440-4701,35.13995016,129.0481314,2020-03-26
"부산광역시_동구",부산광역시 동구 범곡북로3번길 17,부산광역시 동구 범일동 1622,생활방범,1,200,360,30,2019-07,051-440-4701,35.14139722,129.0546361,2020-03-26
"부산광역시_동구",부산광역시 동구 진시장로 10,부산광역시 동구 범일동 238-5,생활방범,1,200,360,30,2019-08,051-440-4701,35.13692604,129.0576919,2020-03-26
"부산광역시_동구",부산광역시 동구 진시장로 10,부산광역시 동구 범일동 238-5,생활방범,1,200,360,30,2019-08,051-440-4701,35.13692604,129.0576919,2020-03-26
"부산광역시_동구",부산광역시 동구 진시장로 10,부산광역시 동구 범일동 238-5,생활방범,1,200,90,30,2019-08,051-440-4701,35.13692604,129.0576919,2020-03-26
"부산광역시_동구",부산광역시 동구 수정로21번길 11,부산광역시 동구 수정동 515-6,재난재해,1,200,360,30,2019-08,051-440-4701,35.129497,129.0416392,2020-03-26
"부산광역시_동구",부산광역시 동구 수정로21번길 11,부산광역시 동구 수정동 515-6,재난재해,1,200,90,30,2019-08,051-440-4701,35.129497,129.0416392,2020-03-26
"부산광역시_동구",부산광역시 동구 중앙대로 221,부산광역시 동구 초량동 375,교통,1,41,90,30,2019-05,051-440-4701,35.1168811,129.0405848,2020-03-26
"부산광역시_동구",부산광역시 동구 중앙대로 221,부산광역시 동구 초량동 375,교통,1,41,90,30,2019-05,051-440-4701,35.1168811,129.0405848,2020-03-26
"부산광역시_동구",부산광역시 동구 중앙대로 197,부산광역시 동구 초량동 1208-18,교통,1,41,90,30,2019-06,051-440-4701,35.1148707,129.039451,2020-03-26
"부산광역시_동구",부산광역시 동구 중앙대로 197,부산광역시 동구 초량동 1208-18,교통,1,41,90,30,2019-06,051-440-4701,35.1148707,129.039451,2020-03-26
"부산광역시_동구",부산광역시 동구 중앙대로 216,부산광역시 동구 초량동 1199-9,교통,1,200,90,30,2019-04,051-440-4701,35.11633346,129.0403094,2020-03-26
"부산광역시_동구",부산광역시 동구 중앙대로 216,부산광역시 동구 초량동 1199-9,교통,1,200,90,30,2019-04,051-440-4701,35.11633346,129.0403094,2020-03-26
"부산광역시_동구",부산광역시 동구 진성로 15,부산광역시 동구 수정동 247-17,교통,1,200,90,30,2019-04,051-440-4701,35.1301509,129.0477506,2020-03-26
"부산광역시_동구",부산광역시 동구 진성로 15,부산광역시 동구 수정동 247-17,교통,1,200,90,30,2019-04,051-440-4701,35.1301509,129.0477506,2020-03-26
"부산광역시_동구",부산광역시 동구 중앙대로 371,부산광역시 동구 수정동 1-48,교통,1,41,90,30,2019-09,051-440-4701,35.1286476,129.048729,2020-03-26
"부산광역시_동구",부산광역시 동구 중앙대로 371,부산광역시 동구 수정동 1-48,교통,1,41,90,30,2019-09,051-440-4701,35.1286476,129.048729,2020-03-26
"부산광역시_동구",부산광역시 동구 중앙대로 380,부산광역시 동구 좌천동 1164-2,교통,1,41,90,30,2019-03,051-440-4701,35.1284775,129.0487039,2020-03-26
"부산광역시_동구",부산광역시 동구 중앙대로 380,부산광역시 동구 좌천동 1164-2,교통,1,41,90,30,2019-03,051-440-4701,35.1284775,129.0487039,2020-03-26
"부산광역시_동구",부산광역시 동구 범일로 102,부산광역시 동구 범일동 833-13,교통,1,41,90,30,2019-05,051-440-4701,35.1391367,129.0595041,2020-03-26
"부산광역시_동구",부산광역시 동구 범일로 102,부산광역시 동구 범일동 833-13,교통,1,41,90,30,2019-05,051-440-4701,35.1391367,129.0595041,2020-03-26
"부산광역시_동구",부산광역시 동구 범일로 92,부산광역시 동구 범일동 830-38,교통,1,41,90,30,2019-09,051-440-4701,35.1380664,129.0595047,2020-03-26
"부산광역시_동구",부산광역시 동구 범일로 92,부산광역시 동구 범일동 830-38,교통,1,41,90,30,2019-09,051-440-4701,35.1380664,129.0595047,2020-03-26
"부산광역시_동구",부산광역시 동구 범일로 113,부산광역시 동구 범일동 901,교통,1,41,90,30,2019-08,051-440-4701,35.1402064,129.0593495,2020-03-26
"부산광역시_동구",부산광역시 동구 범일로 113,부산광역시 동구 범일동 901,교통,1,41,90,30,2019-08,051-440-4701,35.1402064,129.0593495,2020-03-26
"부산광역시_동구",부산광역시 동구 중앙대로 501-1,부산광역시 동구 범일동 105-1,교통,1,200,90,30,2019-09,051-440-4701,35.138029,129.056125,2020-03-26
"부산광역시_동구",부산광역시 동구 중앙대로 501-1,부산광역시 동구 범일동 105-1,교통,1,130,360,30,2019-12,051-440-4701,35.1380158,129.0563503,2020-03-26
"부산광역시_동구",부산광역시 동구 중앙대로 501-1,부산광역시 동구 범일동 105-1,교통,1,130,360,30,2019-12,051-440-4701,35.1380158,129.0563503,2020-03-26
"부산광역시_동구",부산광역시 동구 중앙대로 258,부산광역시 동구 초량동 1191-2,교통,1,130,360,30,2019-07,051-440-4701,35.1198167,129.0424732,2020-03-26
"부산광역시_동구",부산광역시 동구 중앙대로 258,부산광역시 동구 초량동 1191-2,교통,1,130,360,30,2019-07,051-440-4701,35.1198167,129.0424732,2020-03-26
"부산광역시_동구",부산광역시 동구 중앙대로 258,부산광역시 동구 초량동 1191-2,교통,1,130,360,30,2019-07,051-440-4701,35.1198167,129.0424732,2020-03-26
"부산광역시_동구",부산광역시 동구 범일로90번길 16-1,부산광역시 동구 범일동 571-3,교통,1,200,90,30,2019-07,051-440-4701,35.137887,129.061345,2020-03-26
"부산광역시_동구",부산광역시 동구 범일로90번길 16-1,부산광역시 동구 범일동 571-3,교통,1,200,90,30,2019-07,051-440-4701,35.137887,129.061345,2020-03-26
"부산광역시_동구",부산광역시 동구 중앙대로214번길 7,부산광역시 동구 초량동 1200-17,교통,1,200,90,30,2019-12,051-440-4701,35.1160384,129.0413466,2020-03-26
"부산광역시_동구",부산광역시 동구 중앙대로214번길 7,부산광역시 동구 초량동 1200-17,교통,1,200,90,30,2019-12,051-440-4701,35.1160384,129.0413466,2020-03-26
"부산광역시_동구",부산광역시 동구 중앙대로214번길 7,부산광역시 동구 초량동 1200-17,교통,1,200,360,30,2019-12,051-440-4701,35.1160384,129.0413466,2020-03-26
"부산광역시_동구",부산광역시 동구 중앙대로214번길 7,부산광역시 동구 초량동 1200-17,교통,1,200,360,30,2019-12,051-440-4701,35.1160384,129.0413466,2020-03-26
"부산광역시_동구",부산광역시 동구 중앙대로206,부산광역시 동구 초량동 1187-1,교통,1,200,360,30,2019-12,051-440-4701,35.114512,129.0450624,2020-03-26
"부산광역시_동구",부산광역시 동구 중앙대로206,부산광역시 동구 초량동 1187-1,교통,1,200,360,30,2019-12,051-440-4701,35.114512,129.0450624,2020-03-26
"부산광역시_동구",부산광역시 동구 범일로90번길 16-1,부산광역시 동구 범일동 571-3,교통,1,200,360,30,2019-09,051-440-4701,35.137887,129.061345,2020-03-26
"부산광역시_동구",부산광역시 동구 범일로90번길 16-1,부산광역시 동구 범일동 571-3,교통,1,200,360,30,2019-09,051-440-4701,35.137887,129.061345,2020-03-26
"부산광역시_동구",부산광역시 동구 범일로90번길 16-1,부산광역시 동구 범일동 571-3,교통,1,200,360,30,2019-09,051-440-4701,35.137887,129.061345,2020-03-26
"부산광역시_동구",부산광역시 동구 범일로102번길 9,부산광역시 동구 범일2동 830-51,교통,1,200,360,30,2019-09,051-440-4701,35.139213,129.060672,2020-03-26
"부산광역시_동구",부산광역시 동구 범일로102번길 9,부산광역시 동구 범일2동 830-51,교통,1,200,360,30,2019-09,051-440-4701,35.139213,129.060672,2020-03-26
"부산광역시_동구",부산광역시 동구 범일로102번길 9,부산광역시 동구 범일2동 830-51,교통,1,200,360,30,2019-09,051-440-4701,35.139213,129.060672,2020-03-26
"부산광역시_동구",부산광역시 동구 범일로90번길 16-1,부산광역시 동구 범일동 571-3,교통,1,200,90,30,2019-04,051-440-4701,35.137887,129.061345,2020-03-26
"부산광역시_동구",부산광역시 동구 범일로 102,부산광역시 동구 범일동 833-13,교통,1,200,90,30,2019-04,051-440-4701,35.1391367,129.0595041,2020-03-26
"부산광역시_동구",부산광역시 동구 구청로 19,부산광역시 동구 수정2동 841-2,교통,1,200,90,30,2019-04,051-440-4701,35.128142,129.0452674,2020-03-26
"부산광역시_동구",부산광역시 동구 구청로 19,부산광역시 동구 수정2동 841-2,교통,1,200,90,30,2019-04,051-440-4701,35.128142,129.0452674,2020-03-26
"부산광역시_동구",부산광역시 동구 중앙대로 지하 200,부산광역시 동구 초량동 1206-1,교통,1,200,90,30,2019-04,051-440-4701,35.11443778,129.0392789,2020-03-26
"부산광역시_동구",부산광역시 동구 중앙대로 지하 200,부산광역시 동구 초량동 1206-1,교통,1,200,90,30,2019-04,051-440-4701,35.11443778,129.0392789,2020-03-26
"부산광역시_동구",부산광역시 동구 수정동로 8,부산광역시 동구 수정동 812-16,교통,1,200,90,30,2019-04,051-440-4701,35.1294319,129.0446774,2020-03-26
"부산광역시_동구",부산광역시 동구 수정동로 8,부산광역시 동구 수정동 812-16,교통,1,200,90,30,2019-04,051-440-4701,35.1294319,129.0446774,2020-03-26
"부산광역시_동구",부산광역시 동구 수정동로 8,부산광역시 동구 수정동 812-16,교통,1,200,90,30,2019-04,051-440-4701,35.1294319,129.0446774,2020-03-26
"부산광역시_동구",부산광역시 동구 수정동로 8,부산광역시 동구 수정동 812-16,교통,1,200,90,30,2019-04,051-440-4701,35.1294319,129.0446774,2020-03-26
"부산광역시_동구",부산광역시 동구 범일로 92,부산광역시 동구 범일동 830-38,교통,1,41,90,30,2019-04,051-440-4701,35.1380664,129.0595047,2020-03-26
"부산광역시_동구",부산광역시 동구 진성로 15,부산광역시 동구 수정동 247-17,교통,1,200,90,30,2019-04,051-440-4701,35.1301509,129.0477506,2020-03-26
"부산광역시_동구",부산광역시 동구 진성로 15,부산광역시 동구 수정동 247-17,교통,1,200,90,30,2019-04,051-440-4701,35.1301509,129.0477506,2020-03-26
"부산광역시_동구",부산광역시 동구 중앙대로 221,부산광역시 동구 초량동 375,교통,1,200,90,30,2019-04,051-440-4701,35.1168811,129.0405848,2020-03-26
