"관리기관명",소재지도로명주소,소재지지번주소,설치목적구분,카메라대수,카메라화소수,촬영방면정보,보관일수,설치년월,관리기관전화번호,위도,경도,데이터기준일자
"부산광역시 남구청",부산광역시 남구 동제당로39번길 18,부산광역시 남구 대연동 1618-49,생활방범,1,200,360도전방면,30,2013-12,051-607-4284,35.1328145000,129.0787789000,2020-02-20
"부산광역시 남구청",부산광역시 남구 석포로64번길 38,부산광역시 남구 감만동 29-134,생활방범,1,200,360도전방면,30,2013-12,051-607-4284,35.1222075000,129.0875913000,2020-02-20
"부산광역시 남구청",부산광역시 남구 수영로 39번가길 66,부산광역시 남구 문현동 238-175,생활방범,1,200,360도전방면,30,2013-12,051-607-4284,35.1388685000,129.0746813000,2020-02-20
"부산광역시 남구청",부산광역시 남구 수영로132번길 22-2,부산광역시 남구 대연동 1609-35,생활방범,1,200,360도전방면,30,2013-12,051-607-4284,35.1339117000,129.0820917000,2020-02-20
"부산광역시 남구청",부산광역시 남구 수영로172번길 8,부산광역시 남구 대연동 1222-300,생활방범,1,200,360도전방면,30,2013-12,051-607-4284,35.1343420000,129.0856756000,2020-02-20
"부산광역시 남구청",부산광역시 남구 신정번영로 122,부산광역시 남구 대연동 1627-207,생활방범,1,200,360도전방면,30,2013-12,051-607-4284,35.1299236000,129.0771696000,2020-02-20
"부산광역시 남구청",부산광역시 남구 신정번영로 13번길 50,부산광역시 남구 대연동 1619-633,생활방범,1,200,360도전방면,30,2013-12,051-607-4284,35.1333980000,129.0826873000,2020-02-20
"부산광역시 남구청",부산광역시 남구 용호로42번길 81,부산광역시 남구 용호동 75-2,생활방범,1,200,360도전방면,30,2013-12,051-607-4284,35.1228361000,129.1109568000,2020-02-20
"부산광역시 남구청",부산광역시 남구 용호로76번길 23,부산광역시 남구 용호동 151-3,생활방범,1,200,360도전방면,30,2013-12,051-607-4284,35.1247168000,129.1108684000,2020-02-20
"부산광역시 남구청",,부산광역시 남구 대연동 1247-92,생활방범,1,200,360도전방면,30,2013-12,051-607-4284,35.1375612000,129.0846276000,2020-02-20
"부산광역시 남구청",부산광역시 남구 우암번영로 38번길 10-1,부산광역시 남구 우암동 189-500,생활방범,1,200,360도전방면,30,2017-03,051-607-4284,35.1268920000,129.0706430000,2020-02-20
"부산광역시 남구청",부산광역시 남구 우암번영로 38번길 5-2,부산광역시 남구 우암동 189-470,생활방범,1,200,360도전방면,30,2017-03,051-607-4284,35.1269790000,129.0704180000,2020-02-20
"부산광역시 남구청",부산광역시 남구 우암번영로 34번길 4,부산광역시 남구 우암동 189-569,생활방범,1,200,360도전방면,30,2017-03,051-607-4284,35.1267590000,129.0703540000,2020-02-20
"부산광역시 남구청",부산광역시 남구 우암번영로 28번길 4-19,부산광역시 남구 우암동 189-562,생활방범,1,200,360도전방면,30,2017-03,051-607-4284,35.1267440000,129.0705780000,2020-02-20
"부산광역시 남구청",,부산광역시 남구 대연동 산 140-35,생활방범,1,200,360도전방면,30,2018-02,051-607-4284,35.1375550000,129.0793290000,2020-02-20
"부산광역시 남구청",,부산광역시 남구 대연동 산 140-35,생활방범,2,200,단일방면,30,2018-02,051-607-4284,35.1375550000,129.0793290000,2020-02-20
"부산광역시 남구청",,부산광역시 남구 용호동 954,생활방범,1,200,360도전방면,30,2018-06,051-607-4284,35.1342295000,129.1107212000,2020-02-20
"부산광역시 남구청",,부산광역시 남구 용호동 954,생활방범,1,200,360도전방면,30,2018-06,051-607-4284,35.1347512000,129.1118906000,2020-02-20
"부산광역시 남구청",,부산광역시 남구 용호동 954,생활방범,1,200,360도전방면,30,2018-06,051-607-4284,35.1342370000,129.1127382000,2020-02-20
"부산광역시 남구청",,부산광역시 남구 용호동 954,생활방범,1,200,360도전방면,30,2018-06,051-607-4284,35.1337813000,129.1135107000,2020-02-20
"부산광역시 남구청",,부산광역시 남구 용호동 954,생활방범,1,200,360도전방면,30,2018-06,051-607-4284,35.1332198000,129.1145407000,2020-02-20
"부산광역시 남구청",,부산광역시 남구 대연동 970-3,생활방범,2,200,360도전방면,30,2018-08,051-607-4284,35.1258020000,129.0914160000,2020-02-20
"부산광역시 남구청",,부산광역시 남구 대연동 1170-103,생활방범,2,200,360도전방면,30,2018-08,051-607-4284,35.1218480000,129.0901150000,2020-02-20
"부산광역시 남구청",,부산광역시 남구 대연동 1170-116,생활방범,1,200,360도전방면,30,2018-08,051-607-4284,35.1217120000,129.0903020000,2020-02-20
"부산광역시 남구청",,부산광역시 남구 대연동 1014,생활방범,1,200,360도전방면,30,2019-03,051-607-4284,35.1295500000,129.1013700000,2020-02-20
"부산광역시 남구청",부산광역시 남구 동명로 92,부산광역시 남구 용호동 420-5,생활방범,3,200,단일방면,30,2018-05,051-607-4284,35.1193422000,129.1074780000,2020-02-20
"부산광역시 남구청",부산광역시 남구 동명로100번길 21,부산광역시 남구 용호동 421-14,생활방범,4,200,단일방면,30,2018-05,051-607-4284,35.1187047000,129.1079948000,2020-02-20
"부산광역시 남구청",부산광역시 남구 동명로 114,부산광역시 남구 용호동 409-5,생활방범,2,200,단일방면,30,2018-05,051-607-4284,35.1203460000,129.1094838000,2020-02-20
"부산광역시 남구청",부산광역시 남구 진남로 43,부산광역시 남구 대연동 1513,생활방범,4,200,단일방면,30,2018-05,051-607-4284,35.1380710000,129.0903860000,2020-02-20
"부산광역시 남구청",부산광역시 남구 조각공원로 11번길 50,부산광역시 남구 대연동 568-23,생활방범,2,200,단일방면,30,2018-05,051-607-4284,35.1295375000,129.0986882000,2020-02-20
"부산광역시 남구청",부산광역시 남구 진남로 188,부산광역시 남구 문현동 85-9,생활방범,4,200,단일방면,30,2018-05,051-607-4284,35.1431430000,129.0778440000,2020-02-20
"부산광역시 남구청",부산광역시 남구 진남로30번가길 6,부산광역시 남구 대연동 288-1,생활방범,1,200,360도전방면,30,2016-05,051-607-4284,35.1380705000,129.0929421000,2020-02-20
"부산광역시 남구청",부산광역시 남구 진남로64번길 42,부산광역시 남구 대연동 1504-28,생활방범,1,200,360도전방면,30,2016-05,051-607-4284,35.1399962000,129.0926825000,2020-02-20
"부산광역시 남구청",부산광역시 남구 수영로219번길 23,부산광역시 남구 대연동 1415-7,생활방범,1,200,360도전방면,30,2016-05,051-607-4284,35.1361587000,129.0910544000,2020-02-20
"부산광역시 남구청",부산광역시 남구 못골번영로 60번길 17,부산광역시 남구 대연동 1482-12,생활방범,1,200,360도전방면,30,2016-05,051-607-4284,35.1409285000,129.0903851000,2020-02-20
"부산광역시 남구청",부산광역시 남구 유엔로169번길 32,부산광역시 남구 대연동 871-13,생활방범,1,200,360도전방면,30,2016-05,051-607-4284,35.1316189000,129.0948934000,2020-02-20
"부산광역시 남구청",부산광역시 남구 유엔로157번가길 57,부산광역시 남구 대연동 1723-10,생활방범,1,200,360도전방면,30,2016-05,051-607-4284,35.1328165000,129.0932339000,2020-02-20
"부산광역시 남구청",부산광역시 남구 양지골로 171,부산광역시 남구 감만동 189-75,생활방범,1,200,360도전방면,30,2016-05,051-607-4284,35.1161741000,129.0868277000,2020-02-20
"부산광역시 남구청",부산광역시 남구 천제등로16번길 81,부산광역시 남구 대연동 1219-80,생활방범,1,200,360도전방면,30,2013-01,051-607-4284,35.1322728000,129.0846321000,2020-02-20
"부산광역시 남구청",부산광역시 남구 오륙도로 137,부산광역시 남구 용호동 산 197,생활방범,1,200,360도전방면,30,2013-01,051-607-4284,35.1839197000,129.0293796000,2020-02-20
"부산광역시 남구청",부산광역시 남구 동명로 131번길 55,부산광역시 남구 용호동 78-32,생활방범,1,200,360도전방면,30,2014-01,051-607-4284,35.1223860000,129.1114336000,2020-02-20
"부산광역시 남구청",부산광역시 남구 우암로 240,부산광역시 남구 우암동 184-250,생활방범,1,200,360도전방면,30,2014-01,051-607-4284,35.1253700000,129.0706365000,2020-02-20
"부산광역시 남구청",부산광역시 남구 우암번영로35번길9,부산광역시 남구 우암동 189-950,생활방범,1,200,360도전방면,30,2015-01,051-607-4284,35.1267593000,129.0696837000,2020-02-20
"부산광역시 남구청",부산광역시 남구 수영로49번나길 3,부산광역시 남구 문현동 237-22,생활방범,1,200,360도전방면,30,2016-05,051-607-4284,35.1363700000,129.0747710000,2020-02-20
"부산광역시 남구청",부산광역시 남구 진남로 11,부산광역시 남구 대연동 291-9,생활방범,1,200,360도전방면,30,2016-05,051-607-4284,35.1360380000,129.0917160000,2020-02-20
"부산광역시 남구청",부산광역시 남구 진남로 11,부산광역시 남구 대연동 291-9,생활방범,4,200,단일방면,30,2016-05,051-607-4284,35.1360380000,129.0917160000,2020-02-20
"부산광역시 남구청",부산광역시 남구 유엔평화로14번길 20,부산광역시 남구 대연동 1749-18,생활방범,1,200,360도전방면,30,2016-05,051-607-4284,35.1337220000,129.0906150000,2020-02-20
"부산광역시 남구청",부산광역시 남구 동명로 164번길 93,부산광역시 남구 용호동 521-21,생활방범,1,200,360도전방면,30,2016-05,051-607-4284,35.1147050000,129.1138610000,2020-02-20
"부산광역시 남구청",부산광역시 남구 동명로 66,부산광역시 남구 용호동 713-6,생활방범,1,200,360도전방면,30,2016-05,051-607-4284,35.1187290000,129.1048570000,2020-02-20
"부산광역시 남구청",부산광역시 남구 석포로91번길 90,부산광역시 남구 대연동 1089-8,생활방범,1,200,360도전방면,30,2016-05,051-607-4284,35.1296010000,129.0911400000,2020-02-20
"부산광역시 남구청",부산광역시 남구 우암로 364,부산광역시 남구 문현동 901-4,생활방범,1,200,360도전방면,30,2016-05,051-607-4284,35.1342840000,129.0672330000,2020-02-20
"부산광역시 남구청",부산광역시 남구 남동천로 26,부산광역시 남구 문현동 800-2,생활방범,1,200,360도전방면,30,2016-05,051-607-4284,35.1395170000,129.0662420000,2020-02-20
"부산광역시 남구청",부산광역시 남구 석포로64번길 45-1,부산광역시 남구 감만동 29-226,생활방범,1,200,360도전방면,30,2016-05,051-607-4284,35.1219010000,129.0878800000,2020-02-20
"부산광역시 남구청",부산광역시 남구 용호로231번길 122,부산광역시 남구 용호동 866-3,생활방범,1,200,360도전방면,30,2016-05,051-607-4284,35.1116180000,129.1117330000,2020-02-20
"부산광역시 남구청",부산광역시 남구 유엔평화로76번길 124,부산광역시 남구 용당동 583-2,생활방범,1,200,360도전방면,30,2016-05,051-607-4284,35.1250010000,129.0959860000,2020-02-20
"부산광역시 남구청",부산광역시 남구 홍곡로22번길 8,부산광역시 남구 감만동 162-29,생활방범,1,200,360도전방면,30,2016-05,051-607-4284,35.1158900000,129.0824480000,2020-02-20
"부산광역시 남구청",부산광역시 남구 고동골로 69번길 124,부산광역시 남구 문현동 3-64,생활방범,1,200,360도전방면,30,2016-05,051-607-4284,35.1467930000,129.0727550000,2020-02-20
"부산광역시 남구청",부산광역시 남구 용호동 15-5,부산광역시 남구 용호동 15-5,생활방범,1,200,360도전방면,30,2016-05,051-607-4284,35.1254870000,129.1187140000,2020-02-20
"부산광역시 남구청",부산광역시 남구 우암로 174,부산광역시 남구 우암동 157-7,생활방범,1,200,360도전방면,30,2016-05,051-607-4284,35.1244110000,129.0778770000,2020-02-20
"부산광역시 남구청",부산광역시 남구 우암로 174,부산광역시 남구 우암동 157-7,생활방범,1,200,단일방면,30,2016-05,051-607-4284,35.1244110000,129.0778770000,2020-02-20
"부산광역시 남구청",부산광역시 남구 고동골로97번길 78,부산광역시 남구 문현동 31-85,생활방범,1,200,360도전방면,30,2016-05,051-607-4284,35.1461290000,129.0744910000,2020-02-20
"부산광역시 남구청",부산광역시 남구 고동골로69번길 47-41,부산광역시 남구 문현동 553-15,생활방범,1,200,360도전방면,30,2016-05,051-607-4284,35.1446840000,129.0700940000,2020-02-20
"부산광역시 남구청",부산광역시 남구 지게골로 130 앞,부산광역시 남구 문현동 304-6,생활방범,1,200,360도전방면,30,2016-05,051-607-4284,35.1343280000,129.0745960000,2020-02-20
"부산광역시 남구청",부산광역시 남구 못골로 91-12,부산광역시 남구 대연동 1348-5,생활방범,1,200,360도전방면,30,2016-05,051-607-4284,35.1362660000,129.0925230000,2020-02-20
"부산광역시 남구청",부산광역시 남구 고동골로4번길 17,부산광역시 남구 문현동 205-43,생활방범,1,200,360도전방면,30,2016-05,051-607-4284,35.1374920000,129.0723980000,2020-02-20
"부산광역시 남구청",부산광역시 남구 고동골로4번길 17,부산광역시 남구 문현동 205-43,생활방범,3,200,단일방면,30,2016-05,051-607-4284,35.1374920000,129.0723980000,2020-02-20
"부산광역시 남구청",부산광역시 남구 황령대로319번가길 194,부산광역시 남구 대연동 245-118,생활방범,1,200,360도전방면,30,2016-05,051-607-4284,35.1505970000,129.0894770000,2020-02-20
"부산광역시 남구청",부산광역시 남구 장고개로 20-1,부산광역시 남구 우암동 194-23,생활방범,1,200,360도전방면,30,2016-07,051-607-4284,35.1271470000,129.0712490000,2020-02-20
"부산광역시 남구청",부산광역시 남구 장고개로 4-1,부산광역시 남구 우암동 181-170,생활방범,2,200,단일방면,30,2016-07,051-607-4284,35.1257160000,129.0710960000,2020-02-20
"부산광역시 남구청",부산광역시 남구 우암번영로 46,부산광역시 남구 우암동 189-1719,생활방범,1,200,360도전방면,30,2016-07,051-607-4284,35.1272950000,129.0701960000,2020-02-20
"부산광역시 남구청",부산광역시 남구 우암로 244-1,부산광역시 남구 우암동 189-876,생활방범,1,200,360도전방면,30,2016-07,051-607-4284,35.1254230000,129.0702640000,2020-02-20
"부산광역시 남구청",부산광역시 남구 우암로256번길 15-2,부산광역시 남구 우암동 189-1306,생활방범,1,200,360도전방면,30,2016-07,051-607-4284,35.1260930000,129.0693600000,2020-02-20
"부산광역시 남구청",부산광역시 남구 우암번영로14번길 6,부산광역시 남구 우암동 189-810,생활방범,3,200,단일방면,30,2016-07,051-607-4284,35.1258690000,129.0704140000,2020-02-20
"부산광역시 남구청",부산광역시 남구 우암번영로3번길 12-1,부산광역시 남구 우암동 184-264,생활방범,3,200,단일방면,30,2016-07,051-607-4284,35.1254600000,129.0695630000,2020-02-20
"부산광역시 남구청",부산광역시 남구 우암번영로 4-11,부산광역시 남구 우암동 189-870,생활방범,2,200,단일방면,30,2016-07,051-607-4284,35.1254730000,129.0704530000,2020-02-20
"부산광역시 남구청",부산광역시 남구 우암로200번길 42,부산광역시 남구 우암동 183-34,생활방범,1,200,360도전방면,30,2016-11,051-607-4284,35.1254910000,129.0730150000,2020-02-20
"부산광역시 남구청",부산광역시 남구 용소로13번길 43,부산광역시 남구 대연동 53-31,생활방범,1,200,360도전방면,30,2016-11,051-607-4284,35.1372650000,129.1029300000,2020-02-20
"부산광역시 남구청",부산광역시 남구 용소로14번길 22,부산광역시 남구 대연동 68-21,생활방범,1,200,360도전방면,30,2016-11,051-607-4284,35.1356060000,129.0995520000,2020-02-20
"부산광역시 남구청",부산광역시 남구 수영로266번길 134,부산광역시 남구 대연동 558-4,생활방범,1,200,360도전방면,30,2016-11,051-607-4284,35.1319000000,129.1012050000,2020-02-20
"부산광역시 남구청",부산광역시 남구 유엔로75,부산광역시 남구 우암동3-31,생활방범,1,200,360도전방면,30,2016-11,051-607-4284,35.1290340000,129.0844000000,2020-02-20
"부산광역시 남구청",부산광역시 남구 유엔로 119,부산광역시 남구 대연동 917-7,생활방범,1,200,360도전방면,30,2016-11,051-607-4284,35.1302530000,129.0891490000,2020-02-20
"부산광역시 남구청",부산광역시 남구 석포로83번길 30,부산광역시 남구 대연동 1132-10,생활방범,1,200,360도전방면,30,2016-11,051-607-4284,35.1264910000,129.0886750000,2020-02-20
"부산광역시 남구청",부산광역시 남구 유엔평화로70번길 17,부산광역시 남구 대연동 961-18,생활방범,1,200,360도전방면,30,2016-11,051-607-4284,35.1280090000,129.0925890000,2020-02-20
"부산광역시 남구청",부산광역시 남구 못골번영로82번길 21,부산광역시 남구 대연동 1492-26,생활방범,1,200,360도전방면,30,2016-11,051-607-4284,35.1425050000,129.0902650000,2020-02-20
"부산광역시 남구청",부산광역시 남구 수영로267번길 58,부산광역시 남구 대연동 317-12,생활방범,1,200,360도전방면,30,2016-11,051-607-4284,35.1381380000,129.0949690000,2020-02-20
"부산광역시 남구청",부산광역시 남구 수영로267번길 58,부산광역시 남구 대연동 317-12,생활방범,3,200,단일방면,30,2016-11,051-607-4284,35.1381380000,129.0949690000,2020-02-20
"부산광역시 남구청",부산광역시 남구 진남로127번길 26-8,부산광역시 남구 대연동 1786-1,생활방범,1,200,360도전방면,30,2016-11,051-607-4284,35.1385690000,129.0797750000,2020-02-20
"부산광역시 남구청",부산광역시 남구 못골번영로46번길 46,부산광역시 남구 대연동 284-20,생활방범,1,200,360도전방면,30,2016-11,051-607-4284,35.1390950000,129.0913920000,2020-02-20
"부산광역시 남구청",부산광역시 남구 진남로96번길 38,부산광역시 남구 대연동 산 129,생활방범,1,200,360도전방면,30,2016-11,051-607-4284,35.1397700000,129.0847150000,2020-02-20
"부산광역시 남구청",부산광역시 남구 진남로64번길 4,부산광역시 남구 대연동 1505-12,생활방범,1,200,360도전방면,30,2016-11,051-607-4284,35.1387030000,129.0883590000,2020-02-20
"부산광역시 남구청",부산광역시 남구 신선로301번길 20,부산광역시 남구 용당동 193-3,생활방범,1,200,360도전방면,30,2016-11,051-607-4284,35.1130360000,129.0944850000,2020-02-20
"부산광역시 남구청",부산광역시 남구 동명로 139,부산광역시 남구 용호동 371-12,생활방범,1,200,360도전방면,30,2016-11,051-607-4284,35.1196950000,129.1121500000,2020-02-20
"부산광역시 남구청",부산광역시 남구 동명로92번길 42,부산광역시 남구 용호동 418-12,생활방범,1,200,360도전방면,30,2016-11,051-607-4284,35.1174780000,129.1068350000,2020-02-20
"부산광역시 남구청",부산광역시 남구 용호로252번길 23,부산광역시 남구 용호동 558-1,생활방범,1,200,360도전방면,30,2016-11,051-607-4284,35.1095130000,129.1102030000,2020-02-20
"부산광역시 남구청",부산광역시 남구 용호로231번길 62,,생활방범,1,200,360도전방면,30,2016-11,051-607-4284,35.1118270000,129.1138780000,2020-02-20
"부산광역시 남구청",부산광역시 남구 유엔평화로9번길 22,부산광역시 남구 대연동 1738-1,생활방범,1,200,360도전방면,30,2016-11,051-607-4284,35.1341560000,129.0932050000,2020-02-20
"부산광역시 남구청",부산광역시 남구 용호로123번길 70,부산광역시 남구 용호동 363-1,생활방범,1,200,360도전방면,30,2016-11,051-607-4284,35.1233650000,129.1146390000,2020-02-20
"부산광역시 남구청",부산광역시 남구 용호로159번길 10,부산광역시 남구 용호동 494-2,생활방범,1,200,360도전방면,30,2016-11,051-607-4284,35.1178100000,129.1122480000,2020-02-20
"부산광역시 남구청",부산광역시 남구 신선로329번길 18,부산광역시 남구 용당동 135-5,생활방범,1,200,360도전방면,30,2016-11,051-607-4284,35.1152960000,129.0941200000,2020-02-20
"부산광역시 남구청",부산광역시 남구 양지골로 229,부산광역시 남구 감만동 176-36,생활방범,1,200,360도전방면,30,2016-11,051-607-4284,35.1182700000,129.0845010000,2020-02-20
"부산광역시 남구청",부산광역시 남구 우암로61번길 43,부산광역시 남구 감만동 128-1,생활방범,1,200,360도전방면,30,2016-11,051-607-4284,35.1169260000,129.0803840000,2020-02-20
"부산광역시 남구청",부산광역시 남구 홍곡로 58,부산광역시 남구 감만동 187-7,생활방범,1,200,360도전방면,30,2016-11,051-607-4284,35.1165650000,129.0844100000,2020-02-20
"부산광역시 남구청",부산광역시 남구 전선등로 5,부산광역시 남구 감만동 44-47,생활방범,1,200,360도전방면,30,2016-11,051-607-4284,35.1230740000,129.0844410000,2020-02-20
"부산광역시 남구청",부산광역시 남구 전선등로 59,부산광역시 남구 감만동 33-287,생활방범,1,200,360도전방면,30,2016-11,051-607-4284,35.1244350000,129.0869570000,2020-02-20
"부산광역시 남구청",부산광역시 남구 양지골로 115,부산광역시 남구 감만동 205-137,생활방범,1,200,360도전방면,30,2016-11,051-607-4284,35.1146220000,129.0873360000,2020-02-20
"부산광역시 남구청",부산광역시 남구 유엔로108번길 9,부산광역시 남구 대연동 919-21,생활방범,1,200,360도전방면,30,2016-11,051-607-4284,35.1292490000,129.0884120000,2020-02-20
"부산광역시 남구청",부산광역시 남구 동항로 112,부산광역시 남구 우암동 123-2,생활방범,1,200,360도전방면,30,2016-11,051-607-4284,35.1280940000,129.0721760000,2020-02-20
"부산광역시 남구청",부산광역시 남구 못골번영로 72,부산광역시 남구 대연동 1490-6,생활방범,2,200,360도전방면,30,2016-11,051-607-4284,35.1415700000,129.0889860000,2020-02-20
"부산광역시 남구청",부산광역시 남구 석포로 68,부산광역시 남구 대연동 1171-23,생활방범,1,200,360도전방면,30,2016-11,051-607-4284,35.1240260000,129.0878830000,2020-02-20
"부산광역시 남구청",부산광역시 남구 석포로 68,부산광역시 남구 대연동 1171-23,생활방범,3,200,단일방면,30,2016-12,051-607-4284,35.1240260000,129.0878830000,2020-02-20
"부산광역시 남구청",부산광역시 남구 장고개로 47,부산광역시 남구 우암동 207-32,생활방범,1,200,360도전방면,30,2016-12,051-607-4284,35.1296040000,129.0710670000,2020-02-20
"부산광역시 남구청",부산광역시 남구 우암로 278-2,부산광역시 남구 우암동 184-268,생활방범,1,200,360도전방면,30,2016-12,051-607-4284,35.1270700000,129.0677310000,2020-02-20
"부산광역시 남구청",부산광역시 남구 솔밭로34번길 2,부산광역시 남구 우암동 209-76,생활방범,1,200,360도전방면,30,2016-12,051-607-4284,35.1294490000,129.0724230000,2020-02-20
"부산광역시 남구청",부산광역시 남구 고동골로78번길 64,부산광역시 남구 문현동 119-2,생활방범,1,200,360도전방면,30,2016-12,051-607-4284,35.1438510000,129.0751170000,2020-02-20
"부산광역시 남구청",부산광역시 남구 돌산4길 53,부산광역시 남구 문현동 산 22-1,생활방범,1,200,360도전방면,30,2016-12,051-607-4284,35.1496840000,129.0735440000,2020-02-20
"부산광역시 남구청",부산광역시 남구 전포대로67번길 31-1,부산광역시 남구 문현동 783-12,생활방범,1,200,360도전방면,30,2016-12,051-607-4284,35.1426390000,129.0649390000,2020-02-20
"부산광역시 남구청",부산광역시 남구 수영로39번가길 40,부산광역시 남구 문현동 231-4,생활방범,1,200,360도전방면,30,2016-12,051-607-4284,35.1379610000,129.0745560000,2020-02-20
"부산광역시 남구청",부산광역시 남구 수영로13번길 6-1,부산광역시 남구 문현동 406-27,생활방범,1,200,360도전방면,30,2016-12,051-607-4284,35.1374150000,129.0695500000,2020-02-20
"부산광역시 남구청",부산광역시 남구 장고개로 64-11,부산광역시 남구 문현동 1059-51,생활방범,1,200,360도전방면,30,2016-12,051-607-4284,35.1311180000,129.0713280000,2020-02-20
"부산광역시 남구청",부산광역시 남구 장고개로63번길 57-8,부산광역시 남구 우암동 206-9,생활방범,1,200,360도전방면,30,2016-12,051-607-4284,35.1293010000,129.0693530000,2020-02-20
"부산광역시 남구청",부산광역시 남구 동제당로 107,부산광역시 남구 문현동 산 109-1,생활방범,1,200,360도전방면,30,2016-12,051-607-4284,35.1309820000,129.0759620000,2020-02-20
"부산광역시 남구청",부산광역시 남구 용소로 50,부산광역시 남구 대연동 539-16,생활방범,1,200,360도전방면,30,2016-12,051-607-4284,35.1331190000,129.1009820000,2020-02-20
"부산광역시 남구청",부산광역시 남구 용소로 50,부산광역시 남구 대연동 539-16,생활방범,3,200,단일방면,30,2016-12,051-607-4284,35.1331190000,129.1009820000,2020-02-20
"부산광역시 남구청",부산광역시 남구 수영로 74-5,부산광역시 남구 문현동 255-30,생활방범,1,200,360도전방면,30,2016-11,051-607-4284,35.1349890000,129.0752690000,2020-02-20
"부산광역시 남구청",부산광역시 남구 진남로210번길 18,부산광역시 남구 문현동 62-42,생활방범,1,200,360도전방면,30,2016-11,051-607-4284,35.1448430000,129.0774130000,2020-02-20
"부산광역시 남구청",부산광역시 남구 진남로220번나길 11,부산광역시 남구 문현동 54-123,생활방범,1,200,360도전방면,30,2016-11,051-607-4284,35.1458910000,129.0777770000,2020-02-20
"부산광역시 남구청",부산광역시 남구 신정번영로47번길 27,부산광역시 남구 대연동 1623-71,생활방범,1,200,단일방면,30,2017-04,051-607-4284,35.1315500000,129.0787980000,2020-02-20
"부산광역시 남구청",부산광역시 남구 석포로86번길,부산광역시 남구 대연동 1115-94,생활방범,2,200,단일방면,30,2017-04,051-607-4284,35.1253380000,129.0903820000,2020-02-20
"부산광역시 남구청",부산광역시 남구 홍곡로22번길 43,부산광역시 남구 감만동 220-52,생활방범,2,200,단일방면,30,2017-04,051-607-4284,35.1144480000,129.0830920000,2020-02-20
"부산광역시 남구청",부산광역시 남구 우암양달로16번길 49,부산광역시 남구 우암동 174-133,생활방범,1,200,단일방면,30,2017-04,051-607-4284,35.1254330000,129.0743290000,2020-02-20
"부산광역시 남구청",부산광역시 남구 고동골로 59번길 20,부산광역시 남구 문현동 502-4,생활방범,2,200,단일방면,30,2017-04,051-607-4284,35.1427600000,129.0700790000,2020-02-20
"부산광역시 남구청",부산광역시 남구 유엔평화로38번길 7-4,부산광역시 남구 대연동 1009-4,생활방범,1,200,360도전방면,30,2017-06,051-607-4284,35.1315000000,129.0913620000,2020-02-20
"부산광역시 남구청",부산광역시 남구 수영로366번길 18,부산광역시 남구 대연동 30-9,생활방범,1,200,360도전방면,30,2017-06,051-607-4284,35.1388630000,129.1060490000,2020-02-20
"부산광역시 남구청",부산광역시 남구 천제등로28번길 29,부산광역시 남구 대연동 1204-77,생활방범,1,200,360도전방면,30,2017-06,051-607-4284,35.1318920000,129.0872000000,2020-02-20
"부산광역시 남구청",부산광역시 남구 유엔평화로66번길 26,부산광역시 남구 대연동 967-2,생활방범,1,200,360도전방면,30,2017-06,051-607-4284,35.1282350000,129.0917190000,2020-02-20
"부산광역시 남구청",부산광역시 남구 수영로 205-12,부산광역시 남구 대연동 1379-1,생활방범,1,200,360도전방면,30,2017-06,051-607-4284,35.1356020000,129.0889500000,2020-02-20
"부산광역시 남구청",부산광역시 남구 진남로116번길 27,부산광역시 남구 대연동 1576-46,생활방범,1,200,360도전방면,30,2017-06,051-607-4284,35.1392200000,129.0821930000,2020-02-20
"부산광역시 남구청",부산광역시 남구 용호로106번가길 22,부산광역시 남구 용호동 95-36,생활방범,1,200,360도전방면,30,2017-06,051-607-4284,35.1230330000,129.1109140000,2020-02-20
"부산광역시 남구청",부산광역시 남구 동명로145번다길 2-7,부산광역시 남구 용호동 431-4,생활방범,1,200,360도전방면,30,2017-06,051-607-4284,35.1202520000,129.1133190000,2020-02-20
"부산광역시 남구청",부산광역시 남구 유엔평화로143번길 15,부산광역시 남구 용당동 568-47,생활방범,1,200,360도전방면,30,2017-06,051-607-4284,35.1242830000,129.0973000000,2020-02-20
"부산광역시 남구청",부산광역시 남구 양지골로251번길 36-1,부산광역시 남구 감만동 산25-44,생활방범,1,200,360도전방면,30,2017-06,051-607-4284,35.1202290000,129.0846000000,2020-02-20
"부산광역시 남구청",부산광역시 남구 유엔로84번길 71-1,부산광역시 남구 우암동 13-169,생활방범,1,200,360도전방면,30,2017-06,051-607-4284,35.1264120000,129.0835000000,2020-02-20
"부산광역시 남구청",부산광역시 남구 전포대로78번길 24,부산광역시 남구 문현동 512-86,생활방범,1,200,360도전방면,30,2017-06,051-607-4284,35.1437500000,129.0682000000,2020-02-20
"부산광역시 남구청",부산광역시 남구 문현로23번길 1,부산광역시 남구 문현동 183-108,생활방범,1,200,360도전방면,30,2017-06,051-607-4284,35.1415290000,129.0724000000,2020-02-20
"부산광역시 남구청",부산광역시 남구 지게골로 169-4,부산광역시 남구 문현동 306-10,생활방범,1,200,360도전방면,30,2017-06,051-607-4284,35.1333680000,129.0764000000,2020-02-20
"부산광역시 남구청",부산광역시 남구 지게골로 186,부산광역시 남구 문현동 339-3,생활방범,1,200,360도전방면,30,2017-06,051-607-4284,35.1327600000,129.0766000000,2020-02-20
"부산광역시 남구청",부산광역시 남구 석포로56번길 23-3,부산광역시 남구 감만동 34-45,생활방범,1,200,360도전방면,30,2017-06,051-607-4284,35.1225230000,129.0866000000,2020-02-20
"부산광역시 남구청",부산광역시 남구 유엔평화로41번길 74,부산광역시 남구 대연동 870-1,생활방범,1,200,360도전방면,30,2018-05,051-607-4284,35.1311170000,129.0962680000,2020-02-20
"부산광역시 남구청",부산광역시 남구 유엔평화로41번가길 42,부산광역시 남구 대연동 885-1,생활방범,1,200,360도전방면,30,2018-05,051-607-4284,35.1330810000,129.0928140000,2020-02-20
"부산광역시 남구청",부산광역시 남구 유엔평화로41번가길 34,부산광역시 남구 대연동 885-4,생활방범,1,200,단일방면,30,2018-07,051-607-4284,35.1328082000,129.0927157000,2020-02-20
"부산광역시 남구청",부산광역시 남구 조각공원로27번길 26,부산광역시 남구 대연동 568-2,생활방범,1,200,360도전방면,30,2018-05,051-607-4284,35.1295630000,129.0997970000,2020-02-20
"부산광역시 남구청",부산광역시 남구 황령대로352번가길 24,부산광역시 남구 대연동 219-23,생활방범,1,200,360도전방면,30,2018-05,051-607-4284,35.1463320000,129.0949290000,2020-02-20
"부산광역시 남구청",부산광역시 남구 황령대로352번가길 12,부산광역시 남구 대연동 219-17,생활방범,1,200,단일방면,30,2018-07,051-607-4284,35.1463380000,129.0954510000,2020-02-20
"부산광역시 남구청",부산광역시 남구 유엔평화로76번길 105,부산광역시 남구 대연동 746-14,생활방범,1,200,360도전방면,30,2018-05,051-607-4284,35.1250389000,129.0947692000,2020-02-20
"부산광역시 남구청",부산광역시 남구 진남로 69번길 17-12,부산광역시 남구 대연동 1528-5,생활방범,1,200,360도전방면,30,2018-05,051-607-4284,35.1375450000,129.0880890000,2020-02-20
"부산광역시 남구청",부산광역시 남구 못골로 52,부산광역시 남구 대연동 1760-5,생활방범,1,200,360도전방면,30,2018-05,051-607-4284,35.1356970000,129.0880610000,2020-02-20
"부산광역시 남구청",부산광역시 남구 동명로112번길 70,부산광역시 남구 용호동 422-71,생활방범,1,200,360도전방면,30,2018-05,051-607-4284,35.1172470000,129.1080650000,2020-02-20
"부산광역시 남구청",부산광역시 남구 용호로178번길 16,부산광역시 남구 용호동 484-16,생활방범,1,200,360도전방면,30,2018-05,051-607-4284,35.1165990000,129.1101710000,2020-02-20
"부산광역시 남구청",부산광역시 남구 용호로 98,부산광역시 남구 용호동 83-7,생활방범,1,200,360도전방면,30,2018-05,051-607-4284,35.1236610000,129.1122840000,2020-02-20
"부산광역시 남구청",부산광역시 남구 용호로231번길 100,부산광역시 남구 용호동 524-1,생활방범,1,200,360도전방면,30,2018-05,051-607-4284,35.1126210000,129.1159010000,2020-02-20
"부산광역시 남구청",부산광역시 남구 동명로 155,부산광역시 남구 용호동 392-12,생활방범,1,200,360도전방면,30,2018-05,051-607-4284,35.1193140000,129.1140530000,2020-02-20
"부산광역시 남구청",부산광역시 남구 용호로109번길 28,부산광역시 남구 용호동 367-4,생활방범,1,200,360도전방면,30,2018-05,051-607-4284,35.1222470000,129.1138060000,2020-02-20
"부산광역시 남구청",부산광역시 남구 용호로109번길 28,부산광역시 남구 용호동 367-4,생활방범,1,200,단일방면,30,2018-07,051-607-4284,35.1222470000,129.1138060000,2020-02-20
"부산광역시 남구청",부산광역시 남구 용호로123번길 31,부산광역시 남구 용호동 367-15,생활방범,1,200,360도전방면,30,2018-05,051-607-4284,35.1218100000,129.1139030000,2020-02-20
"부산광역시 남구청",부산광역시 남구 용호로 124,부산광역시 남구 용호동 369-8,생활방범,1,200,360도전방면,30,2018-05,051-607-4284,35.1166520000,129.1108920000,2020-02-20
"부산광역시 남구청",부산광역시 남구 용호로 124,부산광역시 남구 용호동 369-8,생활방범,1,200,단일방면,30,2018-07,051-607-4284,35.1210790000,129.1121448000,2020-02-20
"부산광역시 남구청",부산광역시 남구 동명로 176,부산광역시 남구 용호동 378-14,생활방범,1,200,360도전방면,30,2018-05,051-607-4284,35.1186490000,129.1161100000,2020-02-20
"부산광역시 남구청",부산광역시 남구 용호로 232번길 37,부산광역시 남구 용호동 538-39,생활방범,1,200,360도전방면,30,2018-05,051-607-4284,35.1118550000,129.1090980000,2020-02-20
"부산광역시 남구청",부산광역시 남구 신선로337번길 64,부산광역시 남구 용당동 271,생활방범,1,200,360도전방면,30,2018-05,051-607-4284,35.1152420000,129.0921630000,2020-02-20
"부산광역시 남구청",,부산광역시 남구 용당동 산 2-22,생활방범,1,200,360도전방면,30,2018-05,051-607-4284,35.1066540000,129.1043540000,2020-02-20
"부산광역시 남구청",부산광역시 남구 신선로 337번길 83,부산광역시 남구 용당동 277-2,생활방범,1,200,360도전방면,30,2018-05,051-607-4284,35.1146730000,129.0924390000,2020-02-20
"부산광역시 남구청",부산광역시 남구 우암로 34-9,부산광역시 남구 감만동 302-4,생활방범,1,200,360도전방면,30,2018-05,051-607-4284,35.1135830000,129.0823880000,2020-02-20
"부산광역시 남구청",부산광역시 남구 우암로104번길 29,부산광역시 남구 감만동 73-193,생활방범,1,200,360도전방면,30,2018-05,051-607-4284,35.1189380000,129.0827860000,2020-02-20
"부산광역시 남구청",부산광역시 남구 우암로52번길 51,부산광역시 남구 감만동 209-9,생활방범,1,200,360도전방면,30,2018-05,051-607-4284,35.1149020000,129.0839790000,2020-02-20
"부산광역시 남구청",부산광역시 남구 우암로52번길 51,부산광역시 남구 감만동 209-9,생활방범,1,200,단일방면,30,2018-07,051-607-4284,35.1149020000,129.0839790000,2020-02-20
"부산광역시 남구청",부산광역시 남구 양지골로55번길 1,부산광역시 남구 감만동 243-1,생활방범,1,200,360도전방면,30,2018-05,051-607-4284,35.1125441000,129.0863796000,2020-02-20
"부산광역시 남구청",부산광역시 남구 석포로58번길 31,부산광역시 남구 감만동 29-26,생활방범,1,200,360도전방면,30,2018-05,051-607-4284,35.1220750000,129.0871470000,2020-02-20
"부산광역시 남구청",부산광역시 남구 전선등로3번길 58,부산광역시 남구 감만동 44-127,생활방범,1,200,360도전방면,30,2018-05,051-607-4284,35.1237280000,129.0845940000,2020-02-20
"부산광역시 남구청",부산광역시 남구 동항로106번가길 26,부산광역시 남구 우암동 127-61,생활방범,1,200,360도전방면,30,2018-05,051-607-4284,35.1282920000,129.0731280000,2020-02-20
"부산광역시 남구청",부산광역시 남구 장고개로40번길 37,부산광역시 남구 우암동 산7-41,생활방범,2,200,단일방면,30,2018-07,051-607-4284,35.1282760000,129.0722980000,2020-02-20
"부산광역시 남구청",부산광역시 남구 동항로 49,부산광역시 남구 우암동 189-267,생활방범,1,200,360도전방면,30,2018-05,051-607-4284,35.1271330000,129.0691920000,2020-02-20
"부산광역시 남구청",부산광역시 남구 진남로166번길 41-1,부산광역시 남구 진남로166번길 41-1,생활방범,1,200,360도전방면,30,2018-05,051-607-4284,35.1425300000,129.0803250000,2020-02-20
"부산광역시 남구청",부산광역시 남구 전포대로 21,부산광역시 남구 문현동 805-3,생활방범,1,200,360도전방면,30,2018-05,051-607-4284,35.1388771000,129.0674201000,2020-02-20
"부산광역시 남구청",부산광역시 남구 수영로39번나길 66,부산광역시 남구 문현동 141-31,생활방범,1,200,360도전방면,30,2018-05,051-607-4284,35.1424430000,129.0741610000,2020-02-20
"부산광역시 남구청",부산광역시 남구 우암로362번길 34,부산광역시 남구 문현동 948-4,생활방범,1,200,360도전방면,30,2018-05,051-607-4284,35.1335110000,129.0687920000,2020-02-20
"부산광역시 남구청",부산광역시 남구 우암로374번길 6,부산광역시 남구 문현동 894-2,생활방범,1,200,360도전방면,30,2018-05,051-607-4284,35.1349720000,129.0677000000,2020-02-20
"부산광역시 남구청",부산광역시 남구 장고개로101번길 20,부산광역시 남구 문현동 877-1,생활방범,1,200,360도전방면,30,2018-05,051-607-4284,35.1345300000,129.0688000000,2020-02-20
"부산광역시 남구청",부산광역시 남구 전포대로20번길 38-6,부산광역시 남구 문현동 402-61,생활방범,1,200,360도전방면,30,2018-05,051-607-4284,35.1380720000,129.0696000000,2020-02-20
"부산광역시 남구청",부산광역시 남구 고동골로47번길 30,부산광역시 남구 문현동 426-21,생활방범,1,200,360도전방면,30,2018-05,051-607-4284,35.1413640000,129.0694000000,2020-02-20
"부산광역시 남구청",부산광역시 남구 자유평화로 47,부산광역시 남구 문현동 789-9,생활방범,1,200,360도전방면,30,2018-05,051-607-4284,35.1415890000,129.0650000000,2020-02-20
"부산광역시 남구청",부산광역시 남구 황령대로353번길 9-38,부산광역시 남구 대연동 231-9,생활방범,1,200,360도전방면,30,2018-05,051-607-4284,35.1480950000,129.0967000000,2020-02-20
"부산광역시 남구청",부산광역시 남구 용호1동 176-30,부산광역시 남구 용호동 176-30,생활방범,1,200,360도전방면,30,2018-05,051-607-4284,35.1296761000,129.1117000000,2020-02-20
"부산광역시 남구청",부산광역시 남구 용호1동 176-30,부산광역시 남구 용호동 176-30,생활방범,1,200,360도전방면,30,2018-05,051-607-4284,35.1264733000,129.1131000000,2020-02-20
"부산광역시 남구청",부산광역시 남구 동명로169번길 39,부산광역시 남구 용호동 375-3,생활방범,1,200,360도전방면,30,2018-05,051-607-4284,35.1207900000,129.1159000000,2020-02-20
"부산광역시 남구청",부산광역시 남구 동명로118번가길 13,부산광역시 남구 용호동 359-3,생활방범,1,200,360도전방면,30,2018-05,051-607-4284,35.1193650000,129.1101000000,2020-02-20
"부산광역시 남구청",부산광역시 남구 홍곡로57번길 37,부산광역시 남구 감만동 176-9,생활방범,1,200,360도전방면,30,2018-05,051-607-4284,35.1176730000,129.0833000000,2020-02-20
"부산광역시 남구청",부산광역시 남구 홍곡로57번길 37,부산광역시 남구 감만동 176-9,생활방범,3,200,단일방면,30,2018-05,051-607-4284,35.1176730000,129.0833000000,2020-02-20
"부산광역시 남구청",부산광역시 남구 천제등로46번길 28,부산광역시 남구 대연동 1204-111,생활방범,1,200,360도전방면,30,2018-05,051-607-4284,35.1320383000,129.0884000000,2020-02-20
"부산광역시 남구청",부산광역시 남구 석포로20번길 7,부산광역시 남구 감만동 14-4,생활방범,2,200,단일방면,30,2018-07,051-607-4284,35.1220230000,129.0835030000,2020-02-20
"부산광역시 남구청",,부산광역시 남구 문현동 808-1,생활방범,1,200,단일방면,30,2018-07,051-607-4284,35.1374650000,129.0670900000,2020-02-20
"부산광역시 남구청",부산광역시 남구 전포대로92번나길 19,부산광역시 남구 문현동 598-5,생활방범,1,200,단일방면,30,2018-07,051-607-4284,35.1458000000,129.0680900000,2020-02-20
"부산광역시 남구청",부산광역시 남구 신정번영로65번가길 32-4,부산광역시 남구 대연동 1627-145,생활방범,1,200,단일방면,30,2018-07,051-607-4284,35.1303701000,129.0795738000,2020-02-20
"부산광역시 남구청",,부산광역시 남구 대연동 1845,생활방범,1,200,단일방면,30,2018-07,051-607-4284,35.1305474000,129.1062495000,2020-02-20
"부산광역시 남구청",부산광역시 남구 동명로118번길 152,부산광역시 남구 용호동 535-13,생활방범,1,200,단일방면,30,2018-07,051-607-4284,35.1133770000,129.1094330000,2020-02-20
"부산광역시 남구청",부산광역시 남구 동명로 114,부산광역시 남구 용호1동 409-5,생활방범,1,200,360도전방면,30,2018-09,051-607-4284,35.1200610000,129.1095180000,2020-02-20
"부산광역시 남구청",,부산광역시 남구 용당동 96-3,생활방범,1,200,360도전방면,30,2018-09,051-607-4284,35.1034029000,129.1012824000,2020-02-20
"부산광역시 남구청",,부산광역시 남구 용당동 96-3,생활방범,1,200,360도전방면,30,2018-09,051-607-4284,35.1034029000,129.1012824000,2020-02-20
"부산광역시 남구청",,부산광역시 남구 용호1동 176-21,생활방범,1,200,360도전방면,30,2018-09,051-607-4284,35.1322270000,129.1156470000,2020-02-20
"부산광역시 남구청",,부산광역시 남구 용호1동 176-21,생활방범,2,200,단일방면,30,2018-09,051-607-4284,35.1322270000,129.1156470000,2020-02-20
"부산광역시 남구청",부산광역시 남구 무민사로33번길 11-15,부산광역시 남구 감만1동 463-1,생활방범,1,200,360도전방면,30,2018-09,051-607-4284,35.1129050000,129.0803080000,2020-02-20
"부산광역시 남구청",부산광역시 남구 신선로 329번길 88-6,부산광역시 남구 용당동 238-8,생활방범,1,200,360도전방면,30,2018-09,051-607-4284,35.1131510000,129.0930990000,2020-02-20
"부산광역시 남구청",,부산광역시 남구 우암동 174-164,생활방범,1,200,360도전방면,30,2018-09,051-607-4284,35.1254450000,129.0741300000,2020-02-20
"부산광역시 남구청",부산광역시 남구 신선로337번길 57,부산광역시 남구 용당동 274-1,생활방범,2,200,360도전방면,30,2018-08,051-607-4284,35.1151920000,129.0925890000,2020-02-20
"부산광역시 남구청",,부산광역시 남구 문현동 652-81,생활방범,1,200,360도전방면,30,2018-09,051-607-4284,35.1374530000,129.0686830000,2020-02-20
"부산광역시 남구청",부산광역시 남구 못골번영로72번가길 39,부산광역시 남구 대연동 1491-47,생활방범,3,200,단일방면,30,2018-12,051-607-4284,35.1416660000,129.0890930000,2020-02-20
"부산광역시 남구청",부산광역시 남구 못골로53번길 9,부산광역시 남구 대연동 1283-51,생활방범,4,200,단일방면,30,2018-12,051-607-4284,35.1362020000,129.0881990000,2020-02-20
"부산광역시 남구청",부산광역시 남구 못골번영로60번길 39,부산광역시 남구 대연동 1481-14,생활방범,1,200,360도전방면,30,2018-12,051-607-4284,35.1406730000,129.0912500000,2020-02-20
"부산광역시 남구청",부산광역시 남구 못골로 97,부산광역시 남구 대연동 1348-3,생활방범,1,200,360도전방면,30,2018-12,051-607-4284,35.1357370000,129.0932090000,2020-02-20
"부산광역시 남구청",부산광역시 남구 못골번영로 46번길 59,부산광역시 남구 대연동 283-14,생활방범,1,200,360도전방면,30,2018-12,051-607-4284,35.1392280000,129.0923400000,2020-02-20
"부산광역시 남구청",부산광역시 남구 못골번영로 46번길 59,부산광역시 남구 대연동 283-14,생활방범,1,200,단일방면,30,2018-12,051-607-4284,35.1392280000,129.0923400000,2020-02-20
"부산광역시 남구청",부산광역시 남구 문현동 산 21,,생활방범,1,200,360도전방면,30,2019-02,051-607-4284,35.1498860000,129.0743980000,2020-02-20
"부산광역시 남구청",부산광역시 남구 문현동 산 21,,생활방범,2,200,단일방면,30,2019-02,051-607-4284,35.1498860000,129.0743980000,2020-02-20
"부산광역시 남구청",부산광역시 남구 황령대로352번길 2,부산광역시 남구 대연동 211-2,생활방범,1,200,360도전방면,30,2019-05,051-607-4284,35.1464300000,129.0961800000,2020-02-20
"부산광역시 남구청",부산광역시 남구 용소로28번길 22-9,부산광역시 남구 대연동 77,생활방범,1,200,360도전방면,30,2019-05,051-607-4284,35.1350900000,129.0992500000,2020-02-20
"부산광역시 남구청",부산광역시 남구 전포대로78번길 10,부산광역시 남구 문현동 513-36,생활방범,1,200,360도전방면,30,2019-05,051-607-4284,35.1437800000,129.0673800000,2020-02-20
"부산광역시 남구청",부산광역시 남구 수영로 21,부산광역시 남구 문현동 405-5,생활방범,1,200,360도전방면,30,2019-05,051-607-4284,35.1371100000,129.0700700000,2020-02-20
"부산광역시 남구청",부산광역시 남구 수영로 33,부산광역시 남구 문현동 359-1,생활방범,1,200,360도전방면,30,2019-05,051-607-4284,35.1370100000,129.0716400000,2020-02-20
"부산광역시 남구청",부산광역시 남구 수영로65번길 3,부산광역시 남구 문현동 254-2,생활방범,1,200,360도전방면,30,2019-05,051-607-4284,35.1355300000,129.0746800000,2020-02-20
"부산광역시 남구청",부산광역시 남구 진남로220번가길 7,부산광역시 남구 문현동 54-168,생활방범,1,200,360도전방면,30,2019-05,051-607-4284,35.1457900000,129.0771800000,2020-02-20
"부산광역시 남구청",부산광역시 남구 지게골로 36,부산광역시 남구 문현동 351-35,생활방범,1,200,360도전방면,30,2019-05,051-607-4284,35.1356700000,129.0697200000,2020-02-20
"부산광역시 남구청",부산광역시 남구 석포로 32-1,부산광역시 남구 감만동 20-5,생활방범,1,200,360도전방면,30,2019-05,051-607-4284,35.1224400000,129.0847500000,2020-02-20
"부산광역시 남구청",부산광역시 남구 전선등로3번길 20,부산광역시 남구 감만동 44-104,생활방범,1,200,360도전방면,30,2019-05,051-607-4284,35.1230300000,129.0838800000,2020-02-20
"부산광역시 남구청",부산광역시 남구 동명로132번길 18,부산광역시 남구 용호동 565,생활방범,1,200,360도전방면,30,2019-05,051-607-4284,35.1190700000,129.1106400000,2020-02-20
"부산광역시 남구청",부산광역시 남구 진남로153번길 67,부산광역시 남구 문현동 238-361,생활방범,1,200,360도전방면,30,2019-05,051-607-4284,35.1393000000,129.0774300000,2020-02-20
"부산광역시 남구청",부산광역시 남구 용호로216번가길 10,부산광역시 남구 용호동 977,생활방범,1,200,360도전방면,30,2019-05,051-607-4284,35.1130300000,129.1101700000,2020-02-20
"부산광역시 남구청",부산광역시 남구 문현동 산 20,,생활방범,1,200,360도전방면,30,2019-06,051-607-4284,35.1495800000,129.0746000000,2020-02-20
"부산광역시 남구청",부산광역시 남구 문현동 산 20,,생활방범,2,200,단일방면,30,2019-06,051-607-4284,35.1495800000,129.0746000000,2020-02-20
"부산광역시 남구청",부산광역시 남구 못골번영로72번길 14,부산광역시 남구 대연동 1483-2,생활방범,2,200,단일방면,30,2019-08,051-607-4284,35.1414210000,129.0897430000,2020-02-20
"부산광역시 남구청",부산광역시 남구 수영로366번길 42,부산광역시 남구 대연동17-5,생활방범,3,200,단일방면,30,2019-08,051-607-4284,35.1381270000,129.1064280000,2020-02-20
"부산광역시 남구청",부산광역시 남구 유엔로157번가길 115,부산광역시 남구 대연동546-3,생활방범,3,200,단일방면,30,2019-08,051-607-4284,35.1327240000,129.0994220000,2020-02-20
"부산광역시 남구청",부산광역시 남구 유엔로157번가길 110,부산광역시 남구 대연동 546-9,생활방범,2,200,단일방면,30,2019-08,051-607-4284,35.1327120000,129.0992920000,2020-02-20
"부산광역시 남구청",부산광역시 남구 동명로169번길 8,부산광역시 남구 용호동498-1,생활방범,2,200,단일방면,30,2019-08,051-607-4284,35.1195740000,129.1157120000,2020-02-20
"부산광역시 남구청",부산광역시 남구 우암로2번길 54,부산광역시 남구 감만동 226-13,생활방범,1,200,360도전방면,30,2019-12,051-607-4284,35.1128600000,129.0834100000,2020-02-20
"부산광역시 남구청",부산광역시 남구 유엔로157번길 48,부산광역시 남구 대연동 875-13,생활방범,1,200,360도전방면,30,2019-12,051-607-4284,35.1322500000,129.0933900000,2020-02-20
"부산광역시 남구청",부산광역시 남구 유엔로157번나길 29,부산광역시 남구 대연동 1725-7,생활방범,1,200,360도전방면,30,2019-12,051-607-4284,35.1330200000,129.0947400000,2020-02-20
"부산광역시 남구청",부산광역시 남구 유엔평화로29번길 139,부산광역시 남구 대연동 550-16,생활방범,1,200,360도전방면,30,2019-12,051-607-4284,35.1322200000,129.0999200000,2020-02-20
"부산광역시 남구청",부산광역시 남구 황령대로319번가길 198-3,부산광역시 남구 대연동 245-16,생활방범,1,200,360도전방면,30,2019-12,051-607-4284,35.1500200000,129.0897100000,2020-02-20
"부산광역시 남구청",부산광역시 남구 황령대로319번나길 30,부산광역시 남구 대연동 245-68,생활방범,1,200,360도전방면,30,2019-12,051-607-4284,35.1511300000,129.0905500000,2020-02-20
"부산광역시 남구청",부산광역시 남구 홍곡로320번길 100,부산광역시 남구 대연동 1156-18,생활방범,1,200,360도전방면,30,2019-12,051-607-4284,35.1229200000,129.0916100000,2020-02-20
"부산광역시 남구청",부산광역시 남구 수영로196번길 83,부산광역시 남구 대연동 903-7,생활방범,1,200,360도전방면,30,2019-12,051-607-4284,35.1311500000,129.0886900000,2020-02-20
"부산광역시 남구청",부산광역시 남구 진남로 58,부산광역시 남구 대연동 1509-3,생활방범,1,200,360도전방면,30,2019-12,051-607-4284,35.1380300000,129.0889700000,2020-02-20
"부산광역시 남구청",부산광역시 남구 동명로152번길 93,부산광역시 남구 용호동 516-10,생활방범,1,200,360도전방면,30,2019-12,051-607-4284,35.1147300000,129.1130900000,2020-02-20
"부산광역시 남구청",부산광역시 남구 유엔평화로76번길 85-3,부산광역시 남구 대연동 747-18,생활방범,2,200,단일방면,30,2019-12,051-607-4284,35.1257000000,129.0938400000,2020-02-20
"부산광역시 남구청",부산광역시 남구 유엔로74번길 4-19,부산광역시 남구 우암동 8-109,생활방범,1,200,360도전방면,30,2019-12,051-607-4284,35.1275900000,129.0842800000,2020-02-20
"부산광역시 남구청",부산광역시 남구 우암로 144,부산광역시 남구 우암동 52-69,생활방범,1,200,360도전방면,30,2019-12,051-607-4284,35.1228700000,129.0804800000,2020-02-20
"부산광역시 남구청",부산광역시 남구 당산로 42,부산광역시 남구 우암동 93-9,생활방범,1,200,360도전방면,30,2019-12,051-607-4284,35.1262800000,129.0775400000,2020-02-20
"부산광역시 남구청",부산광역시 남구 천제등로 50,부산광역시 남구 대연동 901-2,생활방범,2,200,단일방면,30,2019-12,051-607-4284,35.1316800000,129.0894100000,2020-02-20
"부산광역시 남구청",부산광역시 남구 진남로96번길 10-3,부산광역시 남구 대연동 1804-1,생활방범,1,200,360도전방면,30,2009-02,051-607-4284,35.1386576000,129.0848978000,2020-02-20
"부산광역시 남구청",부산광역시 남구 진남로46번길 37,부산광역시 남구 대연동 1475-2,생활방범,1,200,360도전방면,30,2009-02,051-607-4284,35.1397847000,129.0900812000,2020-02-20
"부산광역시 남구청",부산광역시 남구 전포대로68번길 20-2,부산광역시 남구 문현동 488-112,생활방범,1,200,360도전방면,30,2009-02,051-607-4284,35.1427475000,129.0680251000,2020-02-20
"부산광역시 남구청",부산광역시 남구 수영로39번가길 17,부산광역시 남구 문현동 189-21,생활방범,1,200,360도전방면,30,2009-02,051-607-4284,35.1380677000,129.0731993000,2020-02-20
"부산광역시 남구청",부산광역시 남구 동명로 113,부산광역시 남구 용호동 413-8,생활방범,1,200,360도전방면,30,2009-02,051-607-4284,35.1203460000,129.1094838000,2020-02-20
"부산광역시 남구청",부산광역시 남구 수영로168번길 63,부산광역시 남구 대연동 1216-3,생활방범,1,200,360도전방면,30,2009-02,051-607-4284,35.1325267000,129.0869758000,2020-02-20
"부산광역시 남구청",부산광역시 남구 동제당로191번길 79,부산광역시 남구 대연동 1623-161,생활방범,1,200,360도전방면,30,2009-02,051-607-4284,35.1303731000,129.0800337000,2020-02-20
"부산광역시 남구청",부산광역시 남구 장고개로104번길 38,부산광역시 남구 문현동 1025-2,생활방범,1,200,360도전방면,30,2009-02,051-607-4284,35.1329935000,129.0698662000,2020-02-20
"부산광역시 남구청",부산광역시 남구 용주로 67,부산광역시 남구 용호동 526-2,생활방범,1,200,360도전방면,30,2009-02,051-607-4284,35.1131540000,129.1148701000,2020-02-20
"부산광역시 남구청",부산광역시 남구 남구 장고개로 61,부산광역시 남구 문현동 1148-3,생활방범,1,200,360도전방면,30,2010-02,051-607-4284,35.1306776000,129.0704097000,2020-02-20
"부산광역시 남구청",부산광역시 남구 우암로26번길 33,부산광역시 남구 감만동 206-55,생활방범,1,200,360도전방면,30,2010-02,051-607-4284,35.1138137000,129.0836689000,2020-02-20
"부산광역시 남구청",부산광역시 남구 신선로329번길 74,부산광역시 남구 용당동 238-1,생활방범,1,200,360도전방면,30,2010-02,051-607-4284,35.1134292000,129.0930649000,2020-02-20
"부산광역시 남구청",부산광역시 남구 고동골로60번길 35,부산광역시 남구 문현동 119-100,생활방범,1,200,360도전방면,30,2010-02,051-607-4284,35.1424794000,129.0733559000,2020-02-20
"부산광역시 남구청",부산광역시 남구 수영로266번길 65,부산광역시 남구 대연동 364-14,생활방범,1,200,360도전방면,30,2010-02,051-607-4284,35.1340772000,129.0985582000,2020-02-20
"부산광역시 남구청",부산광역시 남구 용호로251번길 45,부산광역시 남구 용호동 549-47,생활방범,1,200,360도전방면,30,2010-02,051-607-4284,35.1104453000,129.1140906000,2020-02-20
"부산광역시 남구청",부산광역시 남구 동명로176번길 40,부산광역시 남구 용호동 382-4,생활방범,1,200,360도전방면,30,2010-02,051-607-4284,35.1170711000,129.1153941000,2020-02-20
"부산광역시 남구청",부산광역시 남구 동명로105번길 65,부산광역시 남구 용호동 66-2,생활방범,1,200,360도전방면,30,2010-02,051-607-4284,35.1230573000,129.1082129000,2020-02-20
"부산광역시 남구청",부산광역시 남구 용호로123번가길 56,부산광역시 남구 용호동 464-4,생활방범,1,200,360도전방면,30,2010-02,051-607-4284,35.1224129000,129.1145859000,2020-02-20
"부산광역시 남구청",부산광역시 남구 신정번영로 11,부산광역시 남구 대연동 1614-8,생활방범,1,200,360도전방면,30,2010-02,051-607-4284,35.1339814000,129.0806454000,2020-02-20
"부산광역시 남구청",부산광역시 남구 신정번영로 47번길 39,부산광역시 남구 대연동 1626-25,생활방범,1,200,360도전방면,30,2010-02,051-607-4284,35.1310500000,129.0784200000,2020-02-20
"부산광역시 남구청",부산광역시 남구 용주로 50번길 3,부산광역시 남구 용호동 528-1,생활방범,1,200,360도전방면,30,2010-02,051-607-4284,35.1130598000,129.0767577000,2020-02-20
"부산광역시 남구청",부산광역시 남구 용주로 22번길 70,부산광역시 남구 용호동 561-1,생활방범,1,200,360도전방면,30,2010-02,051-607-4284,35.1100900000,129.1128150000,2020-02-20
"부산광역시 남구청",부산광역시 남구 석포로73번길 76,부산광역시 남구 대연동 1173-120,생활방범,1,200,360도전방면,30,2010-02,051-607-4284,35.1271800000,129.0873260000,2020-02-20
"부산광역시 남구청",부산광역시 남구 진남로188번길 46,부산광역시 남구 문현동 80-14,생활방범,1,200,360도전방면,30,2010-02,051-607-4284,35.1441880000,129.0796500000,2020-02-20
"부산광역시 남구청",부산광역시 남구 동항로106번길24-3,부산광역시 남구 우암동127-142,생활방범,1,200,360도전방면,30,2010-02,051-607-4284,35.1280150000,129.0796800000,2020-02-20
"부산광역시 남구청",부산광역시 남구 신정번영로 13번길 30,부산광역시 남구 대연동 1619-185,생활방범,1,200,360도전방면,30,2010-02,051-607-4284,35.1335230000,129.0815400000,2020-02-20
"부산광역시 남구청",부산광역시 남구 고동골로 69번길117,부산광역시 남구 문현동 557-39,생활방범,1,200,360도전방면,30,2010-02,051-607-4284,35.1466970000,129.0724900000,2020-02-20
"부산광역시 남구청",부산광역시 남구 유엔로96번길26-24,부산광역시 남구 대연동 1173-136,생활방범,1,200,360도전방면,30,2010-02,051-607-4284,35.1122610000,129.1127310000,2020-02-20
"부산광역시 남구청",부산광역시 남구 부산광역시 남구 고동골로 97,부산광역시 남구 문현동 557-15,생활방범,1,200,360도전방면,30,2011-04,051-607-4284,35.1456110000,129.0721263000,2020-02-20
"부산광역시 남구청",부산광역시 남구 석포로 20번길23,부산광역시 남구 감만동 8-21,생활방범,1,200,360도전방면,30,2011-04,051-607-4284,35.1220420000,129.0840291000,2020-02-20
"부산광역시 남구청",부산광역시 남구 용호로124번길 29,부산광역시 남구 용호동 407-1,생활방범,1,200,360도전방면,30,2011-04,051-607-4284,35.1211773000,129.1104441000,2020-02-20
"부산광역시 남구청",부산광역시 남구 용소로8번길 48,부산광역시 남구 대연동 76-2,생활방범,1,200,360도전방면,30,2011-04,051-607-4284,35.1357176000,129.0978769000,2020-02-20
"부산광역시 남구청",부산광역시 남구 자유평화로57번길 17-1,부산광역시 남구 문현동 789-34,생활방범,1,200,360도전방면,30,2011-04,051-607-4284,35.1420546000,129.0655338000,2020-02-20
"부산광역시 남구청",부산광역시 남구 유엔로 84번길 91,부산광역시 남구 우암동 17,생활방범,1,200,360도전방면,30,2011-04,051-607-4284,35.1258290000,129.0828932000,2020-02-20
"부산광역시 남구청",부산광역시 남구 용호로 90번길 14,부산광역시 남구 용호동 135-6,생활방범,1,200,360도전방면,30,2011-04,051-607-4284,35.1243845000,129.1117197000,2020-02-20
"부산광역시 남구청",부산광역시 남구 유엔로 120번가길 53,부산광역시 남구 대연동 943-1,생활방범,1,200,360도전방면,30,2011-04,051-607-4284,35.1286147000,129.0873726000,2020-02-20
"부산광역시 남구청",부산광역시 남구 지게골로 139-6,부산광역시 남구 문현동 512-19,생활방범,1,200,360도전방면,30,2011-04,051-607-4284,35.1343903000,129.0753060000,2020-02-20
"부산광역시 남구청",부산광역시 남구 동제당로191번길 1,부산광역시 남구 대연동 1618-297,생활방범,1,200,360도전방면,30,2011-04,051-607-4284,35.1301688000,129.0763609000,2020-02-20
"부산광역시 남구청",부산광역시 남구 동명로92번길 58,부산광역시 남구 용호동 481-1,생활방범,1,200,360도전방면,30,2011-04,051-607-4284,35.1168143000,129.1070280000,2020-02-20
"부산광역시 남구청",부산광역시 남구 석포로73번길 58,부산광역시 남구 대연동 1172-51,생활방범,1,200,360도전방면,30,2011-04,051-607-4284,35.1269364000,129.0880689000,2020-02-20
"부산광역시 남구청",부산광역시 남구 진남로 116,부산광역시 남구 대연동 1791-23,생활방범,1,200,360도전방면,30,2011-04,051-607-4284,35.1384051000,129.0824936000,2020-02-20
"부산광역시 남구청",부산광역시 남구 유엔로84번길 24,부산광역시 남구 우암동 8-84,생활방범,1,200,360도전방면,30,2011-04,051-607-4284,35.1279683000,129.0850742000,2020-02-20
"부산광역시 남구청",부산광역시 남구 용호로160번길 32,부산광역시 남구 용호동 686,생활방범,1,200,360도전방면,30,2011-04,051-607-4284,35.1177090000,129.1100229000,2020-02-20
"부산광역시 남구청",부산광역시 남구 유엔평화로66번길 72,부산광역시 남구 대연동 968-11,생활방범,1,200,360도전방면,30,2011-04,051-607-4284,35.1263963000,129.0905951000,2020-02-20
"부산광역시 남구청",부산광역시 남구 진남로 18,부산광역시 남구 대연동 292-11,생활방범,1,200,360도전방면,30,2011-04,051-607-4284,35.1367787000,129.0913689000,2020-02-20
"부산광역시 남구청",부산광역시 남구 양지골로 248,부산광역시 남구 감만동 176-82,생활방범,1,200,360도전방면,30,2011-04,051-607-4284,35.1190870000,129.0854622000,2020-02-20
"부산광역시 남구청",부산광역시 남구 동명로146번길 6,부산광역시 남구 용호동 394-20,생활방범,1,200,360도전방면,30,2011-04,051-607-4284,35.1191679000,129.1126340000,2020-02-20
"부산광역시 남구청",,부산광역시 남구 대연동 679-3,생활방범,1,200,360도전방면,30,2011-04,051-607-4284,35.1280925000,129.1009860000,2020-02-20
"부산광역시 남구청",부산광역시 남구 용호로178번길24,부산광역시 남구 용호동 484-9,생활방범,1,200,360도전방면,30,2011-04,051-607-4284,35.1166538000,129.1096916000,2020-02-20
"부산광역시 남구청",부산광역시 남구 수영로267번길 21-2,부산광역시 남구 대연동 1346-158,생활방범,1,200,360도전방면,30,2011-04,051-607-4284,35.1367151000,129.0952173000,2020-02-20
"부산광역시 남구청",부산광역시 남구 석포로 50-5,부산광역시 남구 감만동 39-23,생활방범,1,200,360도전방면,30,2011-04,051-607-4284,35.1230988000,129.0865039000,2020-02-20
"부산광역시 남구청",부산광역시 남구 동명로100번길 21,부산광역시 남구 용호동 421-14,생활방범,1,200,360도전방면,30,2011-04,051-607-4284,35.1187047000,129.1079948000,2020-02-20
"부산광역시 남구청",부산광역시 남구 유엔로169번길97,부산광역시 남구 대연동 1730-1,생활방범,1,200,360도전방면,30,2011-04,051-607-4284,35.1346064000,129.0944671000,2020-02-20
"부산광역시 남구청",부산광역시 남구 홍곡로120번길34,부산광역시 남구 대연동 1730-1,생활방범,1,200,360도전방면,30,2012-06,051-607-4284,35.1163416000,129.0878480000,2020-02-20
"부산광역시 남구청",부산광역시 남구 홍곡로22번길 30,부산광역시 남구 감만동 322-7,생활방범,1,200,360도전방면,30,2012-06,051-607-4284,35.1145582000,129.0830743000,2020-02-20
"부산광역시 남구청",부산광역시 남구 우암로61번길 10,부산광역시 남구 감만동 138-10,생활방범,1,200,360도전방면,30,2012-06,051-607-4284,35.1161287000,129.0807211000,2020-02-20
"부산광역시 남구청",부산광역시 남구 우암로70번길 22,부산광역시 남구 감만동 173-2,생활방범,1,200,360도전방면,30,2012-06,051-607-4284,35.1169552000,129.0824423000,2020-02-20
"부산광역시 남구청",부산광역시 남구 석포로26번가길 24,부산광역시 남구 감만동 29-249,생활방범,1,200,360도전방면,30,2012-06,051-607-4284,35.1217940000,129.0858492000,2020-02-20
"부산광역시 남구청",부산광역시 남구 석포로26번가길 24,부산광역시 남구 감만동 29-249,생활방범,2,200,단일방면,30,2012-06,051-607-4284,35.1217940000,129.0858492000,2020-02-20
"부산광역시 남구청",부산광역시 남구 우암로 186-14,부산광역시 남구 우암동 163-8,생활방범,1,200,360도전방면,30,2012-06,051-607-4284,35.1249591000,129.0765173000,2020-02-20
"부산광역시 남구청",부산광역시 남구 장고개로 9-1,부산광역시 남구 우암동 189-732,생활방범,1,200,360도전방면,30,2012-06,051-607-4284,35.1261668000,129.0709421000,2020-02-20
"부산광역시 남구청",부산광역시 남구 장고개로 29,부산광역시 남구 우암동 189-1802,생활방범,1,200,360도전방면,30,2012-06,051-607-4284,35.1279429000,129.0709083000,2020-02-20
"부산광역시 남구청",부산광역시 남구 신정번영로45번길 7,부산광역시 남구 대연동 1619-384,생활방범,1,200,360도전방면,30,2012-06,051-607-4284,35.1323115000,129.0796940000,2020-02-20
"부산광역시 남구청",부산광역시 남구 천제등로16번길 70-5,부산광역시 남구 대연동 1222-84,생활방범,1,200,360도전방면,30,2012-06,051-607-4284,35.1337049000,129.0846533000,2020-02-20
"부산광역시 남구청",부산광역시 남구 황령대로492번길 42,부산광역시 남구 대연동 455-8,생활방범,1,200,360도전방면,30,2012-06,051-607-4284,35.1373816000,129.1054058000,2020-02-20
"부산광역시 남구청",부산광역시 남구 황령대로492번길 42,부산광역시 남구 대연동 455-8,생활방범,3,200,단일방면,30,2012-06,051-607-4284,35.1373816000,129.1054058000,2020-02-20
"부산광역시 남구청",부산광역시 남구 천제등로46번길 99,부산광역시 남구 대연동 1195-145,생활방범,1,200,360도전방면,30,2012-06,051-607-4284,35.1292993000,129.0857184000,2020-02-20
"부산광역시 남구청",부산광역시 남구 천제등로46번길 99,부산광역시 남구 대연동 1195-145,생활방범,3,200,단일방면,30,2012-06,051-607-4284,35.1292993000,129.0857184000,2020-02-20
"부산광역시 남구청",부산광역시 남구 진남로127번길 76,부산광역시 남구 대연동 1781-66,생활방범,1,200,360도전방면,30,2012-06,051-607-4284,35.1374500000,129.0769878000,2020-02-20
"부산광역시 남구청",부산광역시 남구 진남로232번길 2,부산광역시 남구 문현동 31-67,생활방범,1,200,360도전방면,30,2012-06,051-607-4284,35.1462008000,129.0754559000,2020-02-20
"부산광역시 남구청",,부산광역시 남구 문현동 605,생활방범,1,200,360도전방면,30,2012-06,051-607-4284,35.1466776000,129.0683234000,2020-02-20
"부산광역시 남구청",,부산광역시 남구 문현동 605,생활방범,3,200,단일방면,30,2012-06,051-607-4284,35.1466776000,129.0683234000,2020-02-20
"부산광역시 남구청",부산광역시 남구 이기대공원로26번길 6,부산광역시 남구 용호동 87-4,생활방범,1,200,360도전방면,30,2012-06,051-607-4284,35.1243965000,129.1151231000,2020-02-20
"부산광역시 남구청",부산광역시 남구 용호로 216번길34,부산광역시 남구 용호동 536-9,생활방범,1,200,360도전방면,30,2012-06,051-607-4284,35.1132083000,129.1090426000,2020-02-20
"부산광역시 남구청",부산광역시 남구 전포대로 8-5,부산광역시 남구 문현동 375-17,생활방범,1,200,360도전방면,30,2012-06,051-607-4284,35.1377169000,129.0685256000,2020-02-20
"부산광역시 남구청",부산광역시 남구 동명로 164번길 66,부산광역시 남구 용호동 517-1,생활방범,1,200,360도전방면,30,2012-06,051-607-4284,35.1161605000,129.1137493000,2020-02-20
"부산광역시 남구청",,부산광역시 남구 용호동 517-1,생활방범,2,200,단일방면,30,2012-06,051-607-4284,35.1161605000,129.1137493000,2020-02-20
"부산광역시 남구청",부산광역시 남구 신선로 329번길 42,부산광역시 남구 용당동 281-2,생활방범,1,200,360도전방면,30,2012-06,051-607-4284,35.1145068000,129.0932153000,2020-02-20
"부산광역시 남구청",부산광역시 남구 수영로49번길 5,부산광역시 남구 문현동 240-26,생활방범,1,200,360도전방면,30,2012-06,051-607-4284,35.1366132000,129.0732691000,2020-02-20
"부산광역시 남구청",부산광역시 남구 유엔로 215번길 9,부산광역시 남구 대연동 571-2,생활방범,1,200,360도전방면,30,2012-12,051-607-4284,35.1306330000,129.0997540000,2020-02-20
"부산광역시 남구청",부산광역시 남구 황령대로353번길 9-21,부산광역시 남구 대연동 238-20,생활방범,1,200,360도전방면,30,2012-12,051-607-4824,35.1477972000,129.0956665000,2020-02-20
"부산광역시 남구청",부산광역시 남구 분포로 41,부산광역시 남구 용호동 176-68,생활방범,1,200,360도전방면,30,2012-12,051-607-4284,35.1288784000,129.1140146000,2020-02-20
"부산광역시 남구청",부산광역시 남구 신선로447번길24,부산광역시 남구 대연동 712-2,생활방범,1,200,360도전방면,30,2012-12,051-607-4284,35.1253072000,129.0993938000,2020-02-20
"부산광역시 남구청",부산광역시 남구 유엔평화로76번길 85-32,부산광역시 남구 대연동 747-20,생활방범,1,200,360도전방면,30,2012-12,051-607-4284,35.1257084000,129.0945104000,2020-02-20
"부산광역시 남구청","부산광역시 남구 우암로84번길 12, 12-3",부산광역시 남구 감만동 79-3,생활방범,1,200,360도전방면,30,2012-12,051-607-4284,35.1179305000,129.0814328000,2020-02-20
"부산광역시 남구청",부산광역시 남구 수영로220번길 14,부산광역시 남구 대연동 1750-1,생활방범,1,200,360도전방면,30,2012-12,051-607-4284,35.1343557000,129.0904719000,2020-02-20
"부산광역시 남구청",부산광역시 남구 천제등로 59-9,부산광역시 남구 대연동 893-8,생활방범,1,200,360도전방면,30,2012-12,051-607-4284,35.1308911000,129.0901437000,2020-02-20
"부산광역시 남구청",부산광역시 남구 용호로216번길 32-16,부산광역시 남구 용호동 535-1,생활방범,1,200,360도전방면,30,2012-12,051-607-4284,35.1138365000,129.1094406000,2020-02-20
"부산광역시 남구청",부산광역시 남구 동명로105번길 111,부산광역시 남구 용호동 38-1,생활방범,1,200,360도전방면,30,2012-12,051-607-4284,35.1251162000,129.1080992000,2020-02-20
"부산광역시 남구청",,부산광역시 남구 용호동 산 130-1,생활방범,1,200,360도전방면,30,2012-12,051-607-4284,35.1172054000,129.1271812000,2020-02-20
"부산광역시 남구청",,부산광역시 남구 용호동 산 221-9,생활방범,1,200,360도전방면,30,2012-12,051-607-4284,35.1080617000,129.1120574000,2020-02-20
"부산광역시 남구청",부산광역시 남구 동제당로 39-4,부산광역시 남구 문현동 318-6,생활방범,1,200,360도전방면,30,2012-12,051-607-4284,35.1333565000,129.0786401000,2020-02-20
"부산광역시 남구청",부산광역시 남구 무민사로 30,부산광역시 남구 감만동 267-9,생활방범,1,200,360도전방면,30,2012-12,051-607-4284,35.1127034000,129.0818321000,2020-02-20
"부산광역시 남구청",부산광역시 남구 우암로154번길 10 (우암동),부산광역시 남구 우암동 49-13,생활방범,1,200,360도전방면,30,2012-12,051-607-4824,35.1238729000,129.0805755000,2020-02-20
"부산광역시 남구청",부산광역시 남구 장고개로9번길 16 (우암동),부산광역시 남구 우암동 189-1019,생활방범,1,200,360도전방면,30,2012-12,051-607-4284,35.1262668000,129.0700273000,2020-02-20
"부산광역시 남구청",부산광역시 남구 전포대로40번길 19 (문현2동),부산광역시 남구 문현동 466-5,생활방범,1,200,360도전방면,30,2012-12,051-607-4284,35.1411036000,129.0674824000,2020-02-20
"부산광역시 남구청",부산광역시 남구 고동골로 86-34 (문현1동),부산광역시 남구 문현동 117-16,생활방범,1,200,360도전방면,30,2012-12,051-607-4284,35.1444659000,129.0736959000,2020-02-20
"부산광역시 남구청",부산광역시 남구 고동골로28번길 20 (문현3동),부산광역시 남구 문현동 189-8,생활방범,1,200,360도전방면,30,2012-12,051-607-4284,35.1394933000,129.0724334000,2020-02-20
"부산광역시 남구청",부산광역시 남구 천제등로28번길 59 (대연4동),부산광역시 남구 대연동 1203-95,생활방범,1,200,360도전방면,30,2012-12,051-607-4284,35.1308766000,129.0860169000,2020-02-20
"부산광역시 남구청",부산광역시 남구 용호로198번길 66 (용호4동),부산광역시 남구 용호동 482-8,생활방범,1,200,360도전방면,30,2012-12,051-607-4284,35.1160420000,129.1090744000,2020-02-20
"부산광역시 남구청",부산광역시 남구 용호로106번길 40 (용호1동),부산광역시 남구 용호동 128-1,생활방범,1,200,360도전방면,30,2012-12,051-607-4284,35.1238930000,129.1105643000,2020-02-20
"부산광역시 남구청",부산광역시 남구 동명로157번길 9 (용호3동),부산광역시 남구 용호동 392-31,생활방범,1,200,360도전방면,30,2012-12,051-607-4284,35.1196864000,129.1141780000,2020-02-20
"부산광역시 남구청",부산광역시 남구 유엔평화로 126번길33 맞은편 (용당동),부산광역시 남구 용당동 594-14,생활방범,1,200,360도전방면,30,2012-12,051-607-4284,35.1235419000,129.0950574000,2020-02-20
"부산광역시 남구청",부산광역시 남구 양지골로251번길 70-3 (감만2동),부산광역시 남구 감만동 3-356,생활방범,1,200,360도전방면,30,2012-12,051-607-4284,35.1199272000,129.0831311000,2020-02-20
"부산광역시 남구청",부산광역시 남구 전선등로37번길 2 (감만2동),부산광역시 남구 감만동 33-245,생활방범,1,200,360도전방면,30,2012-12,051-607-4284,35.1241556000,129.0858618000,2020-02-20
"부산광역시 남구청",부산광역시 남구 우암로 104번길 15 앞 (감만1동),부산광역시 남구 감만동 73-48,생활방범,1,200,360도전방면,30,2012-12,051-607-4284,35.1195613000,129.0818120000,2020-02-20
"부산광역시 남구청",부산광역시 남구 신정번영로65번길 56 (대연1동),부산광역시 남구 대연동 1627-197,생활방범,1,200,360도전방면,30,2012-12,051-607-4824,35.1300567000,129.0783245000,2020-02-20
"부산광역시 남구청",부산광역시 남구 유엔평화로 154 (용당동),부산광역시 남구 용당동 472-7,생활방범,1,200,360도전방면,30,2012-12,051-607-4284,35.1227305000,129.0974612000,2020-02-20
"부산광역시 남구청",부산광역시 남구 당산로 24 (우암동),부산광역시 남구 우암동 93-16,생활방범,1,200,360도전방면,30,2012-12,051-607-4284,35.1263789000,129.0761037000,2020-02-20
"부산광역시 남구청","부산광역시 남구 전포대로77번길 26-3, 28 (문현2동)",부산광역시 남구 문현동 743-9,생활방범,1,200,360도전방면,30,2012-12,051-607-4284,35.1438737000,129.0651175000,2020-02-20
"부산광역시 남구청",부산광역시 남구 진남로70번길 30 (대연5동),부산광역시 남구 대연동 1506-1,생활방범,1,200,360도전방면,30,2012-12,051-607-4284,35.1394457000,129.0876823000,2020-02-20
"부산광역시 남구청",부산광역시 남구 석포로73번길 38 (대연4동),부산광역시 남구 대연동 1172-62,생활방범,1,200,360도전방면,30,2013-12,051-607-4284,35.1262240000,129.0880013000,2020-02-20
"부산광역시 남구청",부산광역시 남구 수영로 251 (대연5동),부산광역시 남구 대연동 329-15,생활방범,1,200,360도전방면,30,2013-12,051-607-4284,35.1356282000,129.0940012000,2020-02-20
"부산광역시 남구청",부산광역시 남구 진남로110번길 25 (대연6동),부산광역시 남구 대연동 1797-1,생활방범,1,200,360도전방면,30,2013-12,051-607-4284,35.1392630000,129.0830196000,2020-02-20
"부산광역시 남구청",부산광역시 남구 진남로166번길 6-1 (대연6동),부산광역시 남구 대연동 1775-2,생활방범,1,200,360도전방면,30,2013-12,051-607-4284,35.1414043000,129.0794277000,2020-02-20
"부산광역시 남구청",부산광역시 남구 용호로42번길 14 (용호1동),부산광역시 남구 용호동 181-1,생활방범,1,200,360도전방면,30,2013-12,051-607-4284,35.1260900000,129.1085578000,2020-02-20
"부산광역시 남구청",부산광역시 남구 동명로 92 (용호1동),부산광역시 남구 용호동 420-5,생활방범,1,200,360도전방면,30,2013-12,051-607-4284,35.1193422000,129.1074780000,2020-02-20
"부산광역시 남구청",,부산광역시 남구 문현3동 223-168,생활방범,1,200,360도전방면,30,2013-12,051-607-4284,35.1117703000,129.1121341000,2020-02-20
"부산광역시 남구청",부산광역시 남구 동명로157번길 45 (용호3동),부산광역시 남구 용호동 372-1,생활방범,1,200,360도전방면,30,2013-12,051-607-4824,35.1213007000,129.1146717000,2020-02-20
"부산광역시 남구청",부산광역시 남구 양지골로113번길 25 (감만1동),부산광역시 남구 감만동 205-10,생활방범,1,200,360도전방면,30,2013-12,051-607-4284,35.1139594000,129.0862290000,2020-02-20
"부산광역시 남구청",부산광역시 남구 유엔로 15,부산광역시 남구 우암동 32-4,생활방범,1,200,360도전방면,30,2013-12,051-607-4284,35.1268527000,129.0798940000,2020-02-20
"부산광역시 남구청",부산광역시 남구 장고개로33번길 11 (우암동),부산광역시 남구 우암동 189-224,생활방범,1,200,360도전방면,30,2013-12,051-607-4284,35.1285578000,129.0704753000,2020-02-20
"부산광역시 남구청",부산광역시 남구 솔밭로 18번길 127-3(우암동),부산광역시 남구 우암동 127-195,생활방범,1,200,360도전방면,30,2013-12,051-607-4284,35.1285984000,129.0744421000,2020-02-20
"부산광역시 남구청",부산광역시 남구 진남로207번길 20 (문현1동),부산광역시 남구 문현동 105-3,생활방범,1,200,360도전방면,30,2013-12,051-607-4284,35.1442660000,129.0755007000,2020-02-20
"부산광역시 남구청",부산광역시 남구 고동골로 69번길 48 (문현2동),부산광역시 남구 문현동 553-1,생활방범,1,200,360도전방면,30,2013-12,051-607-4284,35.1440311000,129.0703706000,2020-02-20
"부산광역시 남구청",부산광역시 남구 황령대로90번길 118 (문현2동),부산광역시 남구 문현동 549-12,생활방범,1,200,360도전방면,30,2013-12,051-607-4284,35.1451143000,129.0691644000,2020-02-20
"부산광역시 남구청",부산광역시 남구 수영로39번가길 42-11 (문현3동),부산광역시 남구 문현동 220-8,생활방범,1,200,360도전방면,30,2013-12,051-607-4284,35.1382356000,129.0751053000,2020-02-20
"부산광역시 남구청",부산광역시 남구 장고개로63번길 28 (문현4동),부산광역시 남구 문현동 1083,생활방범,1,200,360도전방면,30,2013-12,051-607-4284,35.1308101000,129.0689632000,2020-02-20
"부산광역시 남구청",부산광역시 남구 용소로34번길 30 (대연3동),부산광역시 남구 대연동 392-6,생활방범,1,200,360도전방면,30,2013-12,051-607-4284,35.1343205000,129.0994492000,2020-02-20
"부산광역시 남구청","부산광역시 남구 못골번영로71번길 14 (대연5동, 누비라빌)",부산광역시 남구 대연동 1495-26,생활방범,1,200,360도전방면,30,2013-12,051-607-4284,35.1415596000,129.0880561000,2020-02-20
"부산광역시 남구청",부산광역시 남구 동명로145번길 37 (용호3동),부산광역시 남구 용호동 368-16,생활방범,1,200,360도전방면,30,2013-12,051-607-4284,35.1211691000,129.1129113000,2020-02-20
"부산광역시 남구청",부산광역시 남구 동명로132번길 112 (용호4동),부산광역시 남구 용호동 485-25,생활방범,1,200,360도전방면,30,2013-12,051-607-4284,35.1148067000,129.1101097000,2020-02-20
"부산광역시 남구청",부산광역시 남구 유엔평화로143번길 25 (용당동),부산광역시 남구 용당동 573-1,생활방범,1,200,360도전방면,30,2013-12,051-607-4284,35.1247182000,129.0976569000,2020-02-20
"부산광역시 남구청",부산광역시 남구 양지골로 290-5 (감만2동),부산광역시 남구 감만동 3-438,생활방범,1,200,360도전방면,30,2013-12,051-607-4284,35.1198545000,129.0860253000,2020-02-20
"부산광역시 남구청",부산광역시 남구 유엔로38번길 40-17 (우암동),부산광역시 남구 우암동 43-48,생활방범,1,200,360도전방면,30,2013-12,051-607-4284,35.1250914000,129.0817106000,2020-02-20
"부산광역시 남구청",부산광역시 남구 수영로250번가길 26 (대연1동),부산광역시 남구 대연동 372-4,생활방범,1,200,360도전방면,30,2013-12,051-607-4284,35.1347069000,129.0965137000,2020-02-20
"부산광역시 남구청",부산광역시 남구 신정번영로31번길 30 (대연1동),부산광역시 남구 대연동 1619-103,생활방범,1,200,360도전방면,30,2013-12,051-607-4284,35.1328559000,129.0813075000,2020-02-20
"부산광역시 남구청",부산광역시 남구 우암로79번길 19 (감만1동),부산광역시 남구 감만동 88-14,생활방범,1,200,360도전방면,30,2013-12,051-607-4284,35.1178496000,129.0796907000,2020-02-20
"부산광역시 남구청",부산광역시 남구 고동골로 18번길 31(문현3동),부산광역시 남구 문현동 189-45,생활방범,1,200,360도전방면,30,2013-12,051-607-4284,35.1387880000,129.0728880000,2020-02-20
"부산광역시 남구청",부산광역시 남구 수영로 69번길 25앞 (문현3동),부산광역시 남구 문현동 261-31,생활방범,1,200,360도전방면,30,2013-12,051-607-4284,35.1361214000,129.0760563000,2020-02-20
"부산광역시 남구청",부산광역시 남구 못골번영로66번길 55 (대연5동),부산광역시 남구 대연동 281-11,생활방범,1,200,360도전방면,30,2013-12,051-607-4284,35.1411716000,129.0920233000,2020-02-20
"부산광역시 남구청",부산광역시 남구 못골로 12번길 29 (대연6동),부산광역시 남구 대연동 1766-27,생활방범,1,200,360도전방면,30,2014-12,051-607-4284,35.1354248000,129.0854475000,2020-02-20
"부산광역시 남구청",부산광역시 남구 우암로2번길 49(감만동),부산광역시 남구 감만동 598,생활방범,1,200,360도전방면,30,2014-12,051-607-4284,35.1265896000,129.0774494000,2020-02-20
"부산광역시 남구청",부산광역시 남구 진남로 178 (문현1동),부산광역시 남구 문현동 95-1,생활방범,1,200,360도전방면,30,2014-12,051-607-4284,35.1422629000,129.0784624000,2020-02-20
"부산광역시 남구청",부산광역시 남구 천제등로 40 (대연1동),부산광역시 남구 대연동 899-1,생활방범,1,200,360도전방면,30,2014-12,051-607-4284,35.1324277000,129.0891712000,2020-02-20
"부산광역시 남구청","부산광역시 남구 고동골로 28번길 7 (문현3동, 문일어린이집 인근)",부산광역시 남구 문현동 202-20,생활방범,1,200,360도전방면,30,2014-12,051-607-4284,35.1396748000,129.0716819000,2020-02-20
"부산광역시 남구청",부산광역시 남구 유엔로 201번길 78 (대연3동),부산광역시 남구 대연동 911-4,생활방범,1,200,360도전방면,30,2014-12,051-607-4284,35.1336755000,129.0983202000,2020-02-20
"부산광역시 남구청","부산광역시 남구 수영로 358번길 36 (대연3동, 삼익유치원 인근)",부산광역시 남구 대연동 33-33,생활방범,1,200,360도전방면,30,2014-12,051-607-4284,35.1378780000,129.1054323000,2020-02-20
"부산광역시 남구청","부산광역시 남구 석포로 91번길 33 (대연4동, 석포초등학교 인근)",부산광역시 남구 대연동 1130-64,생활방범,1,200,360도전방면,30,2014-12,051-607-4284,35.1273590000,129.0895952000,2020-02-20
"부산광역시 남구청",부산광역시 남구 용주로 10 (용호2동),부산광역시 남구 용호동 543-1,생활방범,1,200,360도전방면,30,2014-12,051-607-4284,35.1130027000,129.1117033000,2020-02-20
"부산광역시 남구청","부산광역시 남구 진남로 17-26 (대연5동, 대연초등학교 인근)",부산광역시 남구 대연동 1364-9,생활방범,1,200,360도전방면,30,2014-12,051-607-4284,35.1368159000,129.0905420000,2020-02-20
"부산광역시 남구청","부산광역시 남구 진남로64번길95 (대연5동, 동천고 인근)",부산광역시 남구 대연동 1494-23,생활방범,1,200,360도전방면,30,2014-12,051-607-4284,35.1425137000,129.0887141000,2020-02-20
"부산광역시 남구청",부산광역시 남구 동명로 185-2 (용호3동),부산광역시 남구 용호동 514-2,생활방범,1,200,360도전방면,30,2014-12,051-607-4284,35.1186291000,129.1172068000,2020-02-20
"부산광역시 남구청",부산광역시 남구 용호로 269번길 15 (용호2동),부산광역시 남구 용호동 561-38,생활방범,1,200,360도전방면,30,2014-12,051-607-4284,35.1086803000,129.1130223000,2020-02-20
"부산광역시 남구청",부산광역시 남구 신선로 337번길 26 (용당동),부산광역시 남구 용당동 309,생활방범,1,200,360도전방면,30,2014-12,051-607-4284,35.1163520000,129.0935120000,2020-02-20
"부산광역시 남구청",부산광역시 남구 우암로 198번길 18 맞은편 (우암동),부산광역시 남구 우암동 129-98,생활방범,1,200,360도전방면,30,2014-12,051-607-4284,35.1254676000,129.0752941000,2020-02-20
"부산광역시 남구청",부산광역시 남구 조각공원로 11번길 50 (대연4동),부산광역시 남구 대연동 568-23,생활방범,1,200,360도전방면,30,2014-12,051-607-4284,35.1295375000,129.0986882000,2020-02-20
"부산광역시 남구청",부산광역시 남구 지게골로 139-20 (문현4동),부산광역시 남구 문현동 271-21,생활방범,1,200,360도전방면,30,2014-12,051-607-4284,35.1341289000,129.0758139000,2020-02-20
"부산광역시 남구청",부산광역시 남구 용호로216번가길40 (용호4동),부산광역시 남구 용호동 556-1,생활방범,1,200,360도전방면,30,2014-12,051-607-4284,35.1112242000,129.1100425000,2020-02-20
"부산광역시 남구청",부산광역시 남구 돌산길 86 (문현1동),부산광역시 남구 문현동 산 23-3,생활방범,1,200,360도전방면,30,2014-12,051-607-4284,35.1480203000,129.0713282000,2020-02-20
"부산광역시 남구청",부산광역시 남구 전선등로 3번길 27-3 (감만2동),부산광역시 남구 감만동 44-161,생활방범,1,200,360도전방면,30,2014-12,051-607-4284,35.1233067000,129.0833130000,2020-02-20
"부산광역시 남구청",부산광역시 남구 동제당로 126 (문현4동),부산광역시 남구 문현동 산109-12,생활방범,1,200,360도전방면,30,2014-12,051-607-4284,35.1304136000,129.0756849000,2020-02-20
"부산광역시 남구청",부산광역시 남구 신선로 337번길 53 (용당동),부산광역시 남구 용당동 292,생활방범,1,200,360도전방면,30,2014-12,051-607-4284,35.1153983000,129.0928180000,2020-02-20
"부산광역시 남구청",부산광역시 남구 진남로 232번길 51 (문현1동),부산광역시 남구 문현동 72-47,생활방범,1,200,360도전방면,30,2014-12,051-607-4284,35.1464070000,129.0780079000,2020-02-20
"부산광역시 남구청",부산광역시 남구 용호로 197번길 12 (용호3동),부산광역시 남구 용호동 532-2,생활방범,1,200,360도전방면,30,2014-12,051-607-4284,35.1146426000,129.1116893000,2020-02-20
"부산광역시 남구청",부산광역시 남구 동명로105번길27 (용호1동),부산광역시 남구 용호동 416-25,생활방범,1,200,360도전방면,30,2014-12,051-607-4284,35.1213486000,129.1082753000,2020-02-20
"부산광역시 남구청",부산광역시 남구 용호동 산 118-1 (용호3동),부산광역시 남구 용호동 산 118-1 (용호동),생활방범,1,200,360도전방면,30,2014-12,051-607-4284,35.1120503000,129.1227279000,2020-02-20
"부산광역시 남구청",부산광역시 남구 황령대로 90번길 54 (문현2동),부산광역시 남구 문현동 623-99,생활방범,1,200,360도전방면,30,2014-12,051-607-4284,35.1479594000,129.0687308000,2020-02-20
"부산광역시 남구청",부산광역시 남구 유엔평화로 17번길 78 (대연1동),부산광역시 남구 대연동 1722-10,생활방범,1,200,360도전방면,30,2014-12,051-607-4284,35.1334458000,129.0964013000,2020-02-20
"부산광역시 남구청",부산광역시 남구 수영로 325번길 159-61 (대연3동),부산광역시 남구 대연동 217,생활방범,1,200,360도전방면,30,2014-12,051-607-4284,35.1456340000,129.0947551000,2020-02-20
"부산광역시 남구청",부산광역시 남구 문현로66번길104 (문현3동),부산광역시 남구 문현동 195-52,생활방범,1,200,360도전방면,30,2014-12,051-607-4284,35.1396501000,129.0734516000,2020-02-20
"부산광역시 남구청",부산광역시 남구 천제등로 12(대연1동),부산광역시 남구 대연동 1765-15,생활방범,1,200,360도전방면,30,2014-12,051-607-4284,35.1336488000,129.0868843000,2020-02-20
"부산광역시 남구청","부산광역시 남구 황령대로74번길 130-4 (문현2동, 성동초등학교 인근)",부산광역시 남구 문현동 543-13,생활방범,1,200,360도전방면,30,2014-12,051-607-4284,35.1442758000,129.0679573000,2020-02-20
"부산광역시 남구청","부산광역시 남구 동명로 145번길 85 (용호3동, 이기대공원 인근)",부산광역시 남구 용호동 366-36,생활방범,1,200,360도전방면,30,2014-12,051-607-4284,35.1234360000,129.1131177000,2020-02-20
"부산광역시 남구청",부산광역시 남구 우암로 40(감만1동),부산광역시 남구 감만동 317-2,생활방범,1,200,360도전방면,30,2014-12,051-607-4284,35.1142175000,129.0818576000,2020-02-20
"부산광역시 남구청",부산광역시 남구 석포로 26번길 65 (감만2동),부산광역시 남구 감만동 3-185,생활방범,1,200,360도전방면,30,2014-12,051-607-4284,35.1207027000,129.0860201000,2020-02-20
"부산광역시 남구청",부산광역시 남구 석포로 32번길 33 (감만2동),부산광역시 남구 감만동 29-31,생활방범,1,200,360도전방면,30,2014-12,051-607-4284,35.1214820000,129.0850595000,2020-02-20
"부산광역시 남구청",부산광역시 남구 석포로56번길 56 (감만2동),부산광역시 남구 감만동 3-9,생활방범,1,200,360도전방면,30,2014-12,051-607-4284,35.1214017000,129.0868774000,2020-02-20
"부산광역시 남구청",부산광역시 남구 양지골로 196 (감만2동),부산광역시 남구 감만동 183-3,생활방범,1,200,360도전방면,30,2014-12,051-607-4284,35.1170591000,129.0859399000,2020-02-20
"부산광역시 남구청",부산광역시 남구 양지골로 251번가길 21 (감만2동),부산광역시 남구 감만동 3-477,생활방범,1,200,360도전방면,30,2014-12,051-607-4284,35.1196188000,129.0841626000,2020-02-20
"부산광역시 남구청",부산광역시 남구 고동골로 69번길 79 (문현1동),부산광역시 남구 문현동 555-11,생활방범,1,200,360도전방면,30,2014-12,051-607-4284,35.1453184000,129.0710711000,2020-02-20
"부산광역시 남구청",부산광역시 남구 지게골로 17 (문현4동),부산광역시 남구 문현동 838,생활방범,1,200,360도전방면,30,2014-12,051-607-4284,35.1357871000,129.0690348000,2020-02-20
"부산광역시 남구청",부산광역시 남구 수영로123번길54 (대연6동),부산광역시 남구 대연동 1600-26,생활방범,1,200,360도전방면,30,2014-12,051-607-4284,35.1347360000,129.0796140000,2020-02-20
"부산광역시 남구청",부산광역시 남구 못골로41번길 45 (대연5동),부산광역시 남구 대연동 1535-12,생활방범,1,200,360도전방면,30,2014-12,051-607-4284,35.1379636000,129.0866970000,2020-02-20
"부산광역시 남구청",부산광역시 남구 수영로 196번길 19 (대연1동),부산광역시 남구 대연동 1753-23,생활방범,1,200,360도전방면,30,2014-12,051-607-4284,35.1340159000,129.0881708000,2020-02-20
"부산광역시 남구청",부산광역시 남구 용주로 67 (용호2동),부산광역시 남구 용호동 526-2,생활방범,1,200,360도전방면,30,2015-12,051-607-4284,35.1133600000,129.1150370000,2020-02-20
"부산광역시 남구청",부산광역시 남구 천제등로16번길 107-2 (대연1동),부산광역시 남구 대연동 산 166-7,생활방범,1,200,360도전방면,30,2015-12,051-607-4284,35.1326330000,129.0834650000,2020-02-20
"부산광역시 남구청",부산광역시 남구 용호로 177번길 59 (용호3동),부산광역시 남구 용호동 388-63,생활방범,1,200,360도전방면,30,2015-12,051-607-4284,35.1159660000,129.1143910000,2020-02-20
"부산광역시 남구청",부산광역시 남구 고동골로28번길35 (문현3동),부산광역시 남구 문현동 189-16,생활방범,1,200,360도전방면,30,2015-12,051-607-4284,35.1396560000,129.0735370000,2020-02-20
"부산광역시 남구청",부산광역시 남구 문현동 136-8 (문현1동),부산광역시 남구 문현동 136-8,생활방범,1,200,360도전방면,30,2015-12,051-607-4284,35.1427490000,129.0736930000,2020-02-20
"부산광역시 남구청",부산광역시 남구 고동골로 79(문현1동),부산광역시 남구 문현동 506-156,생활방범,1,200,360도전방면,30,2015-12,051-607-4284,35.1440470000,129.0713350000,2020-02-20
"부산광역시 남구청",부산광역시 남구 동명로 152번길 105(용호2동),부산광역시 남구 용호동 530-63,생활방범,1,200,360도전방면,30,2015-12,051-607-4284,35.1146820000,129.1125400000,2020-02-20
"부산광역시 남구청",부산광역시 남구 용호동 215-6(용호1동),부산광역시 남구 용호동 215-6,생활방범,1,200,360도전방면,30,2015-12,051-607-4284,35.1243330000,129.1100640000,2020-02-20
"부산광역시 남구청",부산광역시 남구 용호로110번길42(용호1동),부산광역시 남구 용호동 309-2,생활방범,1,200,360도전방면,30,2015-12,051-607-4284,35.1225510000,129.1100310000,2020-02-20
"부산광역시 남구청",부산광역시 남구 유엔평화로 76번길 42(대연4동),부산광역시 남구 대연동 965-15,생활방범,1,200,360도전방면,30,2015-12,051-607-4284,35.1268420000,129.0922550000,2020-02-20
"부산광역시 남구청",부산광역시 남구 동명로 114(용호1동),부산광역시 남구 용호동 409-5,생활방범,1,200,360도전방면,30,2015-12,051-607-4284,35.1198840000,129.1095560000,2020-02-20
"부산광역시 남구청",부산광역시 남구 장고개로 85번길 16(문현4동),부산광역시 남구 문현동 1009-18,생활방범,1,200,360도전방면,30,2015-12,051-607-4284,35.1323100000,129.0692750000,2020-02-20
"부산광역시 남구청",부산광역시 남구 장고개로 104번길 29(문현4동),부산광역시 남구 문현동 920-1,생활방범,1,200,360도전방면,30,2015-12,051-607-4284,35.1333330000,129.0699950000,2020-02-20
"부산광역시 남구청",부산광역시 남구 문현로 23번길 19(문현1동),부산광역시 남구 문현동 127-38,생활방범,1,200,360도전방면,30,2015-12,051-607-4284,35.1423340000,129.0724880000,2020-02-20
"부산광역시 남구청",부산광역시 남구 용호동 산 167-4(용호2동),부산광역시 남구 용호동 산 167-4,생활방범,1,200,360도전방면,30,2015-12,051-607-4284,35.1080660000,129.1171070000,2020-02-20
"부산광역시 남구청",부산광역시 남구 유엔로120번가길 115(우암동),부산광역시 남구 우암동 13-80,생활방범,1,200,360도전방면,30,2015-12,051-607-4284,35.1271850000,129.0845630000,2020-02-20
"부산광역시 남구청",부산광역시 남구 유엔평화로 13번길 63(대연1동),부산광역시 남구 대연동 1727-1,생활방범,1,200,360도전방면,30,2015-12,051-607-4284,35.1339840000,129.0956790000,2020-02-20
"부산광역시 남구청",부산광역시 남구 대연동 1860(대연3동),부산광역시 남구 대연동 1860,생활방범,1,200,360도전방면,30,2015-12,051-607-4284,35.1420650000,129.0995730000,2020-02-20
"부산광역시 남구청",부산광역시 남구 유엔평화로 41번길 108(대연1동),부산광역시 남구 대연동 852-1,생활방범,1,200,360도전방면,30,2015-12,051-607-4284,35.1311620000,129.0981290000,2020-02-20
"부산광역시 남구청",부산광역시 남구 용소로 64번길 11(대연1동),부산광역시 남구 대연동 561-3,생활방범,1,200,360도전방면,30,2015-12,051-607-4284,35.1316080000,129.1006360000,2020-02-20
"부산광역시 남구청",부산광역시 남구 동명로 171(용호3동),부산광역시 남구 용호동 376-22,생활방범,1,200,360도전방면,30,2015-12,051-607-4284,35.1189510000,129.1154790000,2020-02-20
"부산광역시 남구청",부산광역시 남구 홍곡로 2(감만1동),부산광역시 남구 감만동 162-6,생활방범,1,200,360도전방면,30,2015-12,051-607-4284,35.1159880000,129.0813980000,2020-02-20
"부산광역시 남구청",부산광역시 남구 우암로 2번길 39(감만1동),부산광역시 남구 감만동 225-3,생활방범,1,200,360도전방면,30,2015-12,051-607-4284,35.1123210000,129.0839950000,2020-02-20
"부산광역시 남구청",부산광역시 남구 용호로 233(용호2동),부산광역시 남구 용호동 554-1,생활방범,1,200,360도전방면,30,2015-12,051-607-4284,35.1114850000,129.1109740000,2020-02-20
"부산광역시 남구청",부산광역시 남구 장고개로 106(문현4동),부산광역시 남구 문현동 921-3,생활방범,1,200,360도전방면,30,2015-12,051-607-4284,35.1345920000,129.0694200000,2020-02-20
"부산광역시 남구청",부산광역시 남구 자유평화로 60번길 85(문현2동),부산광역시 남구 문현동 803-11,생활방범,1,200,360도전방면,30,2015-12,051-607-4284,35.1378880000,129.0669970000,2020-02-20
"부산광역시 남구청",부산광역시 남구 우암로 26번길 61(감만1동),부산광역시 남구 감만동 206-49,생활방범,1,200,360도전방면,30,2015-12,051-607-4284,35.1141800000,129.0850240000,2020-02-20
"부산광역시 남구청",부산광역시 남구 동제당로6(문현4동),부산광역시 남구 문현동 271-2,생활방범,1,200,360도전방면,30,2015-12,051-607-4284,35.1341240000,129.0769440000,2020-02-20
"부산광역시 남구청",부산광역시 남구 석포로 83번길 52(대연4동),부산광역시 남구 대연동 1067-59,생활방범,1,200,360도전방면,30,2015-12,051-607-4284,35.1275140000,129.0888240000,2020-02-20
"부산광역시 남구청",부산광역시 남구 신선로 484,부산광역시 남구 대연동 668-2,생활방범,1,200,360도전방면,30,2016-11,051-607-4284,35.1271690000,129.1019950000,2020-02-20
"부산광역시 남구청",부산광역시 남구 전포대로 42,부산광역시 남구 문현동 650-8,생활방범,1,200,360도전방면,30,2016-11,051-607-4284,35.1402040000,129.0671190000,2020-02-20
"부산광역시 남구청",부산광역시 남구 고동골로 123-1,부산광역시 남구 문현동 51-18,생활방범,1,200,360도전방면,30,2016-11,051-607-4284,35.1453030000,129.0751340000,2020-02-20
"부산광역시 남구청",부산광역시 남구 수영로325번길 114,부산광역시 남구 대연동 1859,생활방범,1,200,360도전방면,30,2016-11,051-607-4284,35.1426560000,129.0986590000,2020-02-20
"부산광역시 남구청",부산광역시 남구 유엔평화로47번길 107,부산광역시 남구 대연동 852-7,생활방범,1,200,360도전방면,30,2016-11,051-607-4284,35.1308170000,129.0980500000,2020-02-20
"부산광역시 남구청",부산광역시 남구 조각공원로 37,부산광역시 남구 대연동 564-3,생활방범,1,200,360도전방면,30,2016-11,051-607-4284,35.1300210000,129.1016380000,2020-02-20
"부산광역시 남구청",부산광역시 남구 우암로 192,부산광역시 남구 우암동 161-18,생활방범,1,200,360도전방면,30,2016-11,051-607-4284,35.1246650000,129.0760700000,2020-02-20
"부산광역시 남구청",부산광역시 남구 고동골로59번길 3,부산광역시 남구 문현동 495-76,생활방범,1,200,360도전방면,30,2016-11,051-607-4284,35.1424130000,129.0710630000,2020-02-20
"부산광역시 남구청",부산광역시 남구 장고개로85번가길 24,부산광역시 남구 문현동 1089-9,생활방범,1,200,360도전방면,30,2016-11,051-607-4284,35.1312300000,129.0688320000,2020-02-20
"부산광역시 남구청",부산광역시 남구 남동천로 78-2,부산광역시 남구 문현동 756-2,생활방범,1,200,360도전방면,30,2016-11,051-607-4284,35.1436000000,129.0636510000,2020-02-20
"부산광역시 남구청",부산광역시 남구 수영로 345,부산광역시 남구 대연동 1858,생활방범,1,200,360도전방면,30,2016-11,051-607-4284,35.1417650000,129.0998670000,2020-02-20
"부산광역시 남구청",부산광역시 남구 진남로165번길 10,부산광역시 남구 문현동 94-37,생활방범,1,200,360도전방면,30,2016-11,051-607-4284,35.1412150000,129.0789060000,2020-02-20
"부산광역시 남구청",부산광역시 남구 신선로 339,부산광역시 남구 용당동 357-6,생활방범,1,200,360도전방면,30,2016-11,051-607-4284,35.1166000000,129.0948950000,2020-02-20
"부산광역시 남구청",부산광역시 남구 전포대로48번길 27,부산광역시 남구 문현동 479-13,생활방범,1,200,360도전방면,30,2016-11,051-607-4284,35.1422490000,129.0673540000,2020-02-20
"부산광역시 남구청",부산광역시 남구 동제당로191번길 27,부산광역시 남구 대연동1627-231,생활방범,1,200,360도전방면,30,2016-11,051-607-4284,35.1274880000,129.0796730000,2020-02-20
"부산광역시 남구청",부산광역시 남구 유엔로157번길 4,부산광역시 남구 대연동 879-17,생활방범,1,200,360도전방면,30,2016-11,051-607-4284,35.1300640000,129.0934740000,2020-02-20
"부산광역시 남구청",부산광역시 남구 용주로30번길 69,부산광역시 남구 용호동 563-39,생활방범,1,200,360도전방면,30,2016-11,051-607-4284,35.1101410000,129.1133450000,2020-02-20
"부산광역시 남구청",부산광역시 남구 홍곡로 345,부산광역시 남구 대연동 1170-120,생활방범,1,200,360도전방면,30,2016-11,051-607-4284,35.1234750000,129.0890180000,2020-02-20
"부산광역시 남구청",,부산광역시 남구 대연동 1115-19,생활방범,1,200,360도전방면,30,2016-11,051-607-4284,35.1261820000,129.0934630000,2020-02-20
"부산광역시 남구청",부산광역시 남구 황령대로353번길 27,부산광역시 남구 대연동 231-31,생활방범,1,200,360도전방면,30,2016-11,051-607-4284,35.1476110000,129.0965780000,2020-02-20
"부산광역시 남구청",,부산광역시 남구 용호동 산175-9,생활방범,1,200,360도전방면,30,2016-11,051-607-4284,35.1046330000,129.1182340000,2020-02-20
"부산광역시 남구청",부산광역시 남구 진남로 188,부산광역시 남구 문현동 85-9,생활방범,1,200,360도전방면,30,2016-11,051-607-4284,35.1431430000,129.0778440000,2020-02-20
"부산광역시 남구청",부산광역시 남구 못골번영로 24-1,부산광역시 남구 대연동 1458-10,생활방범,1,200,360도전방면,30,2016-11,051-607-4284,35.1372060000,129.0890980000,2020-02-20
"부산광역시 남구청",부산광역시 남구 유엔로 40,부산광역시 남구 우암동 109-3,생활방범,1,200,360도전방면,30,2016-11,051-607-4284,35.1270440000,129.0811260000,2020-02-20
"부산광역시 남구청",부산광역시 남구 무민사로 19,부산광역시 남구 감만동 491-1,생활방범,1,200,360도전방면,30,2016-11,051-607-4284,35.1122050000,129.0808100000,2020-02-20
"부산광역시 남구청",부산광역시 남구 전포대로 94,부산광역시 남구 문현동 522-21,생활방범,1,200,360도전방면,30,2016-11,051-607-4284,35.1449130000,129.0670680000,2020-02-20
"부산광역시 남구청",,부산광역시 남구 용호동 565-3,생활방범,1,200,360도전방면,30,2016-11,051-607-4284,35.1094450000,129.1146290000,2020-02-20
"부산광역시 남구청",부산광역시 남구 유엔로183-1,부산광역시 남구 대연동 779-7,생활방범,1,200,360도전방면,30,2016-11,051-607-4284,35.1298810000,129.0965630000,2020-02-20
"부산광역시 남구청",,부산광역시 남구 대연동 1632-3,생활방범,1,200,360도전방면,30,2016-11,051-607-4284,35.1398040000,129.1047950000,2020-02-20
"부산광역시 남구청",,부산광역시 남구 대연동 1619-608,생활방범,1,200,360도전방면,30,2016-11,051-607-4284,35.1311100000,129.0825800000,2020-02-20
"부산광역시 남구청",,부산광역시 남구 문현동 산 24-1,생활방범,1,200,360도전방면,30,2016-11,051-607-4284,35.1477940000,129.0702410000,2020-02-20
"부산광역시 남구청",부산광역시 남구 동명로170번길 34,부산광역시 남구 용호동 385-44,생활방범,1,200,360도전방면,30,2016-11,051-607-4284,35.1173350000,129.1148400000,2020-02-20
"부산광역시 남구청",부산광역시 남구 유엔평화로153번길 20,부산광역시 남구 용당동 552-16,생활방범,1,200,360도전방면,30,2016-11,051-607-4284,35.1234840000,129.0985090000,2020-02-20
"부산광역시 남구청",부산광역시 남구 동명로101번길 34,부산광역시 남구 용호동 416-34,생활방범,1,200,360도전방면,30,2016-11,051-607-4284,35.1214120000,129.1078100000,2020-02-20
"부산광역시 남구청",부산광역시 남구 용호로198번길 32,부산광역시 남구 용호동 482-17,생활방범,1,200,360도전방면,30,2016-11,051-607-4284,35.1148150000,129.1088300000,2020-02-20
"부산광역시 남구청",부산광역시 남구 진남로36번길 77,부산광역시 남구 대연동 281-17,생활방범,1,200,360도전방면,30,2016-11,051-607-4284,35.1416190000,129.0913100000,2020-02-20
"부산광역시 남구청",부산광역시 남구 우암동 127-44,부산광역시 남구 우암동 127-44,생활방범,1,200,360도전방면,30,2016-11,051-607-4284,35.1282840000,129.0743860000,2020-02-20
"부산광역시 남구청",부산광역시 남구 장고개로 68-14,부산광역시 남구 문현동 1059-16,생활방범,1,200,360도전방면,30,2016-11,051-607-4284,35.1313440000,129.0708240000,2020-02-20
"부산광역시 남구청",부산광역시 남구 자유평화로59번길 2,부산광역시 남구 문현동 776-23,생활방범,1,200,360도전방면,30,2016-11,051-607-4284,35.1415380000,129.0663720000,2020-02-20
"부산광역시 남구청",부산광역시 남구 수영로346번길12,부산광역시 남구 대연동 39-28,생활방범,1,200,360도전방면,30,2016-12,051-607-4284,35.1382760000,129.1037410000,2020-02-20
"부산광역시 남구청",부산광역시 남구 못골로41번길 22-7,부산광역시 남구 대연동 1535-2,생활방범,1,200,360도전방면,30,2016-12,051-607-4284,35.1371620000,129.0875060000,2020-02-20
"부산광역시 남구청",부산광역시 남구 못골번영로71번길32,부산광역시 남구 대연동 1555-10,생활방범,1,200,360도전방면,30,2012-12,051-607-4284,35.1413520000,129.0872780000,2020-02-20
"부산광역시 남구청",,부산광역시 남구 대연동 산 165-9,생활방범,1,200,360도전방면,30,2012-12,051-607-4284,35.1312530000,129.0812900000,2020-02-20
"부산광역시 남구청",부산광역시 남구 고동골로97번길 38,부산광역시 남구 문현동 13-127,생활방범,1,200,360도전방면,30,2012-12,051-607-4284,35.1472290000,129.0730540000,2020-02-20
"부산광역시 남구청",부산광역시 남구 감만동 626-1,부산광역시 남구 감만동 626-1,생활방범,1,200,360도전방면,30,2017-08,051-607-4284,35.1090380000,129.0681500000,2020-02-20
"부산광역시 남구청",부산광역시 남구 돌산길 98,부산광역시 남구 문현동 23-1,생활방범,1,200,360도전방면,30,2017-08,051-607-4284,35.1492730000,129.0721470000,2020-02-20
"부산광역시 남구청",부산광역시 남구 진남로 43,부산광역시 남구 대연동 1513,생활방범,1,200,360도전방면,30,2017-08,051-607-4284,35.1380710000,129.0903860000,2020-02-20
"부산광역시 남구청",,부산광역시 남구 대연동 1756-27,생활방범,1,200,360도전방면,30,2017-08,051-607-4284,35.1357340000,129.0869020000,2020-02-20
"부산광역시 남구청",,부산광역시 남구 대연동 1756-27,생활방범,2,200,단일방면,30,2019-08,051-607-4284,35.1357340000,129.0869020000,2020-02-20
"부산광역시 남구청",부산광역시 남구 용호동 176-9,부산광역시 남구 용호동 176-9,생활방범,1,200,360도전방면,30,2017-11,051-607-4284,35.1300510000,129.1070150000,2020-02-20
"부산광역시 남구청",부산광역시 남구 진남로30번길 1,부산광역시 남구 대연동 287-14,생활방범,1,200,360도전방면,30,2018-04,051-607-4284,35.1378920000,129.0916370000,2020-02-20
"부산광역시 남구청",,부산광역시 남구 대연동 287-14,생활방범,4,200,단일방면,30,2018-04,051-607-4284,35.1378920000,129.0916370000,2020-02-20
"부산광역시 남구청",부산광역시 남구 동명로152번길 19,부산광역시 남구 용호동 391-11,생활방범,1,200,360도전방면,30,2018-04,051-607-4284,35.1183790000,129.1132920000,2020-02-20
"부산광역시 남구청",,부산광역시 남구 용호동 895-5,생활방범,1,200,360도전방면,30,2018-09,051-607-4284,35.1031710000,129.1125380000,2020-02-20
"부산광역시 남구청",부산광역시 남구 분포로 66-30,부산광역시 남구 용호동 5-12,생활방범,1,200,360도전방면,30,2018-09,051-607-4284,35.1310520000,129.1193220000,2020-02-20
"부산광역시 남구청",부산광역시 남구 유엔로157번길 15,부산광역시 남구 대연동 882-3,생활방범,1,200,360도전방면,30,2018-09,051-607-4284,35.1307750000,129.0933420000,2020-02-20
"부산광역시 남구청",부산광역시 남구 동명로118번길 65,부산광역시 남구 용호동 725-3,생활방범,1,200,360도전방면,30,2018-09,051-607-4284,35.1172010000,129.1094390000,2020-02-20
"부산광역시 남구청",부산광역시 남구 용호로106번길 4,부산광역시 남구 용호동 80-21,생활방범,1,200,360도전방면,30,2018-09,051-607-4284,35.1228350000,129.1121290000,2020-02-20
"부산광역시 남구청",부산광역시 남구 진남로210번길 38,부산광역시 남구 문현동 73-69,생활방범,1,200,360도전방면,30,2018-09,051-607-4284,35.1452290000,129.0782020000,2020-02-20
"부산광역시 남구청",부산광역시 남구 유엔로120번가길 13,부산광역시 남구 대연동 920-1,생활방범,1,200,360도전방면,30,2018-09,051-607-4284,35.1295460000,129.0893010000,2020-02-20
"부산광역시 남구청",부산광역시 남구 황령대로90번길 91,부산광역시 남구 문현동 565-12,생활방범,1,200,360도전방면,30,2018-09,051-607-4284,35.1462630000,129.0692940000,2020-02-20
"부산광역시 남구청",부산광역시 남구 진남로153번길 11-1,부산광역시 남구 대연동 1777-2,생활방범,1,200,360도전방면,30,2018-09,051-607-4284,35.1400430000,129.0789490000,2020-02-20
"부산광역시 남구청",부산광역시 남구 석포로26번길 54,부산광역시 남구 감만동 3-559,생활방범,1,200,360도전방면,30,2018-09,051-607-4284,35.1206380000,129.0859820000,2020-02-20
"부산광역시 남구청",부산광역시 남구 동명로145번가길 6,부산광역시 남구 용호동 392-1,생활방범,1,200,360도전방면,30,2018-09,051-607-4284,35.1200040000,129.1129570000,2020-02-20
"부산광역시 남구청",부산광역시 남구 용호로90번길 31,부산광역시 남구 용호동 128-6,생활방범,1,200,360도전방면,30,2018-09,051-607-4284,35.1238730000,129.1108700000,2020-02-20
"부산광역시 남구청",부산광역시 남구 우암로154번길 57,부산광역시 남구 우암동 25,생활방범,1,200,360도전방면,30,2018-09,051-607-4284,35.1256170000,129.0816270000,2020-02-20
"부산광역시 남구청",부산광역시 남구 황령대로319번길 110,부산광역시 남구 대연동 255-9,생활방범,1,200,360도전방면,30,2018-09,051-607-4284,35.1494700000,129.0908350000,2020-02-20
"부산광역시 남구청",부산광역시 남구 동명로176번길 66,부산광역시 남구 용호동 383-35,생활방범,1,200,360도전방면,30,2018-09,051-607-4284,35.1158910000,129.1150830000,2020-02-20
"부산광역시 남구청",,부산광역시 남구 대연동 1755-3,생활방범,1,200,360도전방면,30,2019-08,051-607-4284,35.1332350000,129.0881550000,2020-02-20
"부산광역시 남구청",,부산광역시 남구 대연동 1755-3,생활방범,2,200,단일방면,30,2019-08,051-607-4284,35.1332350000,129.0881550000,2020-02-20
"부산광역시 남구청",부산광역시 남구 천제등로 4,부산광역시 남구 대연동 1756-27,생활방범,1,200,360도전방면,30,2019-08,051-607-4284,35.1343400000,129.0868700000,2020-02-20
"부산광역시 남구청",부산광역시 남구 천제등로 4,부산광역시 남구 대연동 1756-27,생활방범,2,200,단일방면,30,2019-08,051-607-4284,35.1343400000,129.0868700000,2020-02-20
"부산광역시 남구청",부산광역시 남구 동명로118번가길 31-15,부산광역시 남구 용호동 917-2,생활방범,1,200,360도전방면,30,2019-08,051-607-4284,35.1186790000,129.1106890000,2020-02-20
"부산광역시 남구청",부산광역시 남구 동명로101번길 57-9,부산광역시 남구 용호동 산 55-3,생활방범,1,200,360도전방면,30,2019-08,051-607-4284,35.1226820000,129.1071070000,2020-02-20
"부산광역시 남구청",부산광역시 남구 동명로169번길 14-1,부산광역시 남구 용호동 907-3,생활방범,1,200,360도전방면,30,2019-08,051-607-4284,35.1195580000,129.1157840000,2020-02-20
"부산광역시 남구청",부산광역시 남구 용소로13번길 108,,쓰레기단속,1,200,360도전방면,,2005-12,051-607-4524,35.1390800000,129.1060260000,2020-02-20
"부산광역시 남구청",부산광역시 남구 진남로 107,,쓰레기단속,1,200,360도전방면,,2005-12,051-607-4524,35.1382530000,129.0832630000,2020-02-20
"부산광역시 남구청",부산광역시 남구 석포로26번길 62-2,,쓰레기단속,1,200,360도전방면,,2005-12,051-607-4524,35.1206180000,129.0859480000,2020-02-20
"부산광역시 남구청",부산광역시 남구 수영로49번길 18-5,,쓰레기단속,1,200,360도전방면,,2005-12,051-607-4524,35.1373110000,129.0738670000,2020-02-20
"부산광역시 남구청",부산광역시 남구 우암로 230,,쓰레기단속,1,200,360도전방면,,2005-12,051-607-4524,35.1276800000,129.0769210000,2020-02-20
"부산광역시 남구청",부산광역시 남구 솔밭로18번길 6,,쓰레기단속,1,200,360도전방면,,2006-11,051-607-4524,35.1297690000,129.0720010000,2020-02-20
"부산광역시 남구청",부산광역시 남구 문현금융로 5-2,,쓰레기단속,1,200,360도전방면,,2006-11,051-607-4524,35.1433160000,129.0649880000,2020-02-20
"부산광역시 남구청",부산광역시 남구 우암양달로16번길 27,,쓰레기단속,1,200,360도전방면,,2006-11,051-607-4524,35.1251854000,129.0731480000,2020-02-20
"부산광역시 남구청",부산광역시 남구 동항로 108,,쓰레기단속,1,200,360도전방면,,2006-11,051-607-4524,35.1266120000,129.0723180000,2020-02-20
"부산광역시 남구청",부산광역시 남구 동명로145번길 32,,쓰레기단속,1,200,360도전방면,,2007-07,051-607-4524,35.1211050000,129.1130000000,2020-02-20
"부산광역시 남구청",부산광역시 남구 수영로266번길 103,,쓰레기단속,1,200,360도전방면,,2007-07,051-607-4524,35.1328230000,129.0998310000,2020-02-20
"부산광역시 남구청",부산광역시 남구 신선로329번길 88-23,,쓰레기단속,1,200,360도전방면,,2007-07,051-607-4524,35.1129440000,129.0934290000,2020-02-20
"부산광역시 남구청",부산광역시 남구 용호로42번길 103,,쓰레기단속,1,200,360도전방면,,2010-06,051-607-4524,35.1222710000,129.1096050000,2020-02-20
"부산광역시 남구청",부산광역시 남구 양지골로169번가길 22-2,,쓰레기단속,1,200,360도전방면,,2010-06,051-607-4524,35.1153890000,129.0835880000,2020-02-20
"부산광역시 남구청",부산광역시 남구 우암번영로 36,,쓰레기단속,1,200,360도전방면,,2010-06,051-607-4524,35.1278530000,129.0711500000,2020-02-20
"부산광역시 남구청",부산광역시 남구 전포대로77번길 39,,쓰레기단속,1,200,360도전방면,,2010-06,051-607-4524,35.1437730000,129.0649500000,2020-02-20
"부산광역시 남구청",부산광역시 남구 유엔평화로17번길 51,,쓰레기단속,1,200,360도전방면,,2010-06,051-607-4524,35.1335240000,129.0962590000,2020-02-20
"부산광역시 남구청",부산광역시 남구 용소로 5,,쓰레기단속,1,200,360도전방면,,2010-06,051-607-4524,35.1367610000,129.1005740000,2020-02-20
"부산광역시 남구청",부산광역시 남구 양지골로113번길 10,,쓰레기단속,1,200,360도전방면,,2011-04,051-607-4524,35.1143990000,129.0868030000,2020-02-20
"부산광역시 남구청",부산광역시 남구 고동골로69번길 8,,쓰레기단속,1,200,360도전방면,,2011-04,051-607-4524,35.1429620000,129.0703670000,2020-02-20
"부산광역시 남구청",부산광역시 남구 지게골로 60-2,,쓰레기단속,1,200,360도전방면,,2011-04,051-607-4524,35.1357360000,129.0711120000,2020-02-20
"부산광역시 남구청",부산광역시 남구 신선로329번길 34-10,,쓰레기단속,1,200,360도전방면,,2012-03,051-607-4524,35.1154250000,129.0927440000,2020-02-20
"부산광역시 남구청",부산광역시 남구 남동천로72-1,,쓰레기단속,1,200,360도전방면,,2012-03,051-607-4524,35.1429930000,129.0638110000,2020-02-20
"부산광역시 남구청",부산광역시 남구 무민사로33번길 11,,쓰레기단속,1,200,360도전방면,,2012-03,051-607-4524,35.1130330000,129.0808480000,2020-02-20
"부산광역시 남구청",부산광역시 남구 우암로 76-1,,쓰레기단속,1,200,360도전방면,,2012-03,051-607-4524,35.1172770000,129.0811460000,2020-02-20
"부산광역시 남구청",부산광역시 남구 양지골로113번길 65,,쓰레기단속,1,200,360도전방면,,2012-03,051-607-4524,35.1153060000,129.0855230000,2020-02-20
"부산광역시 남구청",부산광역시 남구 용소로14번길 18,,쓰레기단속,1,200,360도전방면,,2012-03,051-607-4524,35.1358060000,129.0998720000,2020-02-20
"부산광역시 남구청",부산광역시 남구 유엔로25번길,,쓰레기단속,1,200,360도전방면,,2012-03,051-607-4524,35.1283410000,129.0775720000,2020-02-20
"부산광역시 남구청",부산광역시 남구 동항로75번길 1,,쓰레기단속,1,200,360도전방면,,2012-03,051-607-4524,35.1278500000,129.0711660000,2020-02-20
"부산광역시 남구청",부산광역시 남구 우암양달로 15,,쓰레기단속,1,200,360도전방면,,2012-03,051-607-4524,35.1255250000,129.0701600000,2020-02-20
"부산광역시 남구청",부산광역시 남구 장고개로 92,,쓰레기단속,1,200,360도전방면,,2012-03,051-607-4524,35.1287100000,129.0713740000,2020-02-20
"부산광역시 남구청",부산광역시 남구 홍곡로 46,,쓰레기단속,1,200,360도전방면,,2012-05,051-607-4524,35.1164270000,129.0838220000,2020-02-20
"부산광역시 남구청",부산광역시 남구 우암로104번길 29,,쓰레기단속,1,200,360도전방면,,2012-05,051-607-4524,35.1189550000,129.0827790000,2020-02-20
"부산광역시 남구청",부산광역시 남구 수영로250번길 6,,쓰레기단속,1,200,360도전방면,,2012-11,051-607-4524,35.1350730000,129.0939420000,2020-02-20
"부산광역시 남구청",부산광역시 남구 유엔평화로4번길 45,,쓰레기단속,1,200,360도전방면,,2012-11,051-607-4524,35.1328800000,129.0816370000,2020-02-20
"부산광역시 남구청",부산광역시 남구 양지골로 338,,쓰레기단속,1,200,360도전방면,,2012-11,051-607-4524,35.1216650000,129.0861590000,2020-02-20
"부산광역시 남구청",부산광역시 남구 석포로91번길 40,,쓰레기단속,1,200,360도전방면,,2012-11,051-607-4524,35.1276170000,129.0899030000,2020-02-20
"부산광역시 남구청",부산광역시 남구 수영로77번길 5-1,,쓰레기단속,1,200,360도전방면,,2012-11,051-607-4524,35.1352840000,129.0757960000,2020-02-20
"부산광역시 남구청",부산광역시 남구 고동골로69번길 19-1,,쓰레기단속,1,200,360도전방면,,2012-11,051-607-4524,35.1429750000,129.0704330000,2020-02-20
"부산광역시 남구청",부산광역시 남구 동명로101번가길 16,,쓰레기단속,1,200,360도전방면,,2012-11,051-607-4524,35.1213700000,129.1087220000,2020-02-20
"부산광역시 남구청",부산광역시 남구 동명로145번다길 29,,쓰레기단속,1,200,360도전방면,,2012-11,051-607-4524,35.1212220000,129.1136530000,2020-02-20
"부산광역시 남구청",부산광역시 남구 동명로132번길 130,,쓰레기단속,1,200,360도전방면,,2012-11,051-607-4524,35.1140090000,129.1102050000,2020-02-20
"부산광역시 남구청",부산광역시 남구 지게골로 24,,쓰레기단속,1,200,360도전방면,,2012-11,051-607-4524,35.1356990000,129.0692440000,2020-02-20
"부산광역시 남구청",부산광역시 남구 수영로49번나길 20,,쓰레기단속,1,200,360도전방면,,2013-01,051-607-4524,35.1365720000,129.0755530000,2020-02-20
"부산광역시 남구청",부산광역시 남구 유엔로96번길 26-28 (대연동),,쓰레기단속,1,200,360도전방면,,2013-01,051-607-4524,35.1279210000,129.0866940000,2020-02-20
"부산광역시 남구청",부산광역시 남구 동명로117번길 36,,쓰레기단속,1,200,360도전방면,,2013-01,051-607-4524,35.1216390000,129.1104170000,2020-02-20
"부산광역시 남구청",부산광역시 남구 용소로34번길 49,,쓰레기단속,1,200,360도전방면,,2013-03,051-607-4524,35.1344340000,129.0985020000,2020-02-20
"부산광역시 남구청",부산광역시 남구 동명로164번길 76,,쓰레기단속,1,200,360도전방면,,2013-03,051-607-4524,35.1156820000,129.1137980000,2020-02-20
"부산광역시 남구청",부산광역시 남구 장고개로67번길 24,,쓰레기단속,1,200,360도전방면,,2013-03,051-607-4524,35.1319210000,129.0697700000,2020-02-20
"부산광역시 남구청",부산광역시 남구 진남로 17,,쓰레기단속,1,200,360도전방면,,2013-10,051-607-4524,35.1366920000,129.0915380000,2020-02-20
"부산광역시 남구청",부산광역시 남구 고동골로78번길 45-4,,쓰레기단속,1,200,360도전방면,,2013-10,051-607-4524,35.1439050000,129.0739850000,2020-02-20
"부산광역시 남구청",부산광역시 남구 동항로 27,,쓰레기단속,1,200,360도전방면,,2013-01,051-607-4524,35.1272820000,129.0687760000,2020-02-20
"부산광역시 남구청",부산광역시 남구 유엔평화로29번길 139,,쓰레기단속,1,200,360도전방면,,2014-05,051-607-4524,35.1322060000,129.0998870000,2020-02-20
"부산광역시 남구청",부산광역시 남구 용호동 용호로159번길 109,,쓰레기단속,1,200,360도전방면,,2014-05,051-607-4524,35.1178510000,129.1164270000,2020-02-20
"부산광역시 남구청",부산광역시 남구 감만동 양지골로206번길 3-1,,쓰레기단속,1,200,360도전방면,,2014-05,051-607-4524,35.1174900000,129.0855210000,2020-02-20
"부산광역시 남구청",부산광역시 남구 수영로69번가길 2,,쓰레기단속,1,200,360도전방면,,2014-05,051-607-4524,35.1356990000,129.0757780000,2020-02-20
"부산광역시 남구청",부산광역시 남구 수영로 346번길 23,,쓰레기단속,1,200,360도전방면,,2015-09,051-607-4524,35.1334980000,129.0993110000,2020-02-20
"부산광역시 남구청",부산광역시 남구 석포로 83,,쓰레기단속,1,200,360도전방면,,2015-09,051-607-4524,35.1254430000,129.0888520000,2020-02-20
"부산광역시 남구청",부산광역시 남구 동명로118번길 46-4,,쓰레기단속,1,200,360도전방면,,2015-09,051-607-4524,35.1180920000,129.1093060000,2020-02-20
"부산광역시 남구청",부산광역시 남구 동명로 170번길 117,,쓰레기단속,1,200,360도전방면,,2015-09,051-607-4524,35.1140090000,129.1147830000,2020-02-20
"부산광역시 남구청",부산광역시 남구 동명로158번길 68,,쓰레기단속,1,200,360도전방면,,2015-09,051-607-4524,35.1161080000,129.1131200000,2020-02-20
"부산광역시 남구청",부산광역시 남구 유엔평화로 164-1,,쓰레기단속,1,200,360도전방면,,2015-09,051-607-4524,35.1220450000,129.0982110000,2020-02-20
"부산광역시 남구청",부산광역시 남구 무민사로 43,,쓰레기단속,1,200,360도전방면,,2015-09,051-607-4524,35.1138840000,129.0814610000,2020-02-20
"부산광역시 남구청",부산광역시 남구 양지골로251번길 50,,쓰레기단속,1,200,360도전방면,,2015-09,051-607-4524,35.1203400000,129.0839690000,2020-02-20
"부산광역시 남구청",부산광역시 남구 고동골로97번길 3,,쓰레기단속,1,200,360도전방면,,2015-09,051-607-4524,35.1456930000,129.0722670000,2020-02-20
"부산광역시 남구청",부산광역시 남구 진남로232번길 32,,쓰레기단속,1,200,360도전방면,,2015-09,051-607-4524,35.1460390000,129.0772780000,2020-02-20
"부산광역시 남구청",부산광역시 남구 석포로91번길 73-4,,쓰레기단속,1,200,360도전방면,,2015-12,051-607-4524,35.1289510000,129.0906020000,2020-02-20
"부산광역시 남구청",부산광역시 남구 용호로106번길 48,,쓰레기단속,1,200,360도전방면,,2015-12,051-607-4524,35.1241740000,129.1099850000,2020-02-20
"부산광역시 남구청",부산광역시 남구 양지골로113번길 27-1,,쓰레기단속,1,200,360도전방면,,2015-12,051-607-4524,35.1139620000,129.0860580000,2020-02-20
"부산광역시 남구청",부산광역시 남구 수영로266번길 46,,쓰레기단속,1,200,360도전방면,,2015-12,051-607-4524,35.1346870000,129.0975390000,2020-02-20
"부산광역시 남구청",부산광역시 남구 우암로256번길 19-1,,쓰레기단속,1,200,360도전방면,,2015-12,051-607-4524,35.1262460000,129.0694130000,2020-02-20
"부산광역시 남구청",부산광역시 남구 고동골로97번길 10,,쓰레기단속,1,200,360도전방면,,2015-12,051-607-4524,35.1459990000,129.0724280000,2020-02-20
"부산광역시 남구청",부산광역시 남구 전포대로92번길 21,,쓰레기단속,1,200,360도전방면,,2015-12,051-607-4524,35.1449880000,129.0681390000,2020-02-20
"부산광역시 남구청",부산광역시 남구 수영로 334번길 21,,쓰레기단속,1,200,360도전방면,,2016-06,051-607-4524,35.1354740000,129.1016260000,2020-02-20
"부산광역시 남구청",부산광역시 남구 동명로105번길 94,,쓰레기단속,1,200,360도전방면,,2016-06,051-607-4524,35.1242650000,129.1083500000,2020-02-20
"부산광역시 남구청",부산광역시 남구 동명로131번길 41,,쓰레기단속,1,200,360도전방면,,2016-06,051-607-4524,35.1218090000,129.1114910000,2020-02-20
"부산광역시 남구청",부산광역시 남구 용호로231번길 81,,쓰레기단속,1,200,360도전방면,,2016-06,051-607-4524,35.1120810000,129.1156730000,2020-02-20
"부산광역시 남구청",부산광역시 남구 신선로329번길 88-35,,쓰레기단속,1,200,360도전방면,,2016-06,051-607-4524,35.1130610000,129.0928820000,2020-02-20
"부산광역시 남구청",부산광역시 남구 고동골로97번길 10,,쓰레기단속,1,200,360도전방면,,2016-06,051-607-4524,35.1460030000,129.0724310000,2020-02-20
"부산광역시 남구청",부산광역시 남구 진남로210번길 58-15,,쓰레기단속,1,200,360도전방면,,2016-06,051-607-4524,35.1456490000,129.0798730000,2020-02-20
"부산광역시 남구청",부산광역시 남구 문현로36번길 43,,쓰레기단속,1,200,360도전방면,,2016-06,051-607-4524,35.1427740000,129.0753940000,2020-02-20
"부산광역시 남구청",부산광역시 남구 수영로69번길 63,,쓰레기단속,1,200,360도전방면,,2016-06,051-607-4524,35.1365570000,129.0771770000,2020-02-20
"부산광역시 남구청",부산광역시 남구 수영로346번길 36,,쓰레기단속,1,200,360도전방면,,2016-11,051-607-4524,35.1373070000,129.1044370000,2020-02-20
"부산광역시 남구청",부산광역시 남구 용호로42번길 43,,쓰레기단속,1,200,360도전방면,,2016-11,051-607-4524,35.1248880000,129.1098240000,2020-02-20
"부산광역시 남구청",부산광역시 남구 신선로303번길 36,,쓰레기단속,1,200,360도전방면,,2017-11,051-607-4524,35.1137770000,129.0941930000,2020-02-20
"부산광역시 남구청",부산광역시 남구 용호로197번길 54-1,,쓰레기단속,1,200,360도전방면,,2017-11,051-607-4524,35.1147350000,129.1144550000,2020-02-20
"부산광역시 남구청",부산광역시 남구 용호로197번길 59,,쓰레기단속,1,200,360도전방면,,2017-11,051-607-4524,35.1147350000,129.1144550000,2020-02-20
"부산광역시 남구청",부산광역시 남구 전포대로77번길 19,,쓰레기단속,1,200,360도전방면,,2017-11,051-607-4524,35.1436210000,129.0656010000,2020-02-20
"부산광역시 남구청",부산광역시 남구 남구 천제등로 18,,쓰레기단속,1,200,360도전방면,,2018-12,051-607-4524,35.1333670000,129.0870170000,2020-02-20
"부산광역시 남구청",부산광역시 남구 석포로 99-2,,쓰레기단속,1,200,360도전방면,,2018-12,051-607-4524,35.1291730000,129.0858740000,2020-02-20
"부산광역시 남구청",부산광역시 남구 동명로158번길 134,,쓰레기단속,1,200,360도전방면,,2018-12,051-607-4524,35.1133690000,129.1130430000,2020-02-20
"부산광역시 남구청",부산광역시 남구 동명로158번길 12,,쓰레기단속,1,200,360도전방면,,2018-12,051-607-4524,35.1189560000,129.1137680000,2020-02-20
"부산광역시 남구청",부산광역시 남구 고동골로 86-1,,쓰레기단속,1,200,360도전방면,,2018-12,051-607-4524,35.1445140000,129.0717590000,2020-02-20
"부산광역시 남구청",부산광역시 남구 용소로 22-1,부산광역시 남구 대연3동 61-11,교통단속,2,41,단일방면,,2004-12,051-607-4462,35.1353800000,129.1008000000,2020-02-20
"부산광역시 남구청",부산광역시 남구 용소로 22-1(대연동),부산광역시 남구 대연3동 61-11,교통단속,1,200,360도전방면,,2004-12,051-607-4462,35.1353800000,129.1008000000,2020-02-20
"부산광역시 남구청",부산광역시 남구 용소로 11(대연동),부산광역시 남구 대연3동 56-7,교통단속,1,41,360도전방면,,2004-12,051-607-4462,35.1363200000,129.1007000000,2020-02-20
"부산광역시 남구청",부산광역시 남구 용호로178번길 3(용호동),부산광역시 남구 용호4동 486-3,교통단속,2,41,단일방면,,2005-10,051-607-4462,35.1162000000,129.1110000000,2020-02-20
"부산광역시 남구청",부산광역시 남구 용호로178번길 3(용호동),부산광역시 남구 용호4동 486-3,교통단속,1,200,360도전방면,,2005-10,051-607-4462,35.1162000000,129.1110000000,2020-02-20
"부산광역시 남구청",부산광역시 남구 황령대로492번길 8(대연동),부산광역시 남구 대연3동 16-2,교통단속,1,41,360도전방면,,2005-10,051-607-4462,35.1381400000,129.1075000000,2020-02-20
"부산광역시 남구청",부산광역시 남구 용소로 40(대연동),부산광역시 남구 대연3동 496-1,교통단속,1,41,360도전방면,,2006-12,051-607-4462,35.1337600000,129.1010000000,2020-02-20
"부산광역시 남구청",부산광역시 남구 석포로 125(대연동),부산광역시 남구 대연4동 1121-3,교통단속,1,41,360도전방면,,2006-12,051-607-4462,35.1284900000,129.0913000000,2020-02-20
"부산광역시 남구청",부산광역시 남구 분포로 111(용호동),부산광역시 남구 용호1동 176-30,교통단속,2,41,단일방면,,2006-12,051-607-4462,35.1279800000,129.1077000000,2020-02-20
"부산광역시 남구청",부산광역시 남구 용호로178번길 3(용호동),부산광역시 남구 용호4동 486-3,교통단속,1,200,360도전방면,,2006-12,051-607-4462,35.1279800000,129.1077000000,2020-02-20
"부산광역시 남구청",부산광역시 남구 수영로 305(대연동),부산광역시 남구 대연3동 73-15,교통단속,3,41,단일방면,,2008-12,051-607-4462,35.1373200000,129.0998000000,2020-02-20
"부산광역시 남구청",부산광역시 남구 수영로 305(대연동),부산광역시 남구 대연3동 73-15,교통단속,1,200,360도전방면,,2008-12,051-607-4462,35.1373200000,129.0998000000,2020-02-20
"부산광역시 남구청",부산광역시 남구 우암로 65(감만동),부산광역시 남구 감만1동 138-8,교통단속,1,41,360도전방면,,2009-05,051-607-4462,35.1163200000,129.0812000000,2020-02-20
"부산광역시 남구청",부산광역시 남구 유엔평화로 11(대연동),부산광역시 남구 대연1동 1738-5,교통단속,1,41,360도전방면,,2009-12,051-607-4462,35.1339600000,129.0920000000,2020-02-20
"부산광역시 남구청",부산광역시 남구 수영로 27(문현동),부산광역시 남구 문현3동 361-32,교통단속,1,41,360도전방면,,2009-12,051-607-4462,35.1370800000,129.0710000000,2020-02-20
"부산광역시 남구청",부산광역시 남구 석포로 52-2(감만동),부산광역시 남구 감만2동 38-15,교통단속,2,41,단일방면,,2010-06,051-607-4462,35.1233400000,129.0867000000,2020-02-20
"부산광역시 남구청",부산광역시 남구 석포로 52-2(감만동),부산광역시 남구 감만2동 38-15,교통단속,1,130,360도전방면,,2010-06,051-607-4462,35.1233400000,129.0867000000,2020-02-20
"부산광역시 남구청",부산광역시 남구 진남로 197-1(문현동),부산광역시 남구 문현1동 97-9,교통단속,3,210,단일방면,,2010-06,051-607-4462,35.1437600000,129.0772000000,2020-02-20
"부산광역시 남구청",부산광역시 남구 진남로 197-1(문현동),부산광역시 남구 문현1동 97-9,교통단속,1,210,360도전방면,,2010-06,051-607-4462,35.1437600000,129.0772000000,2020-02-20
"부산광역시 남구청",부산광역시 남구 용호로 144(용호동),부산광역시 남구 용호1동 395-68,교통단속,3,41,단일방면,,2011-06,051-607-4462,35.1196200000,129.1120000000,2020-02-20
"부산광역시 남구청",부산광역시 남구 용호로 144(용호동),부산광역시 남구 용호1동 395-68,교통단속,1,130,360도전방면,,2011-06,051-607-4462,35.1196200000,129.1120000000,2020-02-20
"부산광역시 남구청",유엔로 235,대연3동 574-2 부근 교통섬,교통단속,3,41,단일방면,,2012-06,051-607-4462,35.1300800000,129.1015000000,2020-02-20
"부산광역시 남구청",유엔로 235,대연3동 574-2 부근 교통섬,교통단속,1,130,360도전방면,,2012-06,051-607-4462,35.1300800000,129.1015000000,2020-02-20
"부산광역시 남구청",수영로 219(대연동),대연5동 1745-11,교통단속,2,41,단일방면,,2013-06,051-607-4462,35.1351300000,129.0906000000,2020-02-20
"부산광역시 남구청",수영로 219(대연동),대연5동 1745-11,교통단속,1,200,360도전방면,,2013-06,051-607-4462,35.1351300000,129.0906000000,2020-02-20
"부산광역시 남구청",용호로 48(용호동),용호1동 198-6,교통단속,3,41,단일방면,,2013-06,051-607-4462,35.1267600000,129.1089000000,2020-02-20
"부산광역시 남구청",용호로 48(용호동),용호1동 198-6,교통단속,1,200,360도전방면,,2013-06,051-607-4462,35.1267600000,129.1089000000,2020-02-20
"부산광역시 남구청",용호로232번길 4(용호동),용호4동 541-27,교통단속,4,130,단일방면,,2016-12,051-607-4462,35.1115900000,129.1110000000,2020-02-20
"부산광역시 남구청",용호로232번길 4(용호동),용호4동 541-27,교통단속,1,210,360도전방면,,2016-12,051-607-4462,35.1115900000,129.1110000000,2020-02-20
"부산광역시 남구청",신선로 468(대연동),대연3동 699-1,교통단속,3,310,단일방면,,2016-12,051-607-4462,35.1271400000,129.1018000000,2020-02-20
"부산광역시 남구청",신선로 468(대연동),대연3동 699-1,교통단속,1,210,360도전방면,,2016-12,051-607-4462,35.1271400000,129.1018000000,2020-02-20
"부산광역시 남구청",신선로 458(대연동),대연3동 704-2,교통단속,1,210,360도전방면,,2017-01,051-607-4462,35.1257100000,129.1007000000,2020-02-20
"부산광역시 남구청",신선로 173,감만1동 254-54 부근교통섬,교통단속,4,130,단일방면,,2016-12,051-607-4462,35.1106100000,129.0834000000,2020-02-20
"부산광역시 남구청",신선로 173,감만1동 254-54 부근교통섬,교통단속,1,210,360도전방면,,2016-12,051-607-4462,35.1106100000,129.0834000000,2020-02-20
"부산광역시 남구청",신선로 173 부근(감만동),감만1동 254-11 부근,교통단속,1,210,360도전방면,,2017-01,051-607-4462,35.1103900000,129.0865000000,2020-02-20
"부산광역시 남구청",신선로 132부근(감만동),감만1동 521-1부근,교통단속,3,130,단일방면,,2016-12,051-607-4462,35.1105200000,129.0787000000,2020-02-20
"부산광역시 남구청",신선로 132부근(감만동),감만1동 521-1부근,교통단속,1,210,360도전방면,,2016-12,051-607-4462,35.1105200000,129.0787000000,2020-02-20
"부산광역시 남구청",수영로 324(대연동),대연3동 54-5,교통단속,4,130,단일방면,,2016-12,051-607-4462,35.1372300000,129.1015000000,2020-02-20
"부산광역시 남구청",수영로 324(대연동),대연3동 54-5,교통단속,1,210,360도전방면,,2016-12,051-607-4462,35.1372300000,129.1015000000,2020-02-20
"부산광역시 남구청",오륙도로 85 부근(용호동),용호2동 944 일원,교통단속,4,210,단일방면,,2017-09,051-607-4462,35.1013100000,129.1211000000,2020-02-20
"부산광역시 남구청",오륙도로 85 부근(용호동),용호2동 944 일원,교통단속,1,210,360도전방면,,2017-09,051-607-4462,35.1013100000,129.1211000000,2020-02-20
"부산광역시 남구청",오륙도로 85 부근(용호동),용호2동 944일원 인도,교통단속,1,210,360도전방면,,2017-09,051-607-4462,35.1012800000,129.1209000000,2020-02-20
"부산광역시 남구청",북항로 108 부근(감만동),감만1동 254-70,교통단속,3,210,단일방면,,2017-12,051-607-4462,35.1087000000,129.0817000000,2020-02-20
"부산광역시 남구청",북항로 108 부근(감만동),감만1동 254-70,교통단속,1,210,360도전방면,,2017-12,051-607-4462,35.1087000000,129.0817000000,2020-02-20
"부산광역시 남구청",북항로 71 부근(감만동),감만1동 624,교통단속,3,210,단일방면,,2017-12,051-607-4462,35.1076300000,129.0815000000,2020-02-20
"부산광역시 남구청",북항로 71 부근(감만동),감만1동 624,교통단속,1,210,360도전방면,,2017-12,051-607-4462,35.1076300000,129.0815000000,2020-02-20
"부산광역시 남구청",수영로298번길 18(대연동),대연3동 67-1,교통단속,4,210,단일방면,,2017-12,051-607-4462,35.1361300000,129.0992000000,2020-02-20
"부산광역시 남구청",수영로298번길 18(대연동),대연3동 67-1,교통단속,1,210,360도전방면,,2017-12,051-607-4462,35.1361300000,129.0992000000,2020-02-20
"부산광역시 남구청",용소로 12(대연동),대연3동 68-25,교통단속,4,210,단일방면,,2017-12,051-607-4462,35.1361800000,129.1006000000,2020-02-20
"부산광역시 남구청",용소로 12(대연동),대연3동 68-25,교통단속,1,210,360도전방면,,2017-12,051-607-4462,35.1361800000,129.1006000000,2020-02-20
"부산광역시 남구청",용소로 8(대연동),대연3동 68-1,교통단속,1,210,360도전방면,,2017-12,051-607-4462,35.1365600000,129.1004000000,2020-02-20
"부산광역시 남구청",용소로19번길 26,대연3동 60-4,교통단속,4,210,단일방면,,2017-12,051-607-4462,35.1362200000,129.1022000000,2020-02-20
"부산광역시 남구청",용소로19번길 26,대연3동 60-4,교통단속,1,210,360도전방면,,2017-12,051-607-4462,35.1362200000,129.1022000000,2020-02-20
"부산광역시 남구청",분포로 101(용호동),용호1동 966,교통단속,3,210,단일방면,,2017-12,051-607-4462,35.1333100000,129.1148000000,2020-02-20
"부산광역시 남구청",분포로 101(용호동),용호1동 966,교통단속,1,210,360도전방면,,2017-12,051-607-4462,35.1333100000,129.1148000000,2020-02-20
"부산광역시 남구청",분포로 111(용호동),용호1동 176-30,교통단속,4,210,단일방면,,2017-12,051-607-4462,35.1314800000,129.1132000000,2020-02-20
"부산광역시 남구청",분포로 111(용호동),용호1동 176-30,교통단속,1,210,360도전방면,,2017-12,051-607-4462,35.1314800000,129.1132000000,2020-02-20
"부산광역시 남구청",유엔평화로 6(대연동),대연1동 1747-1,교통단속,3,210,단일방면,,2018-05,051-607-4462,35.1345000000,129.0919000000,2020-02-20
"부산광역시 남구청",유엔평화로 6(대연동),대연1동 1747-1,교통단속,1,210,360도전방면,,2018-05,051-607-4462,35.1345000000,129.0919000000,2020-02-20
"부산광역시 남구청",동명로112번길 1(용호동),용호1동 409-1,교통단속,4,210,단일방면,,2018-05,051-607-4462,35.1203000000,129.1092000000,2020-02-20
"부산광역시 남구청",동명로112번길 1(용호동),용호1동 409-1,교통단속,1,210,360도전방면,,2018-05,051-607-4462,35.1203000000,129.1092000000,2020-02-20
"부산광역시 남구청",유엔로 235부근 교통섬(대연동),대연3동 574-2부근 교통섬,교통단속,1,210,360도전방면,,2018-05,051-607-4462,35.1301200000,129.1016000000,2020-02-20
"부산광역시 남구청",,대연4동 1161-7,교통단속,3,210,단일방면,,2018-09,051-607-4462,35.1248300000,129.0887000000,2020-02-20
"부산광역시 남구청",,대연4동 1161-7,교통단속,1,210,360도전방면,,2018-09,051-607-4462,35.1248300000,129.0887000000,2020-02-20
"부산광역시 남구청",,대연6동 1268-4,교통단속,4,210,단일방면,,2018-11,051-607-4462,35.1355400000,129.0839000000,2020-02-20
"부산광역시 남구청",,대연6동 1268-4,교통단속,1,210,360도전방면,,2018-11,051-607-4462,35.1355400000,129.0839000000,2020-02-20
"부산광역시 남구청",,문현동 699-7,교통단속,2,210,단일방면,,2018-11,051-607-4462,35.1485900000,129.0660000000,2020-02-20
"부산광역시 남구청",,문현동 699-7,교통단속,1,210,360도전방면,,2018-11,051-607-4462,35.1485900000,129.0660000000,2020-02-20
"부산광역시 남구청",고동골로29(문현동),문현3동 426-1,교통단속,4,210,단일방면,,2019-07,051-607-4462,35.1395800000,129.0711000000,2020-02-20
"부산광역시 남구청",고동골로29(문현동),문현3동 426-1,교통단속,1,210,360도전방면,,2019-07,051-607-4462,35.1395800000,129.0711000000,2020-02-20
"부산광역시 남구청",수영로 324(대연동),대연동 54-5,교통단속,3,210,단일방면,,2019-10,051-607-4462,35.1379100000,129.1015000000,2020-02-20
"부산광역시 남구청",수영로 324(대연동),대연동 54-5,교통단속,1,210,360도전방면,,2019-10,051-607-4462,35.1379100000,129.1015000000,2020-02-20
"부산광역시 남구청",석포로 102(대연동),대연4동 968-21,교통단속,3,210,단일방면,,2019-10,051-607-4462,35.1266200000,129.0900000000,2020-02-20
"부산광역시 남구청",석포로 102(대연동),대연4동 968-21,교통단속,1,210,360도전방면,,2019-10,051-607-4462,35.1266200000,129.0900000000,2020-02-20
"부산광역시 남구청",용소로21번길 27,대연동 60-55,다목적,2,41,360도전방면,,2010-01,051-607-4462,35.1355900000,129.1023700000,2020-02-20
"부산광역시 남구청",용소로21번길 19,대연동 60-37,다목적,1,200,360도전방면,,2010-01,051-607-4462,35.1355900000,129.1023700000,2020-02-20
"부산광역시 남구청",유엔평화로 38번길 13,대연동 1003-17,다목적,1,41,360도전방면,,2010-01,051-607-4462,35.1316900000,129.0911600000,2020-02-20
"부산광역시 남구청",유엔평화로 38번길 23,대연동 1003-16,다목적,2,41,360도전방면,,2010-01,051-607-4462,35.1316900000,129.0911600000,2020-02-20
"부산광역시 남구청",용호4동 895-3,,재난재해,1,200,360도전방면,,2005-01,051-607-4645,35.1029600000,129.1122000000,2020-02-20
"부산광역시 남구청",용호3동 산10-1,,재난재해,1,200,360도전방면,,2008-01,051-607-4645,35.1251500000,129.1235000000,2020-02-20
"부산광역시 남구청",문현2동 751,,재난재해,1,200,360도전방면,,2008-01,051-607-4645,35.1440600000,129.0641000000,2020-02-20
"부산광역시 남구청",용호2동 산 202,,재난재해,1,200,360도전방면,,2009-01,051-607-4645,35.1008000000,129.1238000000,2020-02-20
"부산광역시 남구청",감만동 626-1,,재난재해,1,200,360도전방면,,2009-01,051-607-4645,35.1098900000,129.0693000000,2020-02-20
"부산광역시 남구청",용호1동 965번지,,재난재해,1,200,360도전방면,,2010-01,051-607-4645,35.1322900000,129.1174000000,2020-02-20
"부산광역시 남구청",용호3동 5-21,,재난재해,1,200,360도전방면,,2010-01,051-607-4645,35.1323600000,129.1206000000,2020-02-20
"부산광역시 남구청",용호동 5-5,,재난재해,1,200,360도전방면,,2010-01,051-607-4645,35.1324900000,129.1196000000,2020-02-20
"부산광역시 남구청",신선로514,,재난재해,1,40,360도전방면,,2011-01,051-607-4645,35.1292600000,129.1053000000,2020-02-20
"부산광역시 남구청",신선로514,,재난재해,1,40,360도전방면,,2012-01,051-607-4645,35.1292600000,129.1053000000,2020-02-20
"부산광역시 남구청",신선로514,,재난재해,1,200,360도전방면,,2012-01,051-607-4645,35.1292600000,129.1053000000,2020-02-20
"부산광역시 남구청",이기대공원로7,,재난재해,1,40,360도전방면,,2012-01,051-607-4645,35.1246500000,129.1131000000,2020-02-20
"부산광역시 남구청",용호3동 산1,,재난재해,1,200,360도전방면,,2015-01,051-607-4645,35.1320600000,129.1214000000,2020-02-20
"부산광역시 남구청",이기대공원로7,,재난재해,1,200,360도전방면,,2015-01,051-607-4645,35.1246500000,129.1131000000,2020-02-20
"부산광역시 남구청",이기대공원로7,,재난재해,1,200,360도전방면,,2015-01,051-607-4645,35.1246500000,129.1131000000,2020-02-20
"부산광역시 남구청",이기대공원로7,,재난재해,1,200,360도전방면,,2015-01,051-607-4645,35.1246500000,129.1131000000,2020-02-20
"부산광역시 남구청",수영로 366번길 2,,재난재해,1,200,360도전방면,,2015-01,051-607-4645,35.1359800000,129.1122000000,2020-02-20
"부산광역시 남구청",수영로 366번길 2,,재난재해,1,200,360도전방면,,2015-01,051-607-4645,35.1396700000,129.1055000000,2020-02-20
"부산광역시 남구청",수영로 366번길 3,,재난재해,1,200,360도전방면,,2015-01,051-607-4645,35.1396700000,129.1055000000,2020-02-20
"부산광역시 남구청",수영로 366번길 3,,재난재해,1,200,360도전방면,,2015-01,051-607-4645,35.1497000000,129.0897000000,2020-02-20
"부산광역시 남구청",전포대로 91번길 47,,재난재해,1,200,360도전방면,,2015-01,051-607-4645,35.1443500000,129.0643000000,2020-02-20
"부산광역시 남구청",수영로 4,,재난재해,1,200,360도전방면,,2015-01,051-607-4645,35.1373000000,129.0678000000,2020-02-20
"부산광역시 남구청",수영로 4,,재난재해,1,200,360도전방면,,2015-01,051-607-4645,35.1373000000,129.0678000000,2020-02-20
"부산광역시 남구청",수영로 4,,재난재해,1,200,360도전방면,,2015-01,051-607-4645,35.1373000000,129.0678000000,2020-02-20
"부산광역시 남구청",수영로 4,,재난재해,1,200,360도전방면,,2015-01,051-607-4645,35.1373000000,129.0678000000,2020-02-20
"부산광역시 남구청",수영로 4,,재난재해,1,200,360도전방면,,2015-01,051-607-4645,35.1373000000,129.0678000000,2020-02-20
"부산광역시 남구청",수영로 4,,재난재해,1,200,360도전방면,,2015-01,051-607-4645,35.1373000000,129.0678000000,2020-02-20
"부산광역시 남구청",수영로 4,,재난재해,1,200,360도전방면,,2015-01,051-607-4645,35.1373000000,129.0678000000,2020-02-20
"부산광역시 남구청",동명로 117번길 82,,재난재해,1,200,360도전방면,,2015-01,051-607-4645,35.1237200000,129.1105000000,2020-02-20
"부산광역시 남구청",,동명로 185-17,재난재해,1,200,360도전방면,,2015-01,051-607-4645,35.1193800000,129.1170000000,2020-02-20
"부산광역시 남구청",,문현동 721번지,재난재해,1,200,360도전방면,,2016-01,051-607-4645,35.1377300000,129.0667000000,2020-02-20
"부산광역시 남구청",,용호동 907-28,재난재해,1,200,360도전방면,,2016-01,051-607-4645,35.1138700000,129.1161000000,2020-02-20
"부산광역시 남구청",남동천로 38,,재난재해,1,200,360도전방면,,2016-01,051-607-4645,35.1407500000,129.0660000000,2020-02-20
"부산광역시 남구청",,용호동 산 118-1,재난재해,1,200,360도전방면,,2018-01,051-607-4645,35.1242500000,129.1200000000,2020-02-20
"부산광역시 남구청",,용호동 산 118-1,재난재해,1,200,360도전방면,,2018-01,051-607-4645,35.1242500000,129.1200000000,2020-02-20
"부산광역시 남구청",,용호동 산 197,재난재해,1,200,360도전방면,,2018-01,051-607-4645,35.1839197000,129.0293796000,2020-02-20
"부산광역시 남구청",,용호동 산 197,재난재해,1,200,360도전방면,,2018-01,051-607-4645,35.1839197000,129.0293796000,2020-02-20
"부산광역시 남구청",못골로 23,,시설물관리,9,41,단일방면,,2010-01,051-607-6401,35.1360900000,129.0849700000,2020-02-20
